<?xml version="1.0" encoding="UTF-8"?>
<model ref="r:f940f285-9610-4072-8dbd-05093537b4d4(de.ppme.physunits.actions)">
  <persistence version="9" />
  <languages>
    <use id="aee9cad2-acd4-4608-aef2-0004f6a1cdbd" name="jetbrains.mps.lang.actions" version="-1" />
    <use id="7a5dda62-9140-4668-ab76-d5ed1746f2b2" name="jetbrains.mps.lang.typesystem" version="-1" />
    <use id="13744753-c81f-424a-9c1b-cf8943bf4e86" name="jetbrains.mps.lang.sharedConcepts" version="-1" />
    <devkit ref="fbc25dd2-5da4-483a-8b19-70928e1b62d7(jetbrains.mps.devkit.general-purpose)" />
  </languages>
  <imports>
    <import index="ote2" ref="r:505a4475-a865-4dba-9f1a-b7c0cce39ec5(de.ppme.physunits.structure)" />
    <import index="tpd4" ref="r:00000000-0000-4000-0000-011c895902b4(jetbrains.mps.lang.typesystem.structure)" />
    <import index="tpck" ref="r:00000000-0000-4000-0000-011c89590288(jetbrains.mps.lang.core.structure)" implicit="true" />
    <import index="pfd6" ref="r:9e939139-f0d1-4eb5-9ac6-55348163d9b2(de.ppme.expressions.structure)" implicit="true" />
  </imports>
  <registry>
    <language id="13744753-c81f-424a-9c1b-cf8943bf4e86" name="jetbrains.mps.lang.sharedConcepts">
      <concept id="1161622665029" name="jetbrains.mps.lang.sharedConcepts.structure.ConceptFunctionParameter_model" flags="nn" index="1Q6Npb" />
    </language>
    <language id="f3061a53-9226-4cc5-a443-f952ceaf5816" name="jetbrains.mps.baseLanguage">
      <concept id="1215693861676" name="jetbrains.mps.baseLanguage.structure.BaseAssignmentExpression" flags="nn" index="d038R">
        <child id="1068498886297" name="rValue" index="37vLTx" />
        <child id="1068498886295" name="lValue" index="37vLTJ" />
      </concept>
      <concept id="4836112446988635817" name="jetbrains.mps.baseLanguage.structure.UndefinedType" flags="in" index="2jxLKc" />
      <concept id="1197027756228" name="jetbrains.mps.baseLanguage.structure.DotExpression" flags="nn" index="2OqwBi">
        <child id="1197027771414" name="operand" index="2Oq$k0" />
        <child id="1197027833540" name="operation" index="2OqNvi" />
      </concept>
      <concept id="1137021947720" name="jetbrains.mps.baseLanguage.structure.ConceptFunction" flags="in" index="2VMwT0">
        <child id="1137022507850" name="body" index="2VODD2" />
      </concept>
      <concept id="1070534058343" name="jetbrains.mps.baseLanguage.structure.NullLiteral" flags="nn" index="10Nm6u" />
      <concept id="1068498886296" name="jetbrains.mps.baseLanguage.structure.VariableReference" flags="nn" index="37vLTw">
        <reference id="1068581517664" name="variableDeclaration" index="3cqZAo" />
      </concept>
      <concept id="1068498886294" name="jetbrains.mps.baseLanguage.structure.AssignmentExpression" flags="nn" index="37vLTI" />
      <concept id="4972933694980447171" name="jetbrains.mps.baseLanguage.structure.BaseVariableDeclaration" flags="ng" index="19Szcq">
        <child id="5680397130376446158" name="type" index="1tU5fm" />
      </concept>
      <concept id="1068580123155" name="jetbrains.mps.baseLanguage.structure.ExpressionStatement" flags="nn" index="3clFbF">
        <child id="1068580123156" name="expression" index="3clFbG" />
      </concept>
      <concept id="1068580123136" name="jetbrains.mps.baseLanguage.structure.StatementList" flags="sn" stub="5293379017992965193" index="3clFbS">
        <child id="1068581517665" name="statement" index="3cqZAp" />
      </concept>
      <concept id="1068580320020" name="jetbrains.mps.baseLanguage.structure.IntegerConstant" flags="nn" index="3cmrfG">
        <property id="1068580320021" name="value" index="3cmrfH" />
      </concept>
      <concept id="1081773326031" name="jetbrains.mps.baseLanguage.structure.BinaryOperation" flags="nn" index="3uHJSO">
        <child id="1081773367579" name="rightExpression" index="3uHU7w" />
        <child id="1081773367580" name="leftExpression" index="3uHU7B" />
      </concept>
      <concept id="6329021646629104957" name="jetbrains.mps.baseLanguage.structure.TextCommentPart" flags="nn" index="3SKdUq">
        <property id="6329021646629104958" name="text" index="3SKdUp" />
      </concept>
      <concept id="6329021646629104954" name="jetbrains.mps.baseLanguage.structure.SingleLineComment" flags="nn" index="3SKdUt">
        <child id="6329021646629175155" name="commentPart" index="3SKWNk" />
      </concept>
      <concept id="1080120340718" name="jetbrains.mps.baseLanguage.structure.AndExpression" flags="nn" index="1Wc70l" />
    </language>
    <language id="fd392034-7849-419d-9071-12563d152375" name="jetbrains.mps.baseLanguage.closures">
      <concept id="1199569711397" name="jetbrains.mps.baseLanguage.closures.structure.ClosureLiteral" flags="nn" index="1bVj0M">
        <child id="1199569906740" name="parameter" index="1bW2Oz" />
        <child id="1199569916463" name="body" index="1bW5cS" />
      </concept>
    </language>
    <language id="3a13115c-633c-4c5c-bbcc-75c4219e9555" name="jetbrains.mps.lang.quotation">
      <concept id="5455284157994012186" name="jetbrains.mps.lang.quotation.structure.NodeBuilderInitLink" flags="ng" index="2pIpSj">
        <reference id="5455284157994012188" name="link" index="2pIpSl" />
      </concept>
      <concept id="5455284157993911077" name="jetbrains.mps.lang.quotation.structure.NodeBuilderInitProperty" flags="ng" index="2pJxcG">
        <reference id="5455284157993911078" name="property" index="2pJxcJ" />
      </concept>
      <concept id="5455284157993911097" name="jetbrains.mps.lang.quotation.structure.NodeBuilderInitPart" flags="ng" index="2pJxcK">
        <child id="5455284157993911094" name="expression" index="2pJxcZ" />
      </concept>
      <concept id="5455284157993863837" name="jetbrains.mps.lang.quotation.structure.NodeBuilder" flags="nn" index="2pJPEk">
        <child id="5455284157993863838" name="quotedNode" index="2pJPEn" />
      </concept>
      <concept id="5455284157993863840" name="jetbrains.mps.lang.quotation.structure.NodeBuilderNode" flags="nn" index="2pJPED">
        <reference id="5455284157993910961" name="concept" index="2pJxaS" />
        <child id="5455284157993911099" name="values" index="2pJxcM" />
      </concept>
      <concept id="8182547171709738802" name="jetbrains.mps.lang.quotation.structure.NodeBuilderList" flags="nn" index="36be1Y">
        <child id="8182547171709738803" name="nodes" index="36be1Z" />
      </concept>
      <concept id="8182547171709752110" name="jetbrains.mps.lang.quotation.structure.NodeBuilderExpression" flags="nn" index="36biLy">
        <child id="8182547171709752112" name="expression" index="36biLW" />
      </concept>
    </language>
    <language id="7a5dda62-9140-4668-ab76-d5ed1746f2b2" name="jetbrains.mps.lang.typesystem">
      <concept id="1176544042499" name="jetbrains.mps.lang.typesystem.structure.Node_TypeOperation" flags="nn" index="3JvlWi" />
      <concept id="1178870617262" name="jetbrains.mps.lang.typesystem.structure.CoerceExpression" flags="nn" index="1UaxmW">
        <child id="1178870894644" name="pattern" index="1Ub_4A" />
        <child id="1178870894645" name="nodeToCoerce" index="1Ub_4B" />
      </concept>
      <concept id="1174642788531" name="jetbrains.mps.lang.typesystem.structure.ConceptReference" flags="ig" index="1YaCAy">
        <reference id="1174642800329" name="concept" index="1YaFvo" />
      </concept>
    </language>
    <language id="aee9cad2-acd4-4608-aef2-0004f6a1cdbd" name="jetbrains.mps.lang.actions">
      <concept id="1196433923911" name="jetbrains.mps.lang.actions.structure.SideTransform_SimpleString" flags="nn" index="2h1dTh">
        <property id="1196433942569" name="text" index="2h1i$Z" />
      </concept>
      <concept id="1177323996388" name="jetbrains.mps.lang.actions.structure.AddMenuPart" flags="ng" index="tYCnQ" />
      <concept id="1177333529597" name="jetbrains.mps.lang.actions.structure.ConceptPart" flags="ng" index="uyZFJ">
        <reference id="1177333551023" name="concept" index="uz4UX" />
        <child id="1177333559040" name="part" index="uz6Si" />
      </concept>
      <concept id="1177337833147" name="jetbrains.mps.lang.actions.structure.ConceptFunctionParameter_parameterObject" flags="nn" index="uNquD" />
      <concept id="1177497140107" name="jetbrains.mps.lang.actions.structure.ConceptFunctionParameter_sourceNode" flags="nn" index="Cj7Ep" />
      <concept id="1177498013932" name="jetbrains.mps.lang.actions.structure.SimpleSideTransformMenuPart" flags="ng" index="Cmt7Y">
        <child id="1177498166690" name="matchingText" index="Cn2iK" />
        <child id="1177498182537" name="descriptionText" index="Cn6ar" />
        <child id="1177498207384" name="handler" index="Cncma" />
      </concept>
      <concept id="1177498071304" name="jetbrains.mps.lang.actions.structure.QueryFunction_SideTransform_String" flags="in" index="CmF0q" />
      <concept id="1177498227294" name="jetbrains.mps.lang.actions.structure.QueryFunction_SideTransform_Handler" flags="in" index="Cnhdc" />
      <concept id="1177508764419" name="jetbrains.mps.lang.actions.structure.ParameterizedSideTransformMenuPart" flags="ng" index="CZtCh">
        <child id="1177508914797" name="type" index="D02tZ" />
        <child id="1177508922313" name="query" index="D04br" />
        <child id="1177508933220" name="matchingText" index="D06XQ" />
        <child id="1177508955159" name="descriptionText" index="D0ck5" />
        <child id="1177508966300" name="handler" index="D0eUe" />
      </concept>
      <concept id="1177508842676" name="jetbrains.mps.lang.actions.structure.QueryFunction_ParameterizedSideTransform_Query" flags="in" index="CZKQA" />
      <concept id="1177509289232" name="jetbrains.mps.lang.actions.structure.QueryFunction_ParameterizedSideTransform_Handler" flags="in" index="D1tK2" />
      <concept id="1180111159572" name="jetbrains.mps.lang.actions.structure.IncludeRightTransformForNodePart" flags="ng" index="346O06">
        <child id="1180111489972" name="nodeBlock" index="3484EA" />
      </concept>
      <concept id="1154622616118" name="jetbrains.mps.lang.actions.structure.SideTransformHintSubstitutePreconditionFunction" flags="in" index="3kRJcU" />
      <concept id="1178537049112" name="jetbrains.mps.lang.actions.structure.QueryFunction_SideTransform_NodeQuery" flags="in" index="1Ai3Oa" />
      <concept id="1138079221458" name="jetbrains.mps.lang.actions.structure.SideTransformHintSubstituteActionsBuilder" flags="ig" index="3UNGvq">
        <property id="1215605257730" name="side" index="7I3sp" />
        <reference id="1138079221462" name="applicableConcept" index="3UNGvu" />
        <child id="1177442283389" name="part" index="_1QTJ" />
        <child id="1154622757656" name="precondition" index="3kShCk" />
      </concept>
      <concept id="1138079416598" name="jetbrains.mps.lang.actions.structure.SideTransformHintSubstituteActions" flags="ng" index="3UOs0u">
        <child id="1138079416599" name="actionsBuilder" index="3UOs0v" />
      </concept>
    </language>
    <language id="7866978e-a0f0-4cc7-81bc-4d213d9375e1" name="jetbrains.mps.lang.smodel">
      <concept id="1177026924588" name="jetbrains.mps.lang.smodel.structure.RefConcept_Reference" flags="nn" index="chp4Y">
        <reference id="1177026940964" name="conceptDeclaration" index="cht4Q" />
      </concept>
      <concept id="1138411891628" name="jetbrains.mps.lang.smodel.structure.SNodeOperation" flags="nn" index="eCIE_">
        <child id="1144104376918" name="parameter" index="1xVPHs" />
      </concept>
      <concept id="1143224066846" name="jetbrains.mps.lang.smodel.structure.Node_InsertNextSiblingOperation" flags="nn" index="HtI8k">
        <child id="1143224066849" name="insertedNode" index="HtI8F" />
      </concept>
      <concept id="1143224127713" name="jetbrains.mps.lang.smodel.structure.Node_InsertPrevSiblingOperation" flags="nn" index="HtX7F">
        <child id="1143224127716" name="insertedNode" index="HtX7I" />
      </concept>
      <concept id="1171407110247" name="jetbrains.mps.lang.smodel.structure.Node_GetAncestorOperation" flags="nn" index="2Xjw5R" />
      <concept id="1182511038748" name="jetbrains.mps.lang.smodel.structure.Model_NodesIncludingImportedOperation" flags="nn" index="1j9C0f">
        <reference id="1182511038750" name="concept" index="1j9C0d" />
      </concept>
      <concept id="1139613262185" name="jetbrains.mps.lang.smodel.structure.Node_GetParentOperation" flags="nn" index="1mfA1w" />
      <concept id="1139621453865" name="jetbrains.mps.lang.smodel.structure.Node_IsInstanceOfOperation" flags="nn" index="1mIQ4w">
        <child id="1177027386292" name="conceptArgument" index="cj9EA" />
      </concept>
      <concept id="1171999116870" name="jetbrains.mps.lang.smodel.structure.Node_IsNullOperation" flags="nn" index="3w_OXm" />
      <concept id="1172008320231" name="jetbrains.mps.lang.smodel.structure.Node_IsNotNullOperation" flags="nn" index="3x8VRR" />
      <concept id="1144100932627" name="jetbrains.mps.lang.smodel.structure.OperationParm_Inclusion" flags="ng" index="1xIGOp" />
      <concept id="1144101972840" name="jetbrains.mps.lang.smodel.structure.OperationParm_Concept" flags="ng" index="1xMEDy">
        <child id="1207343664468" name="conceptArgument" index="ri$Ld" />
      </concept>
      <concept id="1144146199828" name="jetbrains.mps.lang.smodel.structure.Node_CopyOperation" flags="nn" index="1$rogu" />
      <concept id="1140131837776" name="jetbrains.mps.lang.smodel.structure.Node_ReplaceWithAnotherOperation" flags="nn" index="1P9Npp">
        <child id="1140131861877" name="replacementNode" index="1P9ThW" />
      </concept>
      <concept id="1138055754698" name="jetbrains.mps.lang.smodel.structure.SNodeType" flags="in" index="3Tqbb2">
        <reference id="1138405853777" name="concept" index="ehGHo" />
      </concept>
      <concept id="1138056022639" name="jetbrains.mps.lang.smodel.structure.SPropertyAccess" flags="nn" index="3TrcHB">
        <reference id="1138056395725" name="property" index="3TsBF5" />
      </concept>
      <concept id="1138056143562" name="jetbrains.mps.lang.smodel.structure.SLinkAccess" flags="nn" index="3TrEf2">
        <reference id="1138056516764" name="link" index="3Tt5mk" />
      </concept>
      <concept id="1138056282393" name="jetbrains.mps.lang.smodel.structure.SLinkListAccess" flags="nn" index="3Tsc0h">
        <reference id="1138056546658" name="link" index="3TtcxE" />
      </concept>
    </language>
    <language id="ceab5195-25ea-4f22-9b92-103b95ca8c0c" name="jetbrains.mps.lang.core">
      <concept id="1169194658468" name="jetbrains.mps.lang.core.structure.INamedConcept" flags="ng" index="TrEIO">
        <property id="1169194664001" name="name" index="TrG5h" />
      </concept>
    </language>
    <language id="83888646-71ce-4f1c-9c53-c54016f6ad4f" name="jetbrains.mps.baseLanguage.collections">
      <concept id="1204796164442" name="jetbrains.mps.baseLanguage.collections.structure.InternalSequenceOperation" flags="nn" index="23sCx2">
        <child id="1204796294226" name="closure" index="23t8la" />
      </concept>
      <concept id="1151702311717" name="jetbrains.mps.baseLanguage.collections.structure.ToListOperation" flags="nn" index="ANE8D" />
      <concept id="1203518072036" name="jetbrains.mps.baseLanguage.collections.structure.SmartClosureParameterDeclaration" flags="ig" index="Rh6nW" />
      <concept id="1201792049884" name="jetbrains.mps.baseLanguage.collections.structure.TranslateOperation" flags="nn" index="3goQfb" />
    </language>
  </registry>
  <node concept="3UOs0u" id="298HrzlBpT5">
    <property role="TrG5h" value="physUnitRef_InstertNew" />
    <node concept="3UNGvq" id="298HrzlBpT6" role="3UOs0v">
      <ref role="3UNGvu" to="ote2:298HrzlAXFM" resolve="PhysicalUnitRef" />
      <node concept="tYCnQ" id="298HrzlBpT9" role="_1QTJ">
        <ref role="uz4UX" to="ote2:298HrzlAXFM" resolve="PhysicalUnitRef" />
        <node concept="Cmt7Y" id="298HrzlBpTb" role="uz6Si">
          <node concept="Cnhdc" id="298HrzlBpTc" role="Cncma">
            <node concept="3clFbS" id="298HrzlBpTd" role="2VODD2">
              <node concept="3clFbF" id="298HrzlBpUb" role="3cqZAp">
                <node concept="2OqwBi" id="298HrzlBpVU" role="3clFbG">
                  <node concept="Cj7Ep" id="298HrzlBpUa" role="2Oq$k0" />
                  <node concept="HtI8k" id="298HrzlBqb2" role="2OqNvi">
                    <node concept="2pJPEk" id="298HrzlBqdn" role="HtI8F">
                      <node concept="2pJPED" id="298HrzlBqez" role="2pJPEn">
                        <ref role="2pJxaS" to="ote2:298HrzlAXFM" resolve="PhysicalUnitRef" />
                        <node concept="2pIpSj" id="298HrzlBqfY" role="2pJxcM">
                          <ref role="2pIpSl" to="ote2:298HrzlAXFV" />
                          <node concept="10Nm6u" id="298HrzlBqhp" role="2pJxcZ" />
                        </node>
                      </node>
                    </node>
                  </node>
                </node>
              </node>
            </node>
          </node>
          <node concept="2h1dTh" id="298HrzlBpTQ" role="Cn2iK">
            <property role="2h1i$Z" value="*" />
          </node>
          <node concept="2h1dTh" id="298HrzlBpTS" role="Cn6ar">
            <property role="2h1i$Z" value="modify unit" />
          </node>
        </node>
      </node>
    </node>
    <node concept="3UNGvq" id="298HrzlBqiB" role="3UOs0v">
      <property role="7I3sp" value="left" />
      <ref role="3UNGvu" to="ote2:298HrzlAXFM" resolve="PhysicalUnitRef" />
      <node concept="tYCnQ" id="298HrzlBqiS" role="_1QTJ">
        <ref role="uz4UX" to="ote2:298HrzlAXFM" resolve="PhysicalUnitRef" />
        <node concept="Cmt7Y" id="298HrzlBqiU" role="uz6Si">
          <node concept="Cnhdc" id="298HrzlBqiV" role="Cncma">
            <node concept="3clFbS" id="298HrzlBqiW" role="2VODD2">
              <node concept="3clFbF" id="298HrzlBqjU" role="3cqZAp">
                <node concept="2OqwBi" id="298HrzlBqlD" role="3clFbG">
                  <node concept="Cj7Ep" id="298HrzlBqjT" role="2Oq$k0" />
                  <node concept="HtX7F" id="298HrzlBqtE" role="2OqNvi">
                    <node concept="2pJPEk" id="298HrzlBquO" role="HtX7I">
                      <node concept="2pJPED" id="298HrzlBqvY" role="2pJPEn">
                        <ref role="2pJxaS" to="ote2:298HrzlAXFM" resolve="PhysicalUnitRef" />
                        <node concept="2pIpSj" id="298HrzlBqxk" role="2pJxcM">
                          <ref role="2pIpSl" to="ote2:298HrzlAXFV" />
                          <node concept="10Nm6u" id="298HrzlBqyJ" role="2pJxcZ" />
                        </node>
                      </node>
                    </node>
                  </node>
                </node>
              </node>
            </node>
          </node>
          <node concept="2h1dTh" id="298HrzlBqj_" role="Cn2iK">
            <property role="2h1i$Z" value="*" />
          </node>
          <node concept="2h1dTh" id="298HrzlBqjB" role="Cn6ar">
            <property role="2h1i$Z" value="modify unit" />
          </node>
        </node>
      </node>
    </node>
  </node>
  <node concept="3UOs0u" id="298HrzlBq$N">
    <property role="TrG5h" value="physUnitRef_AddExponent" />
    <node concept="3UNGvq" id="298HrzlBq$O" role="3UOs0v">
      <ref role="3UNGvu" to="ote2:298HrzlAXFM" resolve="PhysicalUnitRef" />
      <node concept="3kRJcU" id="298HrzlBq_1" role="3kShCk">
        <node concept="3clFbS" id="298HrzlBq_2" role="2VODD2">
          <node concept="3clFbF" id="298HrzlBqDX" role="3cqZAp">
            <node concept="2OqwBi" id="298HrzlBr38" role="3clFbG">
              <node concept="2OqwBi" id="298HrzlBqHX" role="2Oq$k0">
                <node concept="Cj7Ep" id="298HrzlBqDW" role="2Oq$k0" />
                <node concept="3TrEf2" id="298HrzlBqRP" role="2OqNvi">
                  <ref role="3Tt5mk" to="ote2:298HrzlAXFT" />
                </node>
              </node>
              <node concept="3w_OXm" id="298HrzlBrd9" role="2OqNvi" />
            </node>
          </node>
        </node>
      </node>
      <node concept="tYCnQ" id="298HrzlBrje" role="_1QTJ">
        <ref role="uz4UX" to="ote2:298Hrzl_feV" resolve="Exponent" />
        <node concept="Cmt7Y" id="298HrzlBrv6" role="uz6Si">
          <node concept="Cnhdc" id="298HrzlBrv7" role="Cncma">
            <node concept="3clFbS" id="298HrzlBrv8" role="2VODD2">
              <node concept="3clFbF" id="298HrzlBrwm" role="3cqZAp">
                <node concept="37vLTI" id="298HrzlBrNO" role="3clFbG">
                  <node concept="2OqwBi" id="298HrzlBry5" role="37vLTJ">
                    <node concept="Cj7Ep" id="298HrzlBrwl" role="2Oq$k0" />
                    <node concept="3TrEf2" id="298HrzlBrDO" role="2OqNvi">
                      <ref role="3Tt5mk" to="ote2:298HrzlAXFT" />
                    </node>
                  </node>
                  <node concept="2pJPEk" id="298HrzlBrSh" role="37vLTx">
                    <node concept="2pJPED" id="298HrzlBrV0" role="2pJPEn">
                      <ref role="2pJxaS" to="ote2:298Hrzl_feV" resolve="Exponent" />
                      <node concept="2pJxcG" id="298HrzlBrWA" role="2pJxcM">
                        <ref role="2pJxcJ" to="ote2:298Hrzl_fu0" resolve="value" />
                        <node concept="3cmrfG" id="298HrzlBrYf" role="2pJxcZ">
                          <property role="3cmrfH" value="1" />
                        </node>
                      </node>
                    </node>
                  </node>
                </node>
              </node>
            </node>
          </node>
          <node concept="2h1dTh" id="298HrzlBrvL" role="Cn2iK">
            <property role="2h1i$Z" value="^" />
          </node>
          <node concept="2h1dTh" id="298HrzlBrw3" role="Cn6ar">
            <property role="2h1i$Z" value="modify unit" />
          </node>
        </node>
      </node>
    </node>
  </node>
  <node concept="3UOs0u" id="298HrzlCooy">
    <property role="TrG5h" value="type_AddUnit" />
    <node concept="3UNGvq" id="298HrzlCooz" role="3UOs0v">
      <ref role="3UNGvu" to="pfd6:6fgLCPsAWoz" resolve="Type" />
      <node concept="3kRJcU" id="298HrzlCopC" role="3kShCk">
        <node concept="3clFbS" id="298HrzlCopD" role="2VODD2">
          <node concept="3clFbF" id="298HrzlCou$" role="3cqZAp">
            <node concept="2OqwBi" id="298HrzlFGer" role="3clFbG">
              <node concept="Cj7Ep" id="298HrzlFG9W" role="2Oq$k0" />
              <node concept="1mIQ4w" id="298HrzlFGq2" role="2OqNvi">
                <node concept="chp4Y" id="298HrzlFGvT" role="cj9EA">
                  <ref role="cht4Q" to="pfd6:6fgLCPsBwMC" resolve="PrimitiveType" />
                </node>
              </node>
            </node>
          </node>
        </node>
      </node>
      <node concept="tYCnQ" id="298HrzlCp$E" role="_1QTJ">
        <ref role="uz4UX" to="ote2:298HrzlCobB" resolve="AnnotatedType" />
        <node concept="Cmt7Y" id="298HrzlCpLa" role="uz6Si">
          <node concept="Cnhdc" id="298HrzlCpLb" role="Cncma">
            <node concept="3clFbS" id="298HrzlCpLc" role="2VODD2">
              <node concept="3clFbF" id="298HrzlFAEK" role="3cqZAp">
                <node concept="2OqwBi" id="298HrzlFAHB" role="3clFbG">
                  <node concept="Cj7Ep" id="298HrzlFAEI" role="2Oq$k0" />
                  <node concept="1P9Npp" id="298HrzlFARQ" role="2OqNvi">
                    <node concept="2pJPEk" id="298HrzlFAZc" role="1P9ThW">
                      <node concept="2pJPED" id="298HrzlFB1C" role="2pJPEn">
                        <ref role="2pJxaS" to="ote2:298HrzlCobB" resolve="AnnotatedType" />
                        <node concept="2pIpSj" id="298HrzlFB4Q" role="2pJxcM">
                          <ref role="2pIpSl" to="ote2:298HrzlF7GJ" />
                          <node concept="36biLy" id="298HrzlFB7y" role="2pJxcZ">
                            <node concept="2OqwBi" id="298HrzlFBcT" role="36biLW">
                              <node concept="Cj7Ep" id="298HrzlFBaa" role="2Oq$k0" />
                              <node concept="1$rogu" id="298HrzlFBng" role="2OqNvi" />
                            </node>
                          </node>
                        </node>
                        <node concept="2pIpSj" id="298HrzlFBsW" role="2pJxcM">
                          <ref role="2pIpSl" to="ote2:298HrzlCojK" />
                          <node concept="2pJPED" id="298HrzlFBwC" role="2pJxcZ">
                            <ref role="2pJxaS" to="ote2:298HrzlAXFD" resolve="PhysicalUnitSpecification" />
                            <node concept="2pIpSj" id="298HrzlFBwD" role="2pJxcM">
                              <ref role="2pIpSl" to="ote2:298HrzlB1H4" />
                              <node concept="36be1Y" id="298HrzlFBwE" role="2pJxcZ">
                                <node concept="2pJPED" id="298HrzlFBwF" role="36be1Z">
                                  <ref role="2pJxaS" to="ote2:298HrzlAXFM" resolve="PhysicalUnitRef" />
                                  <node concept="2pIpSj" id="298HrzlFBwG" role="2pJxcM">
                                    <ref role="2pIpSl" to="ote2:298HrzlAXFV" />
                                    <node concept="10Nm6u" id="298HrzlFBwH" role="2pJxcZ" />
                                  </node>
                                </node>
                              </node>
                            </node>
                          </node>
                        </node>
                      </node>
                    </node>
                  </node>
                </node>
              </node>
            </node>
          </node>
          <node concept="2h1dTh" id="298HrzlCpLP" role="Cn2iK">
            <property role="2h1i$Z" value="{" />
          </node>
          <node concept="2h1dTh" id="298HrzlCpM7" role="Cn6ar">
            <property role="2h1i$Z" value="add unit annotation" />
          </node>
        </node>
      </node>
    </node>
  </node>
  <node concept="3UOs0u" id="298HrzlDAxg">
    <property role="TrG5h" value="expression_AddUnit" />
    <node concept="3UNGvq" id="298HrzlDAxt" role="3UOs0v">
      <ref role="3UNGvu" to="pfd6:5l83jlMf$Lb" resolve="Expression" />
      <node concept="3kRJcU" id="298HrzlDAxv" role="3kShCk">
        <node concept="3clFbS" id="298HrzlDAxw" role="2VODD2">
          <node concept="3SKdUt" id="298HrzlDDxl" role="3cqZAp">
            <node concept="3SKdUq" id="298HrzlDDCs" role="3SKWNk">
              <property role="3SKdUp" value="Unit specifications can be added if" />
            </node>
          </node>
          <node concept="3SKdUt" id="298HrzlDDRZ" role="3cqZAp">
            <node concept="3SKdUq" id="298HrzlDDZ8" role="3SKWNk">
              <property role="3SKdUp" value="  a) the expression is not annotated yet" />
            </node>
          </node>
          <node concept="3SKdUt" id="298HrzlDEfY" role="3cqZAp">
            <node concept="3SKdUq" id="298HrzlDEn9" role="3SKWNk">
              <property role="3SKdUp" value="  b) the expression is of primitive type" />
            </node>
          </node>
          <node concept="3clFbF" id="298HrzlDAAr" role="3cqZAp">
            <node concept="1Wc70l" id="298HrzlDBWu" role="3clFbG">
              <node concept="2OqwBi" id="298HrzlDD59" role="3uHU7w">
                <node concept="1UaxmW" id="298HrzlDCje" role="2Oq$k0">
                  <node concept="2OqwBi" id="298HrzlDC_C" role="1Ub_4B">
                    <node concept="Cj7Ep" id="298HrzlDCpt" role="2Oq$k0" />
                    <node concept="3JvlWi" id="298HrzlDCJY" role="2OqNvi" />
                  </node>
                  <node concept="1YaCAy" id="298HrzlDCQi" role="1Ub_4A">
                    <property role="TrG5h" value="primitiveType" />
                    <ref role="1YaFvo" to="pfd6:6fgLCPsBwMC" resolve="PrimitiveType" />
                  </node>
                </node>
                <node concept="3x8VRR" id="298HrzlDDjm" role="2OqNvi" />
              </node>
              <node concept="2OqwBi" id="298HrzlDBmx" role="3uHU7B">
                <node concept="2OqwBi" id="298HrzlDAEr" role="2Oq$k0">
                  <node concept="Cj7Ep" id="298HrzlDAAq" role="2Oq$k0" />
                  <node concept="2Xjw5R" id="298HrzlDAXP" role="2OqNvi">
                    <node concept="1xMEDy" id="298HrzlDAXR" role="1xVPHs">
                      <node concept="chp4Y" id="298HrzlDB3g" role="ri$Ld">
                        <ref role="cht4Q" to="ote2:298HrzlDAuk" resolve="AnnotatedExpression" />
                      </node>
                    </node>
                    <node concept="1xIGOp" id="298HrzlDBeZ" role="1xVPHs" />
                  </node>
                </node>
                <node concept="3w_OXm" id="298HrzlDB$H" role="2OqNvi" />
              </node>
            </node>
          </node>
        </node>
      </node>
      <node concept="tYCnQ" id="298HrzlDEIk" role="_1QTJ">
        <ref role="uz4UX" to="ote2:298HrzlDAuk" resolve="AnnotatedExpression" />
        <node concept="CZtCh" id="298HrzlDEVQ" role="uz6Si">
          <node concept="CZKQA" id="298HrzlDEVR" role="D04br">
            <node concept="3clFbS" id="298HrzlDEVS" role="2VODD2">
              <node concept="3clFbF" id="298HrzlDFDO" role="3cqZAp">
                <node concept="2OqwBi" id="298HrzlDN$8" role="3clFbG">
                  <node concept="2OqwBi" id="298HrzlDIzu" role="2Oq$k0">
                    <node concept="2OqwBi" id="298HrzlDGMr" role="2Oq$k0">
                      <node concept="1Q6Npb" id="298HrzlDGpQ" role="2Oq$k0" />
                      <node concept="1j9C0f" id="298HrzlDHht" role="2OqNvi">
                        <ref role="1j9C0d" to="ote2:298HrzlBa4F" resolve="PhysicalUnitDeclarations" />
                      </node>
                    </node>
                    <node concept="3goQfb" id="298HrzlDKJx" role="2OqNvi">
                      <node concept="1bVj0M" id="298HrzlDKJz" role="23t8la">
                        <node concept="3clFbS" id="298HrzlDKJ$" role="1bW5cS">
                          <node concept="3clFbF" id="298HrzlDLLR" role="3cqZAp">
                            <node concept="2OqwBi" id="298HrzlDMdX" role="3clFbG">
                              <node concept="37vLTw" id="298HrzlDLLQ" role="2Oq$k0">
                                <ref role="3cqZAo" node="298HrzlDKJ_" resolve="pud" />
                              </node>
                              <node concept="3Tsc0h" id="298HrzlDMWr" role="2OqNvi">
                                <ref role="3TtcxE" to="ote2:298HrzlBa4I" />
                              </node>
                            </node>
                          </node>
                        </node>
                        <node concept="Rh6nW" id="298HrzlDKJ_" role="1bW2Oz">
                          <property role="TrG5h" value="pud" />
                          <node concept="2jxLKc" id="298HrzlDKJA" role="1tU5fm" />
                        </node>
                      </node>
                    </node>
                  </node>
                  <node concept="ANE8D" id="298HrzlDO$j" role="2OqNvi" />
                </node>
              </node>
            </node>
          </node>
          <node concept="3Tqbb2" id="298HrzlDF5K" role="D02tZ">
            <ref role="ehGHo" to="ote2:298HrzlAXFd" resolve="PhysicalUnit" />
          </node>
          <node concept="D1tK2" id="298HrzlDEVU" role="D0eUe">
            <node concept="3clFbS" id="298HrzlDEVV" role="2VODD2">
              <node concept="3clFbF" id="298HrzlDRTD" role="3cqZAp">
                <node concept="2OqwBi" id="298HrzlF_LS" role="3clFbG">
                  <node concept="Cj7Ep" id="298HrzlF_K3" role="2Oq$k0" />
                  <node concept="1P9Npp" id="298HrzlF_TB" role="2OqNvi">
                    <node concept="2pJPEk" id="298HrzlF_Yi" role="1P9ThW">
                      <node concept="2pJPED" id="298HrzlF_Zq" role="2pJPEn">
                        <ref role="2pJxaS" to="ote2:298HrzlDAuk" resolve="AnnotatedExpression" />
                        <node concept="2pIpSj" id="298HrzlFA0F" role="2pJxcM">
                          <ref role="2pIpSl" to="ote2:298HrzlFgxM" />
                          <node concept="36biLy" id="298HrzlFA20" role="2pJxcZ">
                            <node concept="2OqwBi" id="298HrzlFA5a" role="36biLW">
                              <node concept="Cj7Ep" id="298HrzlFA3h" role="2Oq$k0" />
                              <node concept="1$rogu" id="298HrzlFAdi" role="2OqNvi" />
                            </node>
                          </node>
                        </node>
                        <node concept="2pIpSj" id="298HrzlFAgF" role="2pJxcM">
                          <ref role="2pIpSl" to="ote2:298HrzlDAvl" />
                          <node concept="2pJPED" id="298HrzlFAiA" role="2pJxcZ">
                            <ref role="2pJxaS" to="ote2:298HrzlAXFD" resolve="PhysicalUnitSpecification" />
                            <node concept="2pIpSj" id="298HrzlFAkg" role="2pJxcM">
                              <ref role="2pIpSl" to="ote2:298HrzlB1H4" />
                              <node concept="2pJPED" id="298HrzlFAlY" role="2pJxcZ">
                                <ref role="2pJxaS" to="ote2:298HrzlAXFM" resolve="PhysicalUnitRef" />
                                <node concept="2pIpSj" id="298HrzlFAnD" role="2pJxcM">
                                  <ref role="2pIpSl" to="ote2:298HrzlAXFV" />
                                  <node concept="36biLy" id="298HrzlFApn" role="2pJxcZ">
                                    <node concept="uNquD" id="298HrzlFAr5" role="36biLW" />
                                  </node>
                                </node>
                              </node>
                            </node>
                          </node>
                        </node>
                      </node>
                    </node>
                  </node>
                </node>
              </node>
            </node>
          </node>
          <node concept="CmF0q" id="298HrzlDP4l" role="D06XQ">
            <node concept="3clFbS" id="298HrzlDP4m" role="2VODD2">
              <node concept="3clFbF" id="298HrzlDPBc" role="3cqZAp">
                <node concept="2OqwBi" id="298HrzlDPG9" role="3clFbG">
                  <node concept="uNquD" id="298HrzlDPBb" role="2Oq$k0" />
                  <node concept="3TrcHB" id="298HrzlDPWi" role="2OqNvi">
                    <ref role="3TsBF5" to="tpck:h0TrG11" resolve="name" />
                  </node>
                </node>
              </node>
            </node>
          </node>
          <node concept="CmF0q" id="298HrzlDQ2l" role="D0ck5">
            <node concept="3clFbS" id="298HrzlDQ2m" role="2VODD2">
              <node concept="3clFbF" id="298HrzlDQAk" role="3cqZAp">
                <node concept="2OqwBi" id="298HrzlDQHJ" role="3clFbG">
                  <node concept="uNquD" id="298HrzlDQAj" role="2Oq$k0" />
                  <node concept="3TrcHB" id="298HrzlDQVq" role="2OqNvi">
                    <ref role="3TsBF5" to="ote2:298HrzlAXFt" resolve="desc" />
                  </node>
                </node>
              </node>
            </node>
          </node>
        </node>
      </node>
    </node>
  </node>
  <node concept="3UOs0u" id="3hzmVlLL0lY">
    <property role="TrG5h" value="physUnitRef_in_Expression_IncludeParentTransform" />
    <node concept="3UNGvq" id="3hzmVlLL0oC" role="3UOs0v">
      <ref role="3UNGvu" to="ote2:298HrzlAXFM" resolve="PhysicalUnitRef" />
      <node concept="346O06" id="3hzmVlLL1Hb" role="_1QTJ">
        <node concept="1Ai3Oa" id="3hzmVlLL1Hd" role="3484EA">
          <node concept="3clFbS" id="3hzmVlLL1Hf" role="2VODD2">
            <node concept="3clFbF" id="3hzmVlLL1O3" role="3cqZAp">
              <node concept="2OqwBi" id="3hzmVlLL25W" role="3clFbG">
                <node concept="2OqwBi" id="3hzmVlLL1PM" role="2Oq$k0">
                  <node concept="Cj7Ep" id="3hzmVlLL1O2" role="2Oq$k0" />
                  <node concept="1mfA1w" id="3hzmVlLL1Xx" role="2OqNvi" />
                </node>
                <node concept="1mfA1w" id="3hzmVlLL2cg" role="2OqNvi" />
              </node>
            </node>
          </node>
        </node>
      </node>
      <node concept="3kRJcU" id="3hzmVlLL0oE" role="3kShCk">
        <node concept="3clFbS" id="3hzmVlLL0oF" role="2VODD2">
          <node concept="3clFbF" id="3hzmVlLL0tA" role="3cqZAp">
            <node concept="2OqwBi" id="3hzmVlLL1af" role="3clFbG">
              <node concept="2OqwBi" id="3hzmVlLL0SE" role="2Oq$k0">
                <node concept="2OqwBi" id="3hzmVlLL0xA" role="2Oq$k0">
                  <node concept="Cj7Ep" id="3hzmVlLL0t_" role="2Oq$k0" />
                  <node concept="1mfA1w" id="3hzmVlLL0HU" role="2OqNvi" />
                </node>
                <node concept="1mfA1w" id="3hzmVlLL117" role="2OqNvi" />
              </node>
              <node concept="1mIQ4w" id="3hzmVlLL1qW" role="2OqNvi">
                <node concept="chp4Y" id="3hzmVlLL1wL" role="cj9EA">
                  <ref role="cht4Q" to="pfd6:5l83jlMf$Lb" resolve="Expression" />
                </node>
              </node>
            </node>
          </node>
        </node>
      </node>
    </node>
  </node>
</model>

