<?xml version="1.0" encoding="UTF-8"?>
<model ref="r:cad24d4b-5f2e-4ffd-9307-47c6e6b1bff0(de.ppme.core.constraints)">
  <persistence version="9" />
  <languages>
    <use id="3f4bc5f5-c6c1-4a28-8b10-c83066ffa4a1" name="jetbrains.mps.lang.constraints" version="-1" />
    <use id="7a5dda62-9140-4668-ab76-d5ed1746f2b2" name="jetbrains.mps.lang.typesystem" version="0" />
    <devkit ref="fbc25dd2-5da4-483a-8b19-70928e1b62d7(jetbrains.mps.devkit.general-purpose)" />
  </languages>
  <imports>
    <import index="2gyk" ref="r:be57a480-399b-470c-860e-bdfcf98e0b2c(de.ppme.core.structure)" />
    <import index="6xgk" ref="r:6e9ad488-5df2-49e4-8c01-8a7f3812adf7(jetbrains.mps.lang.scopes.runtime)" />
    <import index="o8zo" ref="r:314576fc-3aee-4386-a0a5-a38348ac317d(jetbrains.mps.scope)" />
    <import index="397v" ref="r:e0a05848-4611-4c14-a0e1-c4d39eaefce4(de.ppme.core.behavior)" implicit="true" />
    <import index="pfd6" ref="r:9e939139-f0d1-4eb5-9ac6-55348163d9b2(de.ppme.expressions.structure)" implicit="true" />
    <import index="tpee" ref="r:00000000-0000-4000-0000-011c895902ca(jetbrains.mps.baseLanguage.structure)" implicit="true" />
    <import index="bkkh" ref="r:0249b848-8a19-49ef-a019-de89bf2328cf(de.ppme.expressions.behavior)" implicit="true" />
    <import index="c9eo" ref="r:493484be-3d66-4fd8-b261-ed47cd8c6981(de.ppme.statements.structure)" implicit="true" />
  </imports>
  <registry>
    <language id="f3061a53-9226-4cc5-a443-f952ceaf5816" name="jetbrains.mps.baseLanguage">
      <concept id="1080223426719" name="jetbrains.mps.baseLanguage.structure.OrExpression" flags="nn" index="22lmx$" />
      <concept id="1082485599095" name="jetbrains.mps.baseLanguage.structure.BlockStatement" flags="nn" index="9aQIb">
        <child id="1082485599096" name="statements" index="9aQI4" />
      </concept>
      <concept id="1215693861676" name="jetbrains.mps.baseLanguage.structure.BaseAssignmentExpression" flags="nn" index="d038R">
        <child id="1068498886297" name="rValue" index="37vLTx" />
        <child id="1068498886295" name="lValue" index="37vLTJ" />
      </concept>
      <concept id="1076505808687" name="jetbrains.mps.baseLanguage.structure.WhileStatement" flags="nn" index="2$JKZl">
        <child id="1076505808688" name="condition" index="2$JKZa" />
      </concept>
      <concept id="1154032098014" name="jetbrains.mps.baseLanguage.structure.AbstractLoopStatement" flags="nn" index="2LF5Ji">
        <child id="1154032183016" name="body" index="2LFqv$" />
      </concept>
      <concept id="1197027756228" name="jetbrains.mps.baseLanguage.structure.DotExpression" flags="nn" index="2OqwBi">
        <child id="1197027771414" name="operand" index="2Oq$k0" />
        <child id="1197027833540" name="operation" index="2OqNvi" />
      </concept>
      <concept id="1145552977093" name="jetbrains.mps.baseLanguage.structure.GenericNewExpression" flags="nn" index="2ShNRf">
        <child id="1145553007750" name="creator" index="2ShVmc" />
      </concept>
      <concept id="1137021947720" name="jetbrains.mps.baseLanguage.structure.ConceptFunction" flags="in" index="2VMwT0">
        <child id="1137022507850" name="body" index="2VODD2" />
      </concept>
      <concept id="1070475926800" name="jetbrains.mps.baseLanguage.structure.StringLiteral" flags="nn" index="Xl_RD">
        <property id="1070475926801" name="value" index="Xl_RC" />
      </concept>
      <concept id="1068431474542" name="jetbrains.mps.baseLanguage.structure.VariableDeclaration" flags="ng" index="33uBYm">
        <child id="1068431790190" name="initializer" index="33vP2m" />
      </concept>
      <concept id="1068498886296" name="jetbrains.mps.baseLanguage.structure.VariableReference" flags="nn" index="37vLTw">
        <reference id="1068581517664" name="variableDeclaration" index="3cqZAo" />
      </concept>
      <concept id="1068498886294" name="jetbrains.mps.baseLanguage.structure.AssignmentExpression" flags="nn" index="37vLTI" />
      <concept id="4972933694980447171" name="jetbrains.mps.baseLanguage.structure.BaseVariableDeclaration" flags="ng" index="19Szcq">
        <child id="5680397130376446158" name="type" index="1tU5fm" />
      </concept>
      <concept id="1068580123152" name="jetbrains.mps.baseLanguage.structure.EqualsExpression" flags="nn" index="3clFbC" />
      <concept id="1068580123155" name="jetbrains.mps.baseLanguage.structure.ExpressionStatement" flags="nn" index="3clFbF">
        <child id="1068580123156" name="expression" index="3clFbG" />
      </concept>
      <concept id="1068580123157" name="jetbrains.mps.baseLanguage.structure.Statement" flags="nn" index="3clFbH" />
      <concept id="1068580123159" name="jetbrains.mps.baseLanguage.structure.IfStatement" flags="nn" index="3clFbJ">
        <child id="1082485599094" name="ifFalseStatement" index="9aQIa" />
        <child id="1068580123160" name="condition" index="3clFbw" />
        <child id="1068580123161" name="ifTrue" index="3clFbx" />
      </concept>
      <concept id="1068580123136" name="jetbrains.mps.baseLanguage.structure.StatementList" flags="sn" stub="5293379017992965193" index="3clFbS">
        <child id="1068581517665" name="statement" index="3cqZAp" />
      </concept>
      <concept id="1068580123137" name="jetbrains.mps.baseLanguage.structure.BooleanConstant" flags="nn" index="3clFbT">
        <property id="1068580123138" name="value" index="3clFbU" />
      </concept>
      <concept id="1068581242878" name="jetbrains.mps.baseLanguage.structure.ReturnStatement" flags="nn" index="3cpWs6">
        <child id="1068581517676" name="expression" index="3cqZAk" />
      </concept>
      <concept id="1068581242864" name="jetbrains.mps.baseLanguage.structure.LocalVariableDeclarationStatement" flags="nn" index="3cpWs8">
        <child id="1068581242865" name="localVariableDeclaration" index="3cpWs9" />
      </concept>
      <concept id="1068581242863" name="jetbrains.mps.baseLanguage.structure.LocalVariableDeclaration" flags="nr" index="3cpWsn" />
      <concept id="1079359253375" name="jetbrains.mps.baseLanguage.structure.ParenthesizedExpression" flags="nn" index="1eOMI4">
        <child id="1079359253376" name="expression" index="1eOMHV" />
      </concept>
      <concept id="1081516740877" name="jetbrains.mps.baseLanguage.structure.NotExpression" flags="nn" index="3fqX7Q">
        <child id="1081516765348" name="expression" index="3fr31v" />
      </concept>
      <concept id="1204053956946" name="jetbrains.mps.baseLanguage.structure.IMethodCall" flags="ng" index="1ndlxa">
        <reference id="1068499141037" name="baseMethodDeclaration" index="37wK5l" />
        <child id="1068499141038" name="actualArgument" index="37wK5m" />
      </concept>
      <concept id="1212685548494" name="jetbrains.mps.baseLanguage.structure.ClassCreator" flags="nn" index="1pGfFk" />
      <concept id="1081773326031" name="jetbrains.mps.baseLanguage.structure.BinaryOperation" flags="nn" index="3uHJSO">
        <child id="1081773367579" name="rightExpression" index="3uHU7w" />
        <child id="1081773367580" name="leftExpression" index="3uHU7B" />
      </concept>
      <concept id="6329021646629104957" name="jetbrains.mps.baseLanguage.structure.TextCommentPart" flags="nn" index="3SKdUq">
        <property id="6329021646629104958" name="text" index="3SKdUp" />
      </concept>
      <concept id="6329021646629104954" name="jetbrains.mps.baseLanguage.structure.SingleLineComment" flags="nn" index="3SKdUt">
        <child id="6329021646629175155" name="commentPart" index="3SKWNk" />
      </concept>
      <concept id="6329021646629175143" name="jetbrains.mps.baseLanguage.structure.StatementCommentPart" flags="nn" index="3SKWN0">
        <child id="6329021646629175144" name="commentedStatement" index="3SKWNf" />
      </concept>
      <concept id="1080120340718" name="jetbrains.mps.baseLanguage.structure.AndExpression" flags="nn" index="1Wc70l" />
    </language>
    <language id="3f4bc5f5-c6c1-4a28-8b10-c83066ffa4a1" name="jetbrains.mps.lang.constraints">
      <concept id="1148934636683" name="jetbrains.mps.lang.constraints.structure.ConceptParameter_ReferentSearchScope_enclosingNode" flags="nn" index="21POm0" />
      <concept id="1202989531578" name="jetbrains.mps.lang.constraints.structure.ConstraintFunction_CanBeAChild" flags="in" index="nKS2y" />
      <concept id="1202989658459" name="jetbrains.mps.lang.constraints.structure.ConstraintFunctionParameter_parentNode" flags="nn" index="nLn13" />
      <concept id="1203009604308" name="jetbrains.mps.lang.constraints.structure.ConstraintFunctionParameter_link" flags="nn" index="oXsJc" />
      <concept id="6738154313879680265" name="jetbrains.mps.lang.constraints.structure.ConstraintFunctionParameter_childNode" flags="nn" index="2H4GUG" />
      <concept id="7855321458717464197" name="jetbrains.mps.lang.constraints.structure.ConstraintFunction_CanBeAnAncestor" flags="in" index="Um2eU" />
      <concept id="5676632058862809931" name="jetbrains.mps.lang.constraints.structure.ConstraintFunction_ReferentSearchScope_Scope" flags="in" index="13QW63" />
      <concept id="1213093968558" name="jetbrains.mps.lang.constraints.structure.ConceptConstraints" flags="ng" index="1M2fIO">
        <reference id="1213093996982" name="concept" index="1M2myG" />
        <child id="7852712695066883424" name="canBeAncestor" index="1kkKnR" />
        <child id="1213100494875" name="referent" index="1Mr941" />
        <child id="1213106463729" name="canBeChild" index="1MLUbF" />
      </concept>
      <concept id="1148687176410" name="jetbrains.mps.lang.constraints.structure.NodeReferentConstraint" flags="ng" index="1N5Pfh">
        <reference id="1148687202698" name="applicableLink" index="1N5Vy1" />
        <child id="1148687345559" name="searchScopeFactory" index="1N6uqs" />
      </concept>
    </language>
    <language id="7a5dda62-9140-4668-ab76-d5ed1746f2b2" name="jetbrains.mps.lang.typesystem">
      <concept id="6359146168314178663" name="jetbrains.mps.lang.typesystem.structure.Node_InferTypeOperation" flags="nn" index="HpLno" />
      <concept id="1176544042499" name="jetbrains.mps.lang.typesystem.structure.Node_TypeOperation" flags="nn" index="3JvlWi" />
      <concept id="1178870617262" name="jetbrains.mps.lang.typesystem.structure.CoerceExpression" flags="nn" index="1UaxmW">
        <child id="1178870894644" name="pattern" index="1Ub_4A" />
        <child id="1178870894645" name="nodeToCoerce" index="1Ub_4B" />
      </concept>
      <concept id="1178871491133" name="jetbrains.mps.lang.typesystem.structure.CoerceStrongExpression" flags="nn" index="1UdQGJ" />
      <concept id="1174642788531" name="jetbrains.mps.lang.typesystem.structure.ConceptReference" flags="ig" index="1YaCAy">
        <reference id="1174642800329" name="concept" index="1YaFvo" />
      </concept>
    </language>
    <language id="760a0a8c-eabb-4521-8bfd-65db761a9ba3" name="jetbrains.mps.baseLanguage.logging">
      <concept id="1167227138527" name="jetbrains.mps.baseLanguage.logging.structure.LogStatement" flags="nn" index="34ab3g">
        <property id="1167245565795" name="severity" index="35gtTG" />
        <child id="1167227463056" name="logExpression" index="34bqiv" />
      </concept>
    </language>
    <language id="7866978e-a0f0-4cc7-81bc-4d213d9375e1" name="jetbrains.mps.lang.smodel">
      <concept id="1226359078165" name="jetbrains.mps.lang.smodel.structure.LinkRefExpression" flags="nn" index="28GBK8">
        <reference id="1226359078166" name="conceptDeclaration" index="28GBKb" />
        <reference id="1226359192215" name="linkDeclaration" index="28H3Ia" />
      </concept>
      <concept id="1177026924588" name="jetbrains.mps.lang.smodel.structure.RefConcept_Reference" flags="nn" index="chp4Y">
        <reference id="1177026940964" name="conceptDeclaration" index="cht4Q" />
      </concept>
      <concept id="1138411891628" name="jetbrains.mps.lang.smodel.structure.SNodeOperation" flags="nn" index="eCIE_">
        <child id="1144104376918" name="parameter" index="1xVPHs" />
      </concept>
      <concept id="1179409122411" name="jetbrains.mps.lang.smodel.structure.Node_ConceptMethodCall" flags="nn" index="2qgKlT" />
      <concept id="1173122760281" name="jetbrains.mps.lang.smodel.structure.Node_GetAncestorsOperation" flags="nn" index="z$bX8" />
      <concept id="1171407110247" name="jetbrains.mps.lang.smodel.structure.Node_GetAncestorOperation" flags="nn" index="2Xjw5R" />
      <concept id="1139613262185" name="jetbrains.mps.lang.smodel.structure.Node_GetParentOperation" flags="nn" index="1mfA1w" />
      <concept id="1139621453865" name="jetbrains.mps.lang.smodel.structure.Node_IsInstanceOfOperation" flags="nn" index="1mIQ4w">
        <child id="1177027386292" name="conceptArgument" index="cj9EA" />
      </concept>
      <concept id="1171999116870" name="jetbrains.mps.lang.smodel.structure.Node_IsNullOperation" flags="nn" index="3w_OXm" />
      <concept id="1172008320231" name="jetbrains.mps.lang.smodel.structure.Node_IsNotNullOperation" flags="nn" index="3x8VRR" />
      <concept id="1144101972840" name="jetbrains.mps.lang.smodel.structure.OperationParm_Concept" flags="ng" index="1xMEDy">
        <child id="1207343664468" name="conceptArgument" index="ri$Ld" />
      </concept>
      <concept id="6407023681583036853" name="jetbrains.mps.lang.smodel.structure.NodeAttributeQualifier" flags="ng" index="3CFYIy">
        <reference id="6407023681583036854" name="attributeConcept" index="3CFYIx" />
      </concept>
      <concept id="6407023681583031218" name="jetbrains.mps.lang.smodel.structure.AttributeAccess" flags="nn" index="3CFZ6_">
        <child id="6407023681583036852" name="qualifier" index="3CFYIz" />
      </concept>
      <concept id="1140137987495" name="jetbrains.mps.lang.smodel.structure.SNodeTypeCastExpression" flags="nn" index="1PxgMI">
        <reference id="1140138128738" name="concept" index="1PxNhF" />
        <child id="1140138123956" name="leftExpression" index="1PxMeX" />
      </concept>
      <concept id="1138055754698" name="jetbrains.mps.lang.smodel.structure.SNodeType" flags="in" index="3Tqbb2">
        <reference id="1138405853777" name="concept" index="ehGHo" />
      </concept>
      <concept id="1138056143562" name="jetbrains.mps.lang.smodel.structure.SLinkAccess" flags="nn" index="3TrEf2">
        <reference id="1138056516764" name="link" index="3Tt5mk" />
      </concept>
    </language>
    <language id="ceab5195-25ea-4f22-9b92-103b95ca8c0c" name="jetbrains.mps.lang.core">
      <concept id="1133920641626" name="jetbrains.mps.lang.core.structure.BaseConcept" flags="ng" index="2VYdi">
        <property id="1193676396447" name="virtualPackage" index="3GE5qa" />
      </concept>
      <concept id="1169194658468" name="jetbrains.mps.lang.core.structure.INamedConcept" flags="ng" index="TrEIO">
        <property id="1169194664001" name="name" index="TrG5h" />
      </concept>
    </language>
    <language id="83888646-71ce-4f1c-9c53-c54016f6ad4f" name="jetbrains.mps.baseLanguage.collections">
      <concept id="1176501494711" name="jetbrains.mps.baseLanguage.collections.structure.IsNotEmptyOperation" flags="nn" index="3GX2aA" />
    </language>
  </registry>
  <node concept="1M2fIO" id="2zxr1HVm6w2">
    <property role="3GE5qa" value="stmts" />
    <ref role="1M2myG" to="2gyk:2zxr1HVm6oe" resolve="ODEStatement" />
    <node concept="nKS2y" id="2zxr1HVm6w3" role="1MLUbF">
      <node concept="3clFbS" id="2zxr1HVm6w4" role="2VODD2">
        <node concept="3SKdUt" id="2zxr1HVm6w5" role="3cqZAp">
          <node concept="3SKdUq" id="2zxr1HVm6w6" role="3SKWNk">
            <property role="3SKdUp" value="ODE blocks can only occur within a timeloop" />
          </node>
        </node>
        <node concept="3clFbF" id="2zxr1HVm6w7" role="3cqZAp">
          <node concept="22lmx$" id="2zxr1HVm6w8" role="3clFbG">
            <node concept="2OqwBi" id="2zxr1HVm6w9" role="3uHU7w">
              <node concept="2OqwBi" id="2zxr1HVm6wa" role="2Oq$k0">
                <node concept="nLn13" id="2zxr1HVm6wb" role="2Oq$k0" />
                <node concept="2Xjw5R" id="2zxr1HVm6wc" role="2OqNvi">
                  <node concept="1xMEDy" id="2zxr1HVm6wd" role="1xVPHs">
                    <node concept="chp4Y" id="2zxr1HVm6we" role="ri$Ld">
                      <ref role="cht4Q" to="2gyk:2zxr1HVkFW8" resolve="TimeloopStatement" />
                    </node>
                  </node>
                </node>
              </node>
              <node concept="3x8VRR" id="2zxr1HVm6wf" role="2OqNvi" />
            </node>
            <node concept="2OqwBi" id="2zxr1HVm6wg" role="3uHU7B">
              <node concept="nLn13" id="2zxr1HVm6wh" role="2Oq$k0" />
              <node concept="1mIQ4w" id="2zxr1HVm6wi" role="2OqNvi">
                <node concept="chp4Y" id="2zxr1HVm6wj" role="cj9EA">
                  <ref role="cht4Q" to="2gyk:2zxr1HVkFW8" resolve="TimeloopStatement" />
                </node>
              </node>
            </node>
          </node>
        </node>
      </node>
    </node>
    <node concept="Um2eU" id="2bnyqnQ7$V2" role="1kkKnR">
      <node concept="3clFbS" id="2bnyqnQ7$V3" role="2VODD2">
        <node concept="3clFbJ" id="2bnyqnQ7A6X" role="3cqZAp">
          <node concept="3clFbS" id="2bnyqnQ7A6Z" role="3clFbx">
            <node concept="3cpWs6" id="2bnyqnQ7BVb" role="3cqZAp">
              <node concept="22lmx$" id="6LuOEhgCupN" role="3cqZAk">
                <node concept="2OqwBi" id="6LuOEhgCuBz" role="3uHU7w">
                  <node concept="2H4GUG" id="6LuOEhgCuxJ" role="2Oq$k0" />
                  <node concept="1mIQ4w" id="6LuOEhgCuM4" role="2OqNvi">
                    <node concept="chp4Y" id="6LuOEhgCuTR" role="cj9EA">
                      <ref role="cht4Q" to="c9eo:3yJ4dri0HDh" resolve="IfStatement" />
                    </node>
                  </node>
                </node>
                <node concept="22lmx$" id="2bnyqnQ93Fl" role="3uHU7B">
                  <node concept="2OqwBi" id="2bnyqnQ7Cc3" role="3uHU7B">
                    <node concept="2H4GUG" id="2bnyqnQ7C6O" role="2Oq$k0" />
                    <node concept="1mIQ4w" id="2bnyqnQ7ClP" role="2OqNvi">
                      <node concept="chp4Y" id="2bnyqnQ7Cqm" role="cj9EA">
                        <ref role="cht4Q" to="2gyk:1aS1l$r677" resolve="RightHandSideStatement" />
                      </node>
                    </node>
                  </node>
                  <node concept="2OqwBi" id="2bnyqnQ93Sn" role="3uHU7w">
                    <node concept="2H4GUG" id="2bnyqnQ93MN" role="2Oq$k0" />
                    <node concept="1mIQ4w" id="2bnyqnQ942C" role="2OqNvi">
                      <node concept="chp4Y" id="2bnyqnQ94ab" role="cj9EA">
                        <ref role="cht4Q" to="c9eo:5l83jlMhgFI" resolve="StatementList" />
                      </node>
                    </node>
                  </node>
                </node>
              </node>
            </node>
          </node>
          <node concept="2OqwBi" id="2bnyqnQ7_FB" role="3clFbw">
            <node concept="2H4GUG" id="2bnyqnQ7_C1" role="2Oq$k0" />
            <node concept="1mIQ4w" id="2bnyqnQ7_Qb" role="2OqNvi">
              <node concept="chp4Y" id="2bnyqnQ7_VI" role="cj9EA">
                <ref role="cht4Q" to="c9eo:5l83jlMhgCt" resolve="Statement" />
              </node>
            </node>
          </node>
        </node>
        <node concept="3cpWs6" id="2bnyqnQ7CQd" role="3cqZAp">
          <node concept="3clFbT" id="2bnyqnQ7CVN" role="3cqZAk">
            <property role="3clFbU" value="true" />
          </node>
        </node>
      </node>
    </node>
  </node>
  <node concept="1M2fIO" id="m1E9k9ePsV">
    <property role="3GE5qa" value="expr" />
    <ref role="1M2myG" to="2gyk:m1E9k9ePok" resolve="IAccess" />
    <node concept="nKS2y" id="m1E9k9ePtw" role="1MLUbF">
      <node concept="3clFbS" id="m1E9k9ePtx" role="2VODD2">
        <node concept="3SKdUt" id="m1E9k9ePyr" role="3cqZAp">
          <node concept="3SKdUq" id="m1E9k9ePBk" role="3SKWNk">
            <property role="3SKdUp" value="an &quot;access&quot; can only be 'operation' child in UnderscoreExpression" />
          </node>
        </node>
        <node concept="3clFbF" id="m1E9k9ePOm" role="3cqZAp">
          <node concept="1Wc70l" id="m1E9k9eQlT" role="3clFbG">
            <node concept="1eOMI4" id="m1E9k9eQsG" role="3uHU7w">
              <node concept="3clFbC" id="m1E9k9eQRJ" role="1eOMHV">
                <node concept="28GBK8" id="m1E9k9eQYC" role="3uHU7w">
                  <ref role="28GBKb" to="2gyk:m1E9k9eONZ" resolve="ArrowExpression" />
                  <ref role="28H3Ia" to="2gyk:m1E9k9eOTV" />
                </node>
                <node concept="oXsJc" id="m1E9k9eQIx" role="3uHU7B" />
              </node>
            </node>
            <node concept="2OqwBi" id="m1E9k9ePRX" role="3uHU7B">
              <node concept="nLn13" id="m1E9k9ePOk" role="2Oq$k0" />
              <node concept="1mIQ4w" id="m1E9k9eQ2X" role="2OqNvi">
                <node concept="chp4Y" id="m1E9k9eQ8v" role="cj9EA">
                  <ref role="cht4Q" to="2gyk:m1E9k9eONZ" resolve="ArrowExpression" />
                </node>
              </node>
            </node>
          </node>
        </node>
      </node>
    </node>
  </node>
  <node concept="1M2fIO" id="m1E9k9gnvS">
    <property role="3GE5qa" value="expr" />
    <ref role="1M2myG" to="2gyk:m1E9k9gn6i" resolve="PositionMemberAccess" />
    <node concept="nKS2y" id="m1E9k9gnwr" role="1MLUbF">
      <node concept="3clFbS" id="m1E9k9gnws" role="2VODD2">
        <node concept="3cpWs8" id="m1E9k9gn_V" role="3cqZAp">
          <node concept="3cpWsn" id="m1E9k9gn_Y" role="3cpWs9">
            <property role="TrG5h" value="operand" />
            <node concept="3Tqbb2" id="m1E9k9gn_U" role="1tU5fm">
              <ref role="ehGHo" to="pfd6:5l83jlMf$Lb" resolve="Expression" />
            </node>
            <node concept="2OqwBi" id="m1E9k9go_7" role="33vP2m">
              <node concept="1PxgMI" id="m1E9k9gooS" role="2Oq$k0">
                <ref role="1PxNhF" to="2gyk:m1E9k9eONZ" resolve="ArrowExpression" />
                <node concept="nLn13" id="m1E9k9go2o" role="1PxMeX" />
              </node>
              <node concept="3TrEf2" id="m1E9k9goO_" role="2OqNvi">
                <ref role="3Tt5mk" to="2gyk:m1E9k9eOTT" />
              </node>
            </node>
          </node>
        </node>
        <node concept="3cpWs8" id="m1E9k9gplu" role="3cqZAp">
          <node concept="3cpWsn" id="m1E9k9gpl$" role="3cpWs9">
            <property role="TrG5h" value="particleType" />
            <node concept="3Tqbb2" id="m1E9k9gprE" role="1tU5fm">
              <ref role="ehGHo" to="2gyk:5gQ2EqXQH6v" resolve="ParticleType" />
            </node>
            <node concept="1UdQGJ" id="m1E9k9gq2V" role="33vP2m">
              <node concept="1YaCAy" id="m1E9k9gqxP" role="1Ub_4A">
                <property role="TrG5h" value="particleType" />
                <ref role="1YaFvo" to="2gyk:5gQ2EqXQH6v" resolve="ParticleType" />
              </node>
              <node concept="2OqwBi" id="m1E9k9gqhC" role="1Ub_4B">
                <node concept="37vLTw" id="m1E9k9gq9M" role="2Oq$k0">
                  <ref role="3cqZAo" node="m1E9k9gn_Y" resolve="operand" />
                </node>
                <node concept="3JvlWi" id="m1E9k9gqrH" role="2OqNvi" />
              </node>
            </node>
          </node>
        </node>
        <node concept="3clFbJ" id="m1E9k9gqRh" role="3cqZAp">
          <node concept="3clFbS" id="m1E9k9gqRj" role="3clFbx">
            <node concept="3cpWs6" id="m1E9k9grsE" role="3cqZAp">
              <node concept="3clFbT" id="m1E9k9grsR" role="3cqZAk">
                <property role="3clFbU" value="false" />
              </node>
            </node>
          </node>
          <node concept="2OqwBi" id="m1E9k9gr49" role="3clFbw">
            <node concept="37vLTw" id="m1E9k9gqUR" role="2Oq$k0">
              <ref role="3cqZAo" node="m1E9k9gpl$" resolve="particleType" />
            </node>
            <node concept="3w_OXm" id="m1E9k9grkP" role="2OqNvi" />
          </node>
        </node>
        <node concept="3cpWs6" id="m1E9k9grCC" role="3cqZAp">
          <node concept="3clFbT" id="m1E9k9grNF" role="3cqZAk">
            <property role="3clFbU" value="true" />
          </node>
        </node>
      </node>
    </node>
  </node>
  <node concept="1M2fIO" id="52AxEEP0lzw">
    <property role="3GE5qa" value="expr.plist" />
    <ref role="1M2myG" to="2gyk:52AxEEP0ivF" resolve="ParticleListMemberAccess" />
    <node concept="1N5Pfh" id="52AxEEP0mku" role="1Mr941">
      <ref role="1N5Vy1" to="2gyk:52AxEEP0iNz" />
      <node concept="13QW63" id="52AxEEP0mky" role="1N6uqs">
        <node concept="3clFbS" id="52AxEEP0mk$" role="2VODD2">
          <node concept="3cpWs8" id="52AxEEP0NwE" role="3cqZAp">
            <node concept="3cpWsn" id="52AxEEP0NwK" role="3cpWs9">
              <property role="TrG5h" value="o" />
              <node concept="3Tqbb2" id="52AxEEP0OuI" role="1tU5fm">
                <ref role="ehGHo" to="pfd6:5l83jlMf$Lb" resolve="Expression" />
              </node>
              <node concept="2OqwBi" id="52AxEEP0O$s" role="33vP2m">
                <node concept="1PxgMI" id="52AxEEP0Ox5" role="2Oq$k0">
                  <ref role="1PxNhF" to="2gyk:m1E9k9eONZ" resolve="ArrowExpression" />
                  <node concept="21POm0" id="52AxEEP0OvD" role="1PxMeX" />
                </node>
                <node concept="3TrEf2" id="52AxEEP0OJq" role="2OqNvi">
                  <ref role="3Tt5mk" to="2gyk:m1E9k9eOTT" />
                </node>
              </node>
            </node>
          </node>
          <node concept="3cpWs8" id="6Wx7SFgkHpA" role="3cqZAp">
            <node concept="3cpWsn" id="6Wx7SFgkHpD" role="3cpWs9">
              <property role="TrG5h" value="plistType" />
              <node concept="3Tqbb2" id="6Wx7SFgkHp$" role="1tU5fm">
                <ref role="ehGHo" to="2gyk:6Wx7SFgabxi" resolve="ParticleListType" />
              </node>
              <node concept="1UdQGJ" id="6Wx7SFgkIF0" role="33vP2m">
                <node concept="1YaCAy" id="6Wx7SFgkJgx" role="1Ub_4A">
                  <property role="TrG5h" value="particleListType" />
                  <ref role="1YaFvo" to="2gyk:6Wx7SFgabxi" resolve="ParticleListType" />
                </node>
                <node concept="2OqwBi" id="6Wx7SFgkIUN" role="1Ub_4B">
                  <node concept="37vLTw" id="6Wx7SFgkIO0" role="2Oq$k0">
                    <ref role="3cqZAo" node="52AxEEP0NwK" resolve="o" />
                  </node>
                  <node concept="3JvlWi" id="6Wx7SFgkJ7$" role="2OqNvi" />
                </node>
              </node>
            </node>
          </node>
          <node concept="3clFbH" id="6Wx7SFgkJy$" role="3cqZAp" />
          <node concept="3clFbJ" id="6Wx7SFgkJHA" role="3cqZAp">
            <node concept="3clFbS" id="6Wx7SFgkJHC" role="3clFbx">
              <node concept="3cpWs6" id="52AxEEP2qTH" role="3cqZAp">
                <node concept="2ShNRf" id="52AxEEP2rfm" role="3cqZAk">
                  <node concept="1pGfFk" id="52AxEEP2r_A" role="2ShVmc">
                    <ref role="37wK5l" to="o8zo:7ipADkTfAzT" resolve="EmptyScope" />
                  </node>
                </node>
              </node>
            </node>
            <node concept="2OqwBi" id="6Wx7SFgkKOb" role="3clFbw">
              <node concept="2OqwBi" id="6Wx7SFgkK0X" role="2Oq$k0">
                <node concept="37vLTw" id="6Wx7SFgkJRI" role="2Oq$k0">
                  <ref role="3cqZAo" node="6Wx7SFgkHpD" resolve="plistType" />
                </node>
                <node concept="3TrEf2" id="6Wx7SFgkKpC" role="2OqNvi">
                  <ref role="3Tt5mk" to="2gyk:6Wx7SFgkzN1" />
                </node>
              </node>
              <node concept="3w_OXm" id="6Wx7SFgkLhI" role="2OqNvi" />
            </node>
          </node>
          <node concept="3clFbH" id="52AxEEP0OMd" role="3cqZAp" />
          <node concept="3cpWs8" id="52AxEEP1cFp" role="3cqZAp">
            <node concept="3cpWsn" id="52AxEEP1cFv" role="3cpWs9">
              <property role="TrG5h" value="plist" />
              <node concept="3Tqbb2" id="52AxEEP1cTC" role="1tU5fm">
                <ref role="ehGHo" to="2gyk:6Wx7SFgebB4" resolve="IParticleList" />
              </node>
              <node concept="2OqwBi" id="6Wx7SFgkN5W" role="33vP2m">
                <node concept="37vLTw" id="6Wx7SFgkMWp" role="2Oq$k0">
                  <ref role="3cqZAo" node="6Wx7SFgkHpD" resolve="plistType" />
                </node>
                <node concept="3TrEf2" id="6Wx7SFgkNw5" role="2OqNvi">
                  <ref role="3Tt5mk" to="2gyk:6Wx7SFgkzN1" />
                </node>
              </node>
            </node>
          </node>
          <node concept="3cpWs6" id="6Wx7SFgkOVe" role="3cqZAp">
            <node concept="2ShNRf" id="6Wx7SFgkOY8" role="3cqZAk">
              <node concept="1pGfFk" id="6Wx7SFgkP7l" role="2ShVmc">
                <ref role="37wK5l" to="6xgk:7lHSllLpTWM" resolve="NamedElementsScope" />
                <node concept="2OqwBi" id="6Wx7SFgkPde" role="37wK5m">
                  <node concept="37vLTw" id="6Wx7SFgkPaj" role="2Oq$k0">
                    <ref role="3cqZAo" node="52AxEEP1cFv" resolve="plist" />
                  </node>
                  <node concept="2qgKlT" id="6Wx7SFgkPne" role="2OqNvi">
                    <ref role="37wK5l" to="397v:6Wx7SFgebCF" resolve="getMembers" />
                  </node>
                </node>
              </node>
            </node>
          </node>
        </node>
      </node>
    </node>
    <node concept="nKS2y" id="52AxEEP0OR2" role="1MLUbF">
      <node concept="3clFbS" id="52AxEEP0OR3" role="2VODD2">
        <node concept="3clFbJ" id="52AxEEP4nQM" role="3cqZAp">
          <node concept="3clFbS" id="52AxEEP4nQO" role="3clFbx">
            <node concept="3cpWs6" id="52AxEEP4p3a" role="3cqZAp">
              <node concept="3clFbT" id="52AxEEP4p8h" role="3cqZAk">
                <property role="3clFbU" value="false" />
              </node>
            </node>
          </node>
          <node concept="3fqX7Q" id="52AxEEP4oX2" role="3clFbw">
            <node concept="2OqwBi" id="52AxEEP4oX4" role="3fr31v">
              <node concept="nLn13" id="52AxEEP4oX5" role="2Oq$k0" />
              <node concept="1mIQ4w" id="52AxEEP4oX6" role="2OqNvi">
                <node concept="chp4Y" id="52AxEEP4oX7" role="cj9EA">
                  <ref role="cht4Q" to="2gyk:m1E9k9eONZ" resolve="ArrowExpression" />
                </node>
              </node>
            </node>
          </node>
        </node>
        <node concept="3clFbH" id="6Wx7SFglo_Z" role="3cqZAp" />
        <node concept="3cpWs8" id="52AxEEP4nJy" role="3cqZAp">
          <node concept="3cpWsn" id="52AxEEP4nJz" role="3cpWs9">
            <property role="TrG5h" value="o" />
            <node concept="3Tqbb2" id="52AxEEP4nJ$" role="1tU5fm">
              <ref role="ehGHo" to="pfd6:5l83jlMf$Lb" resolve="Expression" />
            </node>
            <node concept="2OqwBi" id="52AxEEP4nJ_" role="33vP2m">
              <node concept="1PxgMI" id="52AxEEP4nJA" role="2Oq$k0">
                <ref role="1PxNhF" to="2gyk:m1E9k9eONZ" resolve="ArrowExpression" />
                <node concept="nLn13" id="52AxEEP4zTl" role="1PxMeX" />
              </node>
              <node concept="3TrEf2" id="52AxEEP4nJC" role="2OqNvi">
                <ref role="3Tt5mk" to="2gyk:m1E9k9eOTT" />
              </node>
            </node>
          </node>
        </node>
        <node concept="3cpWs6" id="6Wx7SFglpFC" role="3cqZAp">
          <node concept="2OqwBi" id="6Wx7SFgluLy" role="3cqZAk">
            <node concept="1PxgMI" id="6Wx7SFgluhK" role="2Oq$k0">
              <ref role="1PxNhF" to="pfd6:6fgLCPsAWoz" resolve="Type" />
              <node concept="2OqwBi" id="6Wx7SFgltH4" role="1PxMeX">
                <node concept="37vLTw" id="6Wx7SFgltvJ" role="2Oq$k0">
                  <ref role="3cqZAo" node="52AxEEP4nJz" resolve="o" />
                </node>
                <node concept="3JvlWi" id="6Wx7SFgltZk" role="2OqNvi" />
              </node>
            </node>
            <node concept="2qgKlT" id="6Wx7SFglvb_" role="2OqNvi">
              <ref role="37wK5l" to="bkkh:1plOGK0gFH4" resolve="isParticleListType" />
            </node>
          </node>
        </node>
      </node>
    </node>
  </node>
  <node concept="1M2fIO" id="6Wx7SFgmJ0R">
    <property role="3GE5qa" value="expr" />
    <ref role="1M2myG" to="2gyk:6Wx7SFgmIy1" resolve="ParticleMemberAccess" />
    <node concept="1N5Pfh" id="6Wx7SFgmKH6" role="1Mr941">
      <ref role="1N5Vy1" to="2gyk:6Wx7SFgmIy3" />
      <node concept="13QW63" id="6Wx7SFgmKHe" role="1N6uqs">
        <node concept="3clFbS" id="6Wx7SFgmKHg" role="2VODD2">
          <node concept="3cpWs8" id="6Wx7SFgmKJu" role="3cqZAp">
            <node concept="3cpWsn" id="6Wx7SFgmKJv" role="3cpWs9">
              <property role="TrG5h" value="o" />
              <node concept="3Tqbb2" id="6Wx7SFgmKJw" role="1tU5fm">
                <ref role="ehGHo" to="pfd6:5l83jlMf$Lb" resolve="Expression" />
              </node>
              <node concept="2OqwBi" id="6Wx7SFgmKJx" role="33vP2m">
                <node concept="1PxgMI" id="6Wx7SFgmKJy" role="2Oq$k0">
                  <ref role="1PxNhF" to="2gyk:m1E9k9eONZ" resolve="ArrowExpression" />
                  <node concept="21POm0" id="6Wx7SFgmKJz" role="1PxMeX" />
                </node>
                <node concept="3TrEf2" id="6Wx7SFgmKJ$" role="2OqNvi">
                  <ref role="3Tt5mk" to="2gyk:m1E9k9eOTT" />
                </node>
              </node>
            </node>
          </node>
          <node concept="3SKdUt" id="5mt6372Jft0" role="3cqZAp">
            <node concept="3SKWN0" id="5mt6372Jft9" role="3SKWNk">
              <node concept="3cpWs8" id="6Wx7SFgmKJ_" role="3SKWNf">
                <node concept="3cpWsn" id="6Wx7SFgmKJA" role="3cpWs9">
                  <property role="TrG5h" value="pType" />
                  <node concept="3Tqbb2" id="6Wx7SFgmKJB" role="1tU5fm">
                    <ref role="ehGHo" to="2gyk:5gQ2EqXQH6v" resolve="ParticleType" />
                  </node>
                  <node concept="1UdQGJ" id="6Wx7SFgmKJC" role="33vP2m">
                    <node concept="1YaCAy" id="6Wx7SFgmKJD" role="1Ub_4A">
                      <property role="TrG5h" value="particleType" />
                      <ref role="1YaFvo" to="2gyk:5gQ2EqXQH6v" resolve="ParticleType" />
                    </node>
                    <node concept="2OqwBi" id="6Wx7SFgmKJE" role="1Ub_4B">
                      <node concept="37vLTw" id="6Wx7SFgmKJF" role="2Oq$k0">
                        <ref role="3cqZAo" node="6Wx7SFgmKJv" resolve="o" />
                      </node>
                      <node concept="3JvlWi" id="6Wx7SFgmKJG" role="2OqNvi" />
                    </node>
                  </node>
                </node>
              </node>
            </node>
          </node>
          <node concept="3cpWs8" id="5mt6372JfnE" role="3cqZAp">
            <node concept="3cpWsn" id="5mt6372JfnF" role="3cpWs9">
              <property role="TrG5h" value="pType" />
              <node concept="3Tqbb2" id="5mt6372JfnG" role="1tU5fm">
                <ref role="ehGHo" to="2gyk:5gQ2EqXQH6v" resolve="ParticleType" />
              </node>
              <node concept="1PxgMI" id="5mt6372Jgjg" role="33vP2m">
                <ref role="1PxNhF" to="2gyk:5gQ2EqXQH6v" resolve="ParticleType" />
                <node concept="2OqwBi" id="5mt6372JfIu" role="1PxMeX">
                  <node concept="37vLTw" id="5mt6372JfFr" role="2Oq$k0">
                    <ref role="3cqZAo" node="6Wx7SFgmKJv" resolve="o" />
                  </node>
                  <node concept="HpLno" id="5mt6372Jg8i" role="2OqNvi" />
                </node>
              </node>
            </node>
          </node>
          <node concept="3clFbH" id="6Wx7SFgmKJH" role="3cqZAp" />
          <node concept="3clFbJ" id="6Wx7SFgmKJI" role="3cqZAp">
            <node concept="3clFbS" id="6Wx7SFgmKJJ" role="3clFbx">
              <node concept="3cpWs8" id="6Wx7SFgmKJT" role="3cqZAp">
                <node concept="3cpWsn" id="6Wx7SFgmKJU" role="3cpWs9">
                  <property role="TrG5h" value="plist" />
                  <node concept="3Tqbb2" id="6Wx7SFgmKJV" role="1tU5fm">
                    <ref role="ehGHo" to="2gyk:6Wx7SFgebB4" resolve="IParticleList" />
                  </node>
                  <node concept="2OqwBi" id="6Vu8sWdcmAi" role="33vP2m">
                    <node concept="2OqwBi" id="6Wx7SFgmKJW" role="2Oq$k0">
                      <node concept="37vLTw" id="5mt6372Jg$K" role="2Oq$k0">
                        <ref role="3cqZAo" node="5mt6372JfnF" resolve="pType" />
                      </node>
                      <node concept="3CFZ6_" id="6Vu8sWdclSa" role="2OqNvi">
                        <node concept="3CFYIy" id="6Vu8sWdclW1" role="3CFYIz">
                          <ref role="3CFYIx" to="2gyk:6Vu8sWdc7pf" resolve="PlistForParticlesAttribute" />
                        </node>
                      </node>
                    </node>
                    <node concept="3TrEf2" id="6Vu8sWdcn1j" role="2OqNvi">
                      <ref role="3Tt5mk" to="2gyk:6Vu8sWdcmiu" />
                    </node>
                  </node>
                </node>
              </node>
              <node concept="3clFbJ" id="5mt6372JcZI" role="3cqZAp">
                <node concept="3clFbS" id="5mt6372JcZK" role="3clFbx">
                  <node concept="3cpWs6" id="6Wx7SFgmKJZ" role="3cqZAp">
                    <node concept="2ShNRf" id="6Wx7SFgmKK0" role="3cqZAk">
                      <node concept="1pGfFk" id="6Wx7SFgmKK1" role="2ShVmc">
                        <ref role="37wK5l" to="6xgk:7lHSllLpTWM" resolve="NamedElementsScope" />
                        <node concept="2OqwBi" id="6Wx7SFgmKK2" role="37wK5m">
                          <node concept="37vLTw" id="6Wx7SFgmKK3" role="2Oq$k0">
                            <ref role="3cqZAo" node="6Wx7SFgmKJU" resolve="plist" />
                          </node>
                          <node concept="2qgKlT" id="6Wx7SFgmKK4" role="2OqNvi">
                            <ref role="37wK5l" to="397v:6Wx7SFgebCF" resolve="getMembers" />
                          </node>
                        </node>
                      </node>
                    </node>
                  </node>
                </node>
                <node concept="2OqwBi" id="5mt6372Jd5q" role="3clFbw">
                  <node concept="37vLTw" id="5mt6372Jd2t" role="2Oq$k0">
                    <ref role="3cqZAo" node="6Wx7SFgmKJU" resolve="plist" />
                  </node>
                  <node concept="3x8VRR" id="5mt6372Jder" role="2OqNvi" />
                </node>
              </node>
            </node>
            <node concept="2OqwBi" id="5mt6372J1Wg" role="3clFbw">
              <node concept="2OqwBi" id="5mt6372J1Wh" role="2Oq$k0">
                <node concept="37vLTw" id="5mt6372JgsX" role="2Oq$k0">
                  <ref role="3cqZAo" node="5mt6372JfnF" resolve="pType" />
                </node>
                <node concept="3CFZ6_" id="5mt6372J1Wj" role="2OqNvi">
                  <node concept="3CFYIy" id="5mt6372J1Wk" role="3CFYIz">
                    <ref role="3CFYIx" to="2gyk:6Vu8sWdc7pf" resolve="PlistForParticlesAttribute" />
                  </node>
                </node>
              </node>
              <node concept="3x8VRR" id="5mt6372JcLb" role="2OqNvi" />
            </node>
          </node>
          <node concept="3clFbH" id="5mt6372K55S" role="3cqZAp" />
          <node concept="3clFbJ" id="5mt6372K5bI" role="3cqZAp">
            <node concept="3clFbS" id="5mt6372K5bK" role="3clFbx">
              <node concept="3cpWs8" id="5mt6372K7n6" role="3cqZAp">
                <node concept="3cpWsn" id="5mt6372K7nc" role="3cpWs9">
                  <property role="TrG5h" value="decl" />
                  <node concept="3Tqbb2" id="5mt6372K8m7" role="1tU5fm">
                    <ref role="ehGHo" to="tpee:4H$HgYMZ7sw" resolve="IVariableDeclaration" />
                  </node>
                  <node concept="2OqwBi" id="5mt6372K8GV" role="33vP2m">
                    <node concept="1PxgMI" id="5mt6372K8xF" role="2Oq$k0">
                      <ref role="1PxNhF" to="c9eo:5l83jlMivi_" resolve="VariableReference" />
                      <node concept="37vLTw" id="5mt6372K8tG" role="1PxMeX">
                        <ref role="3cqZAo" node="6Wx7SFgmKJv" resolve="o" />
                      </node>
                    </node>
                    <node concept="2qgKlT" id="5mt6372K9cI" role="2OqNvi">
                      <ref role="37wK5l" to="bkkh:5l83jlMivof" resolve="getVariable" />
                    </node>
                  </node>
                </node>
              </node>
              <node concept="3clFbJ" id="5mt6372K9md" role="3cqZAp">
                <node concept="3clFbS" id="5mt6372K9mf" role="3clFbx">
                  <node concept="3cpWs8" id="5mt6372KaiL" role="3cqZAp">
                    <node concept="3cpWsn" id="5mt6372KaiR" role="3cpWs9">
                      <property role="TrG5h" value="loop" />
                      <node concept="3Tqbb2" id="5mt6372KaIt" role="1tU5fm">
                        <ref role="ehGHo" to="2gyk:6Vu8sWdd84P" resolve="ParticleLoopStatment" />
                      </node>
                      <node concept="1PxgMI" id="5mt6372KbqO" role="33vP2m">
                        <ref role="1PxNhF" to="2gyk:6Vu8sWdd84P" resolve="ParticleLoopStatment" />
                        <node concept="2OqwBi" id="5mt6372KaYX" role="1PxMeX">
                          <node concept="37vLTw" id="5mt6372KaTb" role="2Oq$k0">
                            <ref role="3cqZAo" node="5mt6372K7nc" resolve="decl" />
                          </node>
                          <node concept="1mfA1w" id="5mt6372Kbbn" role="2OqNvi" />
                        </node>
                      </node>
                    </node>
                  </node>
                  <node concept="3cpWs8" id="5mt6372KbJF" role="3cqZAp">
                    <node concept="3cpWsn" id="5mt6372KbJL" role="3cpWs9">
                      <property role="TrG5h" value="plistType" />
                      <node concept="3Tqbb2" id="5mt6372KcfM" role="1tU5fm">
                        <ref role="ehGHo" to="2gyk:6Wx7SFgabxi" resolve="ParticleListType" />
                      </node>
                      <node concept="1UaxmW" id="5mt6372KdLW" role="33vP2m">
                        <node concept="1YaCAy" id="5mt6372KeZq" role="1Ub_4A">
                          <property role="TrG5h" value="particleListType" />
                          <ref role="1YaFvo" to="2gyk:6Wx7SFgabxi" resolve="ParticleListType" />
                        </node>
                        <node concept="2OqwBi" id="5mt6372KeFE" role="1Ub_4B">
                          <node concept="2OqwBi" id="5mt6372Ke2C" role="2Oq$k0">
                            <node concept="37vLTw" id="5mt6372KdT7" role="2Oq$k0">
                              <ref role="3cqZAo" node="5mt6372KaiR" resolve="loop" />
                            </node>
                            <node concept="3TrEf2" id="5mt6372KenW" role="2OqNvi">
                              <ref role="3Tt5mk" to="2gyk:6Vu8sWdd84Q" />
                            </node>
                          </node>
                          <node concept="3JvlWi" id="5mt6372KeRy" role="2OqNvi" />
                        </node>
                      </node>
                    </node>
                  </node>
                  <node concept="3clFbJ" id="ti97EI3bUx" role="3cqZAp">
                    <node concept="3clFbS" id="ti97EI3bUz" role="3clFbx">
                      <node concept="3cpWs6" id="5mt6372Kfnx" role="3cqZAp">
                        <node concept="2ShNRf" id="5mt6372KfvL" role="3cqZAk">
                          <node concept="1pGfFk" id="5mt6372KhCv" role="2ShVmc">
                            <ref role="37wK5l" to="6xgk:7lHSllLpTWM" resolve="NamedElementsScope" />
                            <node concept="2OqwBi" id="5mt6372KiBA" role="37wK5m">
                              <node concept="2OqwBi" id="5mt6372KhT2" role="2Oq$k0">
                                <node concept="37vLTw" id="5mt6372KhK_" role="2Oq$k0">
                                  <ref role="3cqZAo" node="5mt6372KbJL" resolve="plistType" />
                                </node>
                                <node concept="3TrEf2" id="5mt6372KidU" role="2OqNvi">
                                  <ref role="3Tt5mk" to="2gyk:6Wx7SFgkzN1" />
                                </node>
                              </node>
                              <node concept="2qgKlT" id="5mt6372KiYk" role="2OqNvi">
                                <ref role="37wK5l" to="397v:6Wx7SFgebCF" resolve="getMembers" />
                              </node>
                            </node>
                          </node>
                        </node>
                      </node>
                    </node>
                    <node concept="2OqwBi" id="ti97EI3c9R" role="3clFbw">
                      <node concept="37vLTw" id="ti97EI3c2s" role="2Oq$k0">
                        <ref role="3cqZAo" node="5mt6372KbJL" resolve="plistType" />
                      </node>
                      <node concept="3x8VRR" id="ti97EI3ctz" role="2OqNvi" />
                    </node>
                    <node concept="9aQIb" id="ti97EI3cZq" role="9aQIa">
                      <node concept="3clFbS" id="ti97EI3cZr" role="9aQI4">
                        <node concept="3cpWs8" id="ti97EI3d7G" role="3cqZAp">
                          <node concept="3cpWsn" id="ti97EI3d7H" role="3cpWs9">
                            <property role="TrG5h" value="nlistType" />
                            <node concept="3Tqbb2" id="ti97EI3d7I" role="1tU5fm">
                              <ref role="ehGHo" to="2gyk:5U5m3Aqgu$C" resolve="NeighborlistType" />
                            </node>
                            <node concept="1UaxmW" id="ti97EI3d7J" role="33vP2m">
                              <node concept="1YaCAy" id="ti97EI3d7K" role="1Ub_4A">
                                <property role="TrG5h" value="neighborlistType" />
                                <ref role="1YaFvo" to="2gyk:5U5m3Aqgu$C" resolve="NeighborlistType" />
                              </node>
                              <node concept="2OqwBi" id="ti97EI3d7L" role="1Ub_4B">
                                <node concept="2OqwBi" id="ti97EI3d7M" role="2Oq$k0">
                                  <node concept="37vLTw" id="ti97EI3d7N" role="2Oq$k0">
                                    <ref role="3cqZAo" node="5mt6372KaiR" resolve="loop" />
                                  </node>
                                  <node concept="3TrEf2" id="ti97EI3d7O" role="2OqNvi">
                                    <ref role="3Tt5mk" to="2gyk:6Vu8sWdd84Q" />
                                  </node>
                                </node>
                                <node concept="3JvlWi" id="ti97EI3d7P" role="2OqNvi" />
                              </node>
                            </node>
                          </node>
                        </node>
                        <node concept="34ab3g" id="ti97EI5doV" role="3cqZAp">
                          <property role="35gtTG" value="info" />
                          <node concept="Xl_RD" id="ti97EI5doX" role="34bqiv">
                            <property role="Xl_RC" value="[TS] checking for neighborlist type" />
                          </node>
                        </node>
                        <node concept="3cpWs6" id="ti97EI3e2b" role="3cqZAp">
                          <node concept="2ShNRf" id="ti97EI3eg5" role="3cqZAk">
                            <node concept="1pGfFk" id="ti97EI3gxA" role="2ShVmc">
                              <ref role="37wK5l" to="6xgk:7lHSllLpTWM" resolve="NamedElementsScope" />
                              <node concept="2OqwBi" id="ti97EI3iab" role="37wK5m">
                                <node concept="2OqwBi" id="ti97EI3gTN" role="2Oq$k0">
                                  <node concept="37vLTw" id="ti97EI3gEK" role="2Oq$k0">
                                    <ref role="3cqZAo" node="ti97EI3d7H" resolve="nlistType" />
                                  </node>
                                  <node concept="3TrEf2" id="ti97EI3hPf" role="2OqNvi">
                                    <ref role="3Tt5mk" to="2gyk:ti97EI1hj0" />
                                  </node>
                                </node>
                                <node concept="2qgKlT" id="ti97EI3ix3" role="2OqNvi">
                                  <ref role="37wK5l" to="397v:6Wx7SFgebCF" resolve="getMembers" />
                                </node>
                              </node>
                            </node>
                          </node>
                        </node>
                      </node>
                    </node>
                  </node>
                </node>
                <node concept="2OqwBi" id="5mt6372K9PE" role="3clFbw">
                  <node concept="2OqwBi" id="5mt6372K9ue" role="2Oq$k0">
                    <node concept="37vLTw" id="5mt6372K9pw" role="2Oq$k0">
                      <ref role="3cqZAo" node="5mt6372K7nc" resolve="decl" />
                    </node>
                    <node concept="1mfA1w" id="5mt6372K9D$" role="2OqNvi" />
                  </node>
                  <node concept="1mIQ4w" id="5mt6372Ka6t" role="2OqNvi">
                    <node concept="chp4Y" id="5mt6372Kach" role="cj9EA">
                      <ref role="cht4Q" to="2gyk:6Vu8sWdd84P" resolve="ParticleLoopStatment" />
                    </node>
                  </node>
                </node>
              </node>
            </node>
            <node concept="2OqwBi" id="5mt6372K5ig" role="3clFbw">
              <node concept="37vLTw" id="5mt6372K5fe" role="2Oq$k0">
                <ref role="3cqZAo" node="6Wx7SFgmKJv" resolve="o" />
              </node>
              <node concept="1mIQ4w" id="5mt6372K5rG" role="2OqNvi">
                <node concept="chp4Y" id="5mt6372K5uM" role="cj9EA">
                  <ref role="cht4Q" to="c9eo:5l83jlMivi_" resolve="VariableReference" />
                </node>
              </node>
            </node>
          </node>
          <node concept="3clFbH" id="5mt6372JdF4" role="3cqZAp" />
          <node concept="3cpWs6" id="6Wx7SFgmKJK" role="3cqZAp">
            <node concept="2ShNRf" id="6Wx7SFgmKJL" role="3cqZAk">
              <node concept="1pGfFk" id="6Wx7SFgmKJM" role="2ShVmc">
                <ref role="37wK5l" to="o8zo:7ipADkTfAzT" resolve="EmptyScope" />
              </node>
            </node>
          </node>
        </node>
      </node>
    </node>
    <node concept="nKS2y" id="6Wx7SFgmJ0S" role="1MLUbF">
      <node concept="3clFbS" id="6Wx7SFgmJ0T" role="2VODD2">
        <node concept="3clFbJ" id="6Wx7SFgmJ6V" role="3cqZAp">
          <node concept="3clFbS" id="6Wx7SFgmJ6W" role="3clFbx">
            <node concept="3cpWs6" id="6Wx7SFgmJ6X" role="3cqZAp">
              <node concept="3clFbT" id="6Wx7SFgmJ6Y" role="3cqZAk">
                <property role="3clFbU" value="false" />
              </node>
            </node>
          </node>
          <node concept="3fqX7Q" id="6Wx7SFgmJ6Z" role="3clFbw">
            <node concept="2OqwBi" id="6Wx7SFgmJ70" role="3fr31v">
              <node concept="nLn13" id="6Wx7SFgmJ71" role="2Oq$k0" />
              <node concept="1mIQ4w" id="6Wx7SFgmJ72" role="2OqNvi">
                <node concept="chp4Y" id="6Wx7SFgmJ73" role="cj9EA">
                  <ref role="cht4Q" to="2gyk:m1E9k9eONZ" resolve="ArrowExpression" />
                </node>
              </node>
            </node>
          </node>
        </node>
        <node concept="3clFbH" id="6Wx7SFgmJ74" role="3cqZAp" />
        <node concept="3cpWs8" id="6Wx7SFgmJ75" role="3cqZAp">
          <node concept="3cpWsn" id="6Wx7SFgmJ76" role="3cpWs9">
            <property role="TrG5h" value="o" />
            <node concept="3Tqbb2" id="6Wx7SFgmJ77" role="1tU5fm">
              <ref role="ehGHo" to="pfd6:5l83jlMf$Lb" resolve="Expression" />
            </node>
            <node concept="2OqwBi" id="6Wx7SFgmJ78" role="33vP2m">
              <node concept="1PxgMI" id="6Wx7SFgmJ79" role="2Oq$k0">
                <ref role="1PxNhF" to="2gyk:m1E9k9eONZ" resolve="ArrowExpression" />
                <node concept="nLn13" id="6Wx7SFgmJ7a" role="1PxMeX" />
              </node>
              <node concept="3TrEf2" id="6Wx7SFgmJ7b" role="2OqNvi">
                <ref role="3Tt5mk" to="2gyk:m1E9k9eOTT" />
              </node>
            </node>
          </node>
        </node>
        <node concept="3cpWs6" id="6Wx7SFgmJ7c" role="3cqZAp">
          <node concept="2OqwBi" id="6Wx7SFgmJXs" role="3cqZAk">
            <node concept="2OqwBi" id="6Wx7SFgmJxb" role="2Oq$k0">
              <node concept="37vLTw" id="6Wx7SFgmJjQ" role="2Oq$k0">
                <ref role="3cqZAo" node="6Wx7SFgmJ76" resolve="o" />
              </node>
              <node concept="3JvlWi" id="6Wx7SFgmJF1" role="2OqNvi" />
            </node>
            <node concept="1mIQ4w" id="6Wx7SFgmK6b" role="2OqNvi">
              <node concept="chp4Y" id="6Wx7SFgmKc2" role="cj9EA">
                <ref role="cht4Q" to="2gyk:5gQ2EqXQH6v" resolve="ParticleType" />
              </node>
            </node>
          </node>
        </node>
      </node>
    </node>
  </node>
  <node concept="1M2fIO" id="2OjMSZ8nNMJ">
    <property role="3GE5qa" value="expr" />
    <ref role="1M2myG" to="2gyk:7yaypfC2_I8" resolve="DifferentialOperator" />
    <node concept="nKS2y" id="2OjMSZ8nNMK" role="1MLUbF">
      <node concept="3clFbS" id="2OjMSZ8nNML" role="2VODD2">
        <node concept="3SKdUt" id="1RtLc$XOwgO" role="3cqZAp">
          <node concept="3SKdUq" id="1RtLc$XOwm4" role="3SKWNk">
            <property role="3SKdUp" value="TODO: (╯°□°）╯︵ ┻━┻) " />
          </node>
        </node>
        <node concept="3SKdUt" id="1RtLc$XOw$r" role="3cqZAp">
          <node concept="3SKWN0" id="1RtLc$XOw$$" role="3SKWNk">
            <node concept="3clFbF" id="2OjMSZ8nNRG" role="3SKWNf">
              <node concept="2OqwBi" id="1RtLc$XOs3W" role="3clFbG">
                <node concept="2OqwBi" id="1RtLc$XOnd$" role="2Oq$k0">
                  <node concept="nLn13" id="1RtLc$XOn9U" role="2Oq$k0" />
                  <node concept="z$bX8" id="1RtLc$XOno9" role="2OqNvi">
                    <node concept="1xMEDy" id="1RtLc$XOr7I" role="1xVPHs">
                      <node concept="chp4Y" id="1RtLc$XOrd0" role="ri$Ld">
                        <ref role="cht4Q" to="2gyk:1aS1l$r677" resolve="RightHandSideStatement" />
                      </node>
                    </node>
                  </node>
                </node>
                <node concept="3GX2aA" id="1RtLc$XOu7K" role="2OqNvi" />
              </node>
            </node>
          </node>
        </node>
        <node concept="3cpWs8" id="1RtLc$XO$gk" role="3cqZAp">
          <node concept="3cpWsn" id="1RtLc$XO$gn" role="3cpWs9">
            <property role="TrG5h" value="parentStmnt" />
            <node concept="3Tqbb2" id="1RtLc$XO$gi" role="1tU5fm" />
            <node concept="nLn13" id="1RtLc$XO_aY" role="33vP2m" />
          </node>
        </node>
        <node concept="2$JKZl" id="1RtLc$XO_nQ" role="3cqZAp">
          <node concept="3clFbS" id="1RtLc$XO_nS" role="2LFqv$">
            <node concept="3clFbF" id="1RtLc$XOAdU" role="3cqZAp">
              <node concept="37vLTI" id="1RtLc$XOAla" role="3clFbG">
                <node concept="2OqwBi" id="1RtLc$XOAtF" role="37vLTx">
                  <node concept="37vLTw" id="1RtLc$XOApd" role="2Oq$k0">
                    <ref role="3cqZAo" node="1RtLc$XO$gn" resolve="parentStmnt" />
                  </node>
                  <node concept="1mfA1w" id="1RtLc$XOADD" role="2OqNvi" />
                </node>
                <node concept="37vLTw" id="1RtLc$XOAdT" role="37vLTJ">
                  <ref role="3cqZAo" node="1RtLc$XO$gn" resolve="parentStmnt" />
                </node>
              </node>
            </node>
          </node>
          <node concept="3fqX7Q" id="1RtLc$XO_Zn" role="2$JKZa">
            <node concept="2OqwBi" id="1RtLc$XO_Zp" role="3fr31v">
              <node concept="37vLTw" id="1RtLc$XO_Zq" role="2Oq$k0">
                <ref role="3cqZAo" node="1RtLc$XO$gn" resolve="parentStmnt" />
              </node>
              <node concept="1mIQ4w" id="1RtLc$XO_Zr" role="2OqNvi">
                <node concept="chp4Y" id="1RtLc$XOA6G" role="cj9EA">
                  <ref role="cht4Q" to="c9eo:5l83jlMhgCt" resolve="Statement" />
                </node>
              </node>
            </node>
          </node>
        </node>
        <node concept="3clFbF" id="1RtLc$XOwK3" role="3cqZAp">
          <node concept="2OqwBi" id="1RtLc$XOAVB" role="3clFbG">
            <node concept="37vLTw" id="1RtLc$XOAPw" role="2Oq$k0">
              <ref role="3cqZAo" node="1RtLc$XO$gn" resolve="parentStmnt" />
            </node>
            <node concept="1mIQ4w" id="1RtLc$XOB6i" role="2OqNvi">
              <node concept="chp4Y" id="1RtLc$XOBbV" role="cj9EA">
                <ref role="cht4Q" to="2gyk:1aS1l$r677" resolve="RightHandSideStatement" />
              </node>
            </node>
          </node>
        </node>
      </node>
    </node>
  </node>
  <node concept="1M2fIO" id="2OjMSZ8y5gm">
    <property role="3GE5qa" value="expr.plist" />
    <ref role="1M2myG" to="2gyk:2OjMSZ8y4Xy" resolve="ParticleListMember" />
    <node concept="nKS2y" id="2OjMSZ8y5mG" role="1MLUbF">
      <node concept="3clFbS" id="2OjMSZ8y5mH" role="2VODD2">
        <node concept="3cpWs8" id="2OjMSZ8y5mI" role="3cqZAp">
          <node concept="3cpWsn" id="2OjMSZ8y5mJ" role="3cpWs9">
            <property role="TrG5h" value="operand" />
            <node concept="3Tqbb2" id="2OjMSZ8y5mK" role="1tU5fm">
              <ref role="ehGHo" to="pfd6:5l83jlMf$Lb" resolve="Expression" />
            </node>
            <node concept="2OqwBi" id="2OjMSZ8y5mL" role="33vP2m">
              <node concept="1PxgMI" id="2OjMSZ8y5mM" role="2Oq$k0">
                <ref role="1PxNhF" to="2gyk:m1E9k9eONZ" resolve="ArrowExpression" />
                <node concept="nLn13" id="2OjMSZ8y5mN" role="1PxMeX" />
              </node>
              <node concept="3TrEf2" id="2OjMSZ8y5mO" role="2OqNvi">
                <ref role="3Tt5mk" to="2gyk:m1E9k9eOTT" />
              </node>
            </node>
          </node>
        </node>
        <node concept="3cpWs8" id="2OjMSZ8y5mP" role="3cqZAp">
          <node concept="3cpWsn" id="2OjMSZ8y5mQ" role="3cpWs9">
            <property role="TrG5h" value="plistType" />
            <node concept="3Tqbb2" id="2OjMSZ8y5mR" role="1tU5fm">
              <ref role="ehGHo" to="2gyk:6Wx7SFgabxi" resolve="ParticleListType" />
            </node>
            <node concept="1UdQGJ" id="2OjMSZ8y5mS" role="33vP2m">
              <node concept="1YaCAy" id="2OjMSZ8y5mT" role="1Ub_4A">
                <property role="TrG5h" value="particleListType" />
                <ref role="1YaFvo" to="2gyk:6Wx7SFgabxi" resolve="ParticleListType" />
              </node>
              <node concept="2OqwBi" id="2OjMSZ8y5mU" role="1Ub_4B">
                <node concept="37vLTw" id="2OjMSZ8y5mV" role="2Oq$k0">
                  <ref role="3cqZAo" node="2OjMSZ8y5mJ" resolve="operand" />
                </node>
                <node concept="3JvlWi" id="2OjMSZ8y5mW" role="2OqNvi" />
              </node>
            </node>
          </node>
        </node>
        <node concept="3clFbJ" id="2OjMSZ8y5mX" role="3cqZAp">
          <node concept="3clFbS" id="2OjMSZ8y5mY" role="3clFbx">
            <node concept="3cpWs6" id="2OjMSZ8y5mZ" role="3cqZAp">
              <node concept="3clFbT" id="2OjMSZ8y5n0" role="3cqZAk">
                <property role="3clFbU" value="false" />
              </node>
            </node>
          </node>
          <node concept="2OqwBi" id="2OjMSZ8y5n1" role="3clFbw">
            <node concept="37vLTw" id="2OjMSZ8y5n2" role="2Oq$k0">
              <ref role="3cqZAo" node="2OjMSZ8y5mQ" resolve="plistType" />
            </node>
            <node concept="3w_OXm" id="2OjMSZ8y5n3" role="2OqNvi" />
          </node>
        </node>
        <node concept="3cpWs6" id="2OjMSZ8y5n4" role="3cqZAp">
          <node concept="3clFbT" id="2OjMSZ8y5n5" role="3cqZAk">
            <property role="3clFbU" value="true" />
          </node>
        </node>
      </node>
    </node>
  </node>
  <node concept="1M2fIO" id="5U5m3AqakNy">
    <property role="3GE5qa" value="mapping" />
    <ref role="1M2myG" to="2gyk:5gQ2EqXUDRJ" resolve="MappingType" />
    <node concept="nKS2y" id="5U5m3AqakX0" role="1MLUbF">
      <node concept="3clFbS" id="5U5m3AqakX1" role="2VODD2">
        <node concept="3clFbF" id="5U5m3Aqal1W" role="3cqZAp">
          <node concept="2OqwBi" id="5U5m3Aqal5x" role="3clFbG">
            <node concept="nLn13" id="5U5m3Aqal1V" role="2Oq$k0" />
            <node concept="1mIQ4w" id="5U5m3Aqallt" role="2OqNvi">
              <node concept="chp4Y" id="5U5m3AqalqZ" role="cj9EA">
                <ref role="cht4Q" to="2gyk:5gQ2EqXUDRH" resolve="MappingStatement" />
              </node>
            </node>
          </node>
        </node>
      </node>
    </node>
  </node>
</model>

