<?xml version="1.0" encoding="UTF-8"?>
<model ref="r:be57a480-399b-470c-860e-bdfcf98e0b2c(de.ppme.core.structure)">
  <persistence version="9" />
  <languages>
    <use id="c72da2b9-7cce-4447-8389-f407dc1158b7" name="jetbrains.mps.lang.structure" version="-1" />
    <devkit ref="fbc25dd2-5da4-483a-8b19-70928e1b62d7(jetbrains.mps.devkit.general-purpose)" />
  </languages>
  <imports>
    <import index="pfd6" ref="r:9e939139-f0d1-4eb5-9ac6-55348163d9b2(de.ppme.expressions.structure)" />
    <import index="c9eo" ref="r:493484be-3d66-4fd8-b261-ed47cd8c6981(de.ppme.statements.structure)" />
    <import index="87nw" ref="r:ca2ab6bb-f6e7-4c0f-a88c-b78b9b31fff3(de.slisson.mps.richtext.structure)" />
    <import index="q0gb" ref="r:4efcc790-8258-4a5c-a60f-10a5b5a367a2(de.ppme.base.structure)" />
    <import index="tpee" ref="r:00000000-0000-4000-0000-011c895902ca(jetbrains.mps.baseLanguage.structure)" />
    <import index="tpck" ref="r:00000000-0000-4000-0000-011c89590288(jetbrains.mps.lang.core.structure)" implicit="true" />
  </imports>
  <registry>
    <language id="c72da2b9-7cce-4447-8389-f407dc1158b7" name="jetbrains.mps.lang.structure">
      <concept id="6054523464627964745" name="jetbrains.mps.lang.structure.structure.AttributeInfo_AttributedConcept" flags="ng" index="trNpa">
        <reference id="6054523464627965081" name="concept" index="trN6q" />
      </concept>
      <concept id="2992811758677295509" name="jetbrains.mps.lang.structure.structure.AttributeInfo" flags="ng" index="M6xJ_">
        <property id="7588428831955550663" name="role" index="Hh88m" />
        <child id="7588428831947959310" name="attributed" index="EQaZv" />
      </concept>
      <concept id="1169125787135" name="jetbrains.mps.lang.structure.structure.AbstractConceptDeclaration" flags="ig" index="PkWjJ">
        <property id="4628067390765907488" name="conceptShortDescription" index="R4oN_" />
        <property id="4628067390765956807" name="final" index="R5$K2" />
        <property id="4628067390765956802" name="abstract" index="R5$K7" />
        <property id="5092175715804935370" name="conceptAlias" index="34LRSv" />
        <child id="1071489727083" name="linkDeclaration" index="1TKVEi" />
        <child id="1071489727084" name="propertyDeclaration" index="1TKVEl" />
      </concept>
      <concept id="1169125989551" name="jetbrains.mps.lang.structure.structure.InterfaceConceptDeclaration" flags="ig" index="PlHQZ" />
      <concept id="1169127622168" name="jetbrains.mps.lang.structure.structure.InterfaceConceptReference" flags="ig" index="PrWs8">
        <reference id="1169127628841" name="intfc" index="PrY4T" />
      </concept>
      <concept id="1071489090640" name="jetbrains.mps.lang.structure.structure.ConceptDeclaration" flags="ig" index="1TIwiD">
        <reference id="1071489389519" name="extends" index="1TJDcQ" />
        <child id="1169129564478" name="implements" index="PzmwI" />
      </concept>
      <concept id="1071489288299" name="jetbrains.mps.lang.structure.structure.PropertyDeclaration" flags="ig" index="1TJgyi">
        <reference id="1082985295845" name="dataType" index="AX2Wp" />
      </concept>
      <concept id="1071489288298" name="jetbrains.mps.lang.structure.structure.LinkDeclaration" flags="ig" index="1TJgyj">
        <property id="1071599776563" name="role" index="20kJfa" />
        <property id="1071599893252" name="sourceCardinality" index="20lbJX" />
        <property id="1071599937831" name="metaClass" index="20lmBu" />
        <reference id="1071599698500" name="specializedLink" index="20ksaX" />
        <reference id="1071599976176" name="target" index="20lvS9" />
      </concept>
    </language>
    <language id="ceab5195-25ea-4f22-9b92-103b95ca8c0c" name="jetbrains.mps.lang.core">
      <concept id="1133920641626" name="jetbrains.mps.lang.core.structure.BaseConcept" flags="ng" index="2VYdi">
        <property id="1193676396447" name="virtualPackage" index="3GE5qa" />
        <child id="5169995583184591170" name="smodelAttribute" index="lGtFl" />
      </concept>
      <concept id="1169194658468" name="jetbrains.mps.lang.core.structure.INamedConcept" flags="ng" index="TrEIO">
        <property id="1169194664001" name="name" index="TrG5h" />
      </concept>
    </language>
  </registry>
  <node concept="1TIwiD" id="N$_yc$D_Xb">
    <property role="TrG5h" value="PowerExpression" />
    <property role="34LRSv" value="power" />
    <property role="R4oN_" value="n^m" />
    <property role="3GE5qa" value="expr" />
    <ref role="1TJDcQ" to="pfd6:5l83jlMf$Lk" resolve="BinaryExpression" />
  </node>
  <node concept="1TIwiD" id="2NzQxypW4NZ">
    <property role="3GE5qa" value="expr" />
    <property role="TrG5h" value="LaplacianOperator" />
    <property role="34LRSv" value="laplace" />
    <ref role="1TJDcQ" node="7yaypfC2_I8" resolve="DifferentialOperator" />
  </node>
  <node concept="1TIwiD" id="1aS1l$r677">
    <property role="TrG5h" value="RightHandSideStatement" />
    <property role="34LRSv" value="rhs" />
    <property role="R4oN_" value="right-hand side" />
    <property role="3GE5qa" value="stmts" />
    <ref role="1TJDcQ" to="c9eo:5l83jlMhgCt" resolve="Statement" />
    <node concept="1TJgyj" id="1aS1l$r67$" role="1TKVEi">
      <property role="20lmBu" value="aggregation" />
      <property role="20kJfa" value="argument" />
      <property role="20lbJX" value="1" />
      <ref role="20lvS9" node="m1E9k9eONZ" resolve="ArrowExpression" />
    </node>
    <node concept="1TJgyj" id="1aS1l$r67g" role="1TKVEi">
      <property role="20lmBu" value="aggregation" />
      <property role="20kJfa" value="rhs" />
      <property role="20lbJX" value="1" />
      <ref role="20lvS9" to="pfd6:5l83jlMf$Lb" resolve="Expression" />
    </node>
  </node>
  <node concept="PlHQZ" id="6en_lsou3q3">
    <property role="3GE5qa" value="expr" />
    <property role="TrG5h" value="IOperator" />
    <node concept="1TJgyj" id="2NzQxypWfwI" role="1TKVEi">
      <property role="20lmBu" value="aggregation" />
      <property role="20kJfa" value="operand" />
      <property role="20lbJX" value="1" />
      <ref role="20lvS9" to="pfd6:5l83jlMf$Lb" resolve="Expression" />
    </node>
  </node>
  <node concept="1TIwiD" id="6en_lsou3r1">
    <property role="3GE5qa" value="expr" />
    <property role="TrG5h" value="JacobianOperator" />
    <property role="34LRSv" value="jacobian" />
    <ref role="1TJDcQ" node="7yaypfC2_I8" resolve="DifferentialOperator" />
  </node>
  <node concept="1TIwiD" id="7yaypfC2_I8">
    <property role="3GE5qa" value="expr" />
    <property role="R5$K7" value="true" />
    <property role="R5$K2" value="false" />
    <property role="TrG5h" value="DifferentialOperator" />
    <ref role="1TJDcQ" to="pfd6:5l83jlMf$Lb" resolve="Expression" />
    <node concept="PrWs8" id="7yaypfC2_Il" role="PzmwI">
      <ref role="PrY4T" node="6en_lsou3q3" resolve="IOperator" />
    </node>
    <node concept="1TJgyj" id="KVSbImOWxZ" role="1TKVEi">
      <property role="20lmBu" value="aggregation" />
      <property role="20kJfa" value="operand" />
      <property role="20lbJX" value="1" />
      <ref role="20lvS9" node="m1E9k9eONZ" resolve="ArrowExpression" />
      <ref role="20ksaX" node="2NzQxypWfwI" />
    </node>
  </node>
  <node concept="1TIwiD" id="2zxr1HVi7bZ">
    <property role="3GE5qa" value="expr" />
    <property role="TrG5h" value="ParticleListAttributeExpression" />
    <property role="34LRSv" value="%" />
    <property role="R4oN_" value="access to a particle list attribue" />
    <ref role="1TJDcQ" to="pfd6:5l83jlMf$Lb" resolve="Expression" />
    <node concept="1TJgyj" id="2zxr1HVi7c0" role="1TKVEi">
      <property role="20lmBu" value="aggregation" />
      <property role="20kJfa" value="particleList" />
      <property role="20lbJX" value="1" />
      <ref role="20lvS9" to="c9eo:5l83jlMivi_" resolve="VariableReference" />
    </node>
    <node concept="1TJgyj" id="2zxr1HVi7c1" role="1TKVEi">
      <property role="20lmBu" value="aggregation" />
      <property role="20kJfa" value="attribute" />
      <property role="20lbJX" value="1" />
      <ref role="20lvS9" to="pfd6:5l83jlMf$Lb" resolve="Expression" />
    </node>
    <node concept="PrWs8" id="2zxr1HVi7c2" role="PzmwI">
      <ref role="PrY4T" to="pfd6:5l83jlMf$Lg" resolve="IBinary" />
    </node>
  </node>
  <node concept="1TIwiD" id="2zxr1HVkFW8">
    <property role="3GE5qa" value="stmts" />
    <property role="TrG5h" value="TimeloopStatement" />
    <property role="34LRSv" value="timeloop" />
    <property role="R4oN_" value="timeloop &lt;name&gt; do" />
    <ref role="1TJDcQ" to="c9eo:5l83jlMhgCt" resolve="Statement" />
    <node concept="1TJgyj" id="2zxr1HVkFW9" role="1TKVEi">
      <property role="20lmBu" value="aggregation" />
      <property role="20kJfa" value="step" />
      <ref role="20lvS9" to="pfd6:5l83jlMf$Lb" resolve="Expression" />
    </node>
    <node concept="1TJgyj" id="2zxr1HVkFWa" role="1TKVEi">
      <property role="20lmBu" value="aggregation" />
      <property role="20kJfa" value="body" />
      <property role="20lbJX" value="1" />
      <ref role="20lvS9" to="c9eo:5l83jlMhgFI" resolve="StatementList" />
    </node>
    <node concept="PrWs8" id="2zxr1HVkFWb" role="PzmwI">
      <ref role="PrY4T" to="tpck:h0TrEE$" resolve="INamedConcept" />
    </node>
    <node concept="PrWs8" id="5U5m3ApULnw" role="PzmwI">
      <ref role="PrY4T" to="tpck:3fifI_xCcJN" resolve="ScopeProvider" />
    </node>
    <node concept="PrWs8" id="5U5m3ApWqxO" role="PzmwI">
      <ref role="PrY4T" to="tpee:4H$HgYMZ7sw" resolve="IVariableDeclaration" />
    </node>
  </node>
  <node concept="1TIwiD" id="2zxr1HVm6oe">
    <property role="TrG5h" value="ODEStatement" />
    <property role="34LRSv" value="ode" />
    <property role="3GE5qa" value="stmts" />
    <ref role="1TJDcQ" to="c9eo:5l83jlMhgCt" resolve="Statement" />
    <node concept="1TJgyj" id="2zxr1HVm6of" role="1TKVEi">
      <property role="20lmBu" value="aggregation" />
      <property role="20kJfa" value="scheme" />
      <property role="20lbJX" value="1" />
      <ref role="20lvS9" to="pfd6:5l83jlMf$Lb" resolve="Expression" />
    </node>
    <node concept="1TJgyj" id="2zxr1HVm6og" role="1TKVEi">
      <property role="20lmBu" value="aggregation" />
      <property role="20kJfa" value="body" />
      <property role="20lbJX" value="1" />
      <ref role="20lvS9" to="c9eo:5l83jlMhgFI" resolve="StatementList" />
    </node>
    <node concept="1TJgyj" id="2bnyqnQ70_o" role="1TKVEi">
      <property role="20lmBu" value="aggregation" />
      <property role="20kJfa" value="plist" />
      <property role="20lbJX" value="1" />
      <ref role="20lvS9" to="pfd6:5l83jlMf$Lb" resolve="Expression" />
    </node>
    <node concept="PrWs8" id="2zxr1HVm6oh" role="PzmwI">
      <ref role="PrY4T" to="tpck:3fifI_xCcJN" resolve="ScopeProvider" />
    </node>
  </node>
  <node concept="1TIwiD" id="5gQ2EqXOKaK">
    <property role="3GE5qa" value="expr" />
    <property role="TrG5h" value="ParticleAccessExpression" />
    <property role="R4oN_" value="particle property access expression" />
    <property role="34LRSv" value="[" />
    <ref role="1TJDcQ" to="pfd6:5l83jlMf$Lb" resolve="Expression" />
    <node concept="PrWs8" id="5gQ2EqXOKaL" role="PzmwI">
      <ref role="PrY4T" to="pfd6:5l83jlMf$Lg" resolve="IBinary" />
    </node>
    <node concept="1TJgyj" id="5gQ2EqXOKaM" role="1TKVEi">
      <property role="20lmBu" value="aggregation" />
      <property role="20kJfa" value="particle" />
      <property role="20lbJX" value="1" />
      <ref role="20lvS9" to="pfd6:5l83jlMf$Lb" resolve="Expression" />
    </node>
    <node concept="1TJgyj" id="5gQ2EqXOKaN" role="1TKVEi">
      <property role="20lmBu" value="aggregation" />
      <property role="20kJfa" value="property" />
      <property role="20lbJX" value="1" />
      <ref role="20lvS9" to="pfd6:5l83jlMf$Lb" resolve="Expression" />
    </node>
  </node>
  <node concept="1TIwiD" id="5gQ2EqXOKaO">
    <property role="3GE5qa" value="expr" />
    <property role="TrG5h" value="RandomNumberExpression" />
    <property role="34LRSv" value="random" />
    <ref role="1TJDcQ" to="pfd6:5l83jlMf$Lb" resolve="Expression" />
    <node concept="1TJgyj" id="5gQ2EqXOKaP" role="1TKVEi">
      <property role="20lmBu" value="aggregation" />
      <property role="20kJfa" value="type" />
      <property role="20lbJX" value="0..1" />
      <ref role="20lvS9" to="pfd6:6fgLCPsAWoz" resolve="Type" />
    </node>
    <node concept="PrWs8" id="5gQ2EqXOKaQ" role="PzmwI">
      <ref role="PrY4T" to="pfd6:dGdbRZjrKl" resolve="IComparable" />
    </node>
  </node>
  <node concept="1TIwiD" id="5gQ2EqXQH6q">
    <property role="3GE5qa" value="types" />
    <property role="TrG5h" value="BoundaryType" />
    <property role="34LRSv" value="boundary" />
    <ref role="1TJDcQ" to="pfd6:6fgLCPsAWoz" resolve="Type" />
  </node>
  <node concept="1TIwiD" id="5gQ2EqXQH6r">
    <property role="3GE5qa" value="types" />
    <property role="TrG5h" value="DisplacementType" />
    <property role="34LRSv" value="displacement" />
    <ref role="1TJDcQ" to="pfd6:6fgLCPsAWoz" resolve="Type" />
  </node>
  <node concept="1TIwiD" id="5gQ2EqXQH6s">
    <property role="3GE5qa" value="types.particles" />
    <property role="TrG5h" value="FieldType" />
    <property role="34LRSv" value="field" />
    <ref role="1TJDcQ" to="pfd6:6fgLCPsAWoz" resolve="Type" />
    <node concept="1TJgyi" id="5mt6372O$Cj" role="1TKVEl">
      <property role="TrG5h" value="ndim" />
      <ref role="AX2Wp" to="tpck:fKAQMTA" resolve="integer" />
    </node>
    <node concept="1TJgyj" id="5mt6372O$Cl" role="1TKVEi">
      <property role="20lmBu" value="aggregation" />
      <property role="20kJfa" value="dtype" />
      <property role="20lbJX" value="1" />
      <ref role="20lvS9" to="pfd6:6fgLCPsAWoz" resolve="Type" />
    </node>
  </node>
  <node concept="1TIwiD" id="5gQ2EqXQH6v">
    <property role="3GE5qa" value="types.particles" />
    <property role="TrG5h" value="ParticleType" />
    <property role="34LRSv" value="particle" />
    <ref role="1TJDcQ" to="pfd6:6fgLCPsAWoz" resolve="Type" />
  </node>
  <node concept="1TIwiD" id="5gQ2EqXQH6x">
    <property role="3GE5qa" value="types" />
    <property role="TrG5h" value="TopologyType" />
    <property role="34LRSv" value="topology" />
    <ref role="1TJDcQ" to="pfd6:6fgLCPsAWoz" resolve="Type" />
  </node>
  <node concept="1TIwiD" id="5gQ2EqXTRdB">
    <property role="TrG5h" value="InlineCodeStatement" />
    <property role="34LRSv" value="inline" />
    <property role="3GE5qa" value="stmts" />
    <ref role="1TJDcQ" to="c9eo:5l83jlMhgCt" resolve="Statement" />
    <node concept="1TJgyj" id="5gQ2EqXTRdC" role="1TKVEi">
      <property role="20lmBu" value="aggregation" />
      <property role="20kJfa" value="inlineCode" />
      <property role="20lbJX" value="1" />
      <ref role="20lvS9" to="87nw:2dWzqxEB$Tx" resolve="Text" />
    </node>
  </node>
  <node concept="1TIwiD" id="5gQ2EqXTRdD">
    <property role="TrG5h" value="InitializeStatement" />
    <property role="34LRSv" value="initialize" />
    <property role="R5$K7" value="true" />
    <property role="3GE5qa" value="stmts" />
    <ref role="1TJDcQ" to="c9eo:5l83jlMhgCt" resolve="Statement" />
    <node concept="1TJgyj" id="5gQ2EqXTRdE" role="1TKVEi">
      <property role="20lmBu" value="aggregation" />
      <property role="20kJfa" value="body" />
      <property role="20lbJX" value="1" />
      <ref role="20lvS9" to="c9eo:5l83jlMhgFI" resolve="StatementList" />
    </node>
    <node concept="1TJgyj" id="5gQ2EqXTRdF" role="1TKVEi">
      <property role="20lmBu" value="aggregation" />
      <property role="20kJfa" value="initializer" />
      <property role="20lbJX" value="0..n" />
      <ref role="20lvS9" to="pfd6:5l83jlMf$Lb" resolve="Expression" />
    </node>
  </node>
  <node concept="1TIwiD" id="5gQ2EqXTRdG">
    <property role="TrG5h" value="InitializeReferenceStatement" />
    <property role="34LRSv" value="initialize" />
    <property role="3GE5qa" value="stmts" />
    <ref role="1TJDcQ" node="5gQ2EqXTRdD" resolve="InitializeStatement" />
    <node concept="1TJgyj" id="5gQ2EqXTRdH" role="1TKVEi">
      <property role="20lmBu" value="aggregation" />
      <property role="20kJfa" value="variable" />
      <property role="20lbJX" value="1" />
      <ref role="20lvS9" to="c9eo:5l83jlMivi_" resolve="VariableReference" />
    </node>
  </node>
  <node concept="1TIwiD" id="5gQ2EqXTRdI">
    <property role="TrG5h" value="InitializeDeclarationStatement" />
    <property role="34LRSv" value="initialize" />
    <property role="3GE5qa" value="stmts" />
    <ref role="1TJDcQ" node="5gQ2EqXTRdD" resolve="InitializeStatement" />
    <node concept="PrWs8" id="5gQ2EqXTRdJ" role="PzmwI">
      <ref role="PrY4T" to="tpck:3fifI_xCcJN" resolve="ScopeProvider" />
    </node>
    <node concept="1TJgyj" id="5gQ2EqXTRdK" role="1TKVEi">
      <property role="20lmBu" value="aggregation" />
      <property role="20kJfa" value="variable" />
      <property role="20lbJX" value="1" />
      <ref role="20lvS9" to="c9eo:5l83jlMhBWg" resolve="VariableDeclaration" />
    </node>
  </node>
  <node concept="1TIwiD" id="5gQ2EqXTRdL">
    <property role="TrG5h" value="DistributeStatement" />
    <property role="34LRSv" value="distribute" />
    <property role="3GE5qa" value="stmts" />
    <ref role="1TJDcQ" to="c9eo:5l83jlMhgCt" resolve="Statement" />
    <node concept="1TJgyj" id="5gQ2EqXTRdM" role="1TKVEi">
      <property role="20lmBu" value="aggregation" />
      <property role="20kJfa" value="target" />
      <property role="20lbJX" value="1" />
      <ref role="20lvS9" to="c9eo:5l83jlMivi_" resolve="VariableReference" />
    </node>
    <node concept="1TJgyj" id="5gQ2EqXTRdN" role="1TKVEi">
      <property role="20lmBu" value="aggregation" />
      <property role="20kJfa" value="displacement" />
      <property role="20lbJX" value="1" />
      <ref role="20lvS9" to="pfd6:5l83jlMf$Lb" resolve="Expression" />
    </node>
    <node concept="PrWs8" id="5gQ2EqXTRdO" role="PzmwI">
      <ref role="PrY4T" to="c9eo:7GORU49p0om" resolve="GlobalVariableDeclarationProvider" />
    </node>
  </node>
  <node concept="1TIwiD" id="5gQ2EqXTRdP">
    <property role="TrG5h" value="CreateNeighborListStatement" />
    <property role="34LRSv" value="create neighborlist" />
    <property role="3GE5qa" value="stmts" />
    <ref role="1TJDcQ" to="c9eo:5l83jlMhgCt" resolve="Statement" />
    <node concept="PrWs8" id="Opj2YGCy9C" role="PzmwI">
      <ref role="PrY4T" to="tpee:4H$HgYMZ7sw" resolve="IVariableDeclaration" />
    </node>
    <node concept="PrWs8" id="Opj2YGCy9I" role="PzmwI">
      <ref role="PrY4T" to="q0gb:6fgLCPsE7bT" resolve="IIdentifierNamedConcept" />
    </node>
    <node concept="1TJgyj" id="5gQ2EqXTRdR" role="1TKVEi">
      <property role="20lmBu" value="aggregation" />
      <property role="20kJfa" value="particles" />
      <property role="20lbJX" value="1" />
      <ref role="20lvS9" to="c9eo:5l83jlMivi_" resolve="VariableReference" />
    </node>
    <node concept="1TJgyj" id="Opj2YGCycu" role="1TKVEi">
      <property role="20lmBu" value="aggregation" />
      <property role="20kJfa" value="skin" />
      <ref role="20lvS9" to="pfd6:5l83jlMf$Lb" resolve="Expression" />
    </node>
    <node concept="1TJgyj" id="Opj2YGCycx" role="1TKVEi">
      <property role="20lmBu" value="aggregation" />
      <property role="20kJfa" value="cutoff" />
      <ref role="20lvS9" to="pfd6:5l83jlMf$Lb" resolve="Expression" />
    </node>
    <node concept="1TJgyj" id="Opj2YGCyc_" role="1TKVEi">
      <property role="20lmBu" value="aggregation" />
      <property role="20kJfa" value="symmetry" />
      <ref role="20lvS9" to="pfd6:5l83jlMf$Lb" resolve="Expression" />
    </node>
  </node>
  <node concept="1TIwiD" id="5gQ2EqXUDRH">
    <property role="TrG5h" value="MappingStatement" />
    <property role="34LRSv" value="mapping" />
    <property role="3GE5qa" value="mapping" />
    <ref role="1TJDcQ" to="c9eo:5l83jlMhgCt" resolve="Statement" />
    <node concept="1TJgyj" id="5gQ2EqXUDRI" role="1TKVEi">
      <property role="20lmBu" value="aggregation" />
      <property role="20kJfa" value="mappingType" />
      <property role="20lbJX" value="1" />
      <ref role="20lvS9" node="5gQ2EqXUDRJ" resolve="MappingType" />
    </node>
    <node concept="1TJgyj" id="5U5m3Aq6EIM" role="1TKVEi">
      <property role="20lmBu" value="aggregation" />
      <property role="20kJfa" value="parts" />
      <property role="20lbJX" value="1" />
      <ref role="20lvS9" to="pfd6:5l83jlMf$Lb" resolve="Expression" />
    </node>
  </node>
  <node concept="1TIwiD" id="5gQ2EqXUDRJ">
    <property role="TrG5h" value="MappingType" />
    <property role="R5$K7" value="true" />
    <property role="3GE5qa" value="mapping" />
    <property role="R4oN_" value="type of the mapping" />
    <ref role="1TJDcQ" to="pfd6:6fgLCPsAWoz" resolve="Type" />
  </node>
  <node concept="1TIwiD" id="5gQ2EqXUDRK">
    <property role="TrG5h" value="GhostMappingType" />
    <property role="34LRSv" value="ghost" />
    <property role="3GE5qa" value="mapping" />
    <ref role="1TJDcQ" node="5gQ2EqXUDRJ" resolve="MappingType" />
  </node>
  <node concept="1TIwiD" id="5gQ2EqXUDRL">
    <property role="TrG5h" value="GlobalMappingType" />
    <property role="34LRSv" value="global" />
    <property role="3GE5qa" value="mapping" />
    <ref role="1TJDcQ" node="5gQ2EqXUDRJ" resolve="MappingType" />
  </node>
  <node concept="1TIwiD" id="5gQ2EqXUDRM">
    <property role="TrG5h" value="PartialMappingType" />
    <property role="34LRSv" value="partial" />
    <property role="3GE5qa" value="mapping" />
    <ref role="1TJDcQ" node="5gQ2EqXUDRJ" resolve="MappingType" />
  </node>
  <node concept="1TIwiD" id="Opj2YGvzKc">
    <property role="3GE5qa" value="stmts" />
    <property role="TrG5h" value="CreateTopologyStatement" />
    <property role="34LRSv" value="create topology" />
    <ref role="1TJDcQ" to="c9eo:5l83jlMhgCt" resolve="Statement" />
    <node concept="PrWs8" id="Opj2YG$2kd" role="PzmwI">
      <ref role="PrY4T" to="tpee:4H$HgYMZ7sw" resolve="IVariableDeclaration" />
    </node>
    <node concept="PrWs8" id="Opj2YGzNFr" role="PzmwI">
      <ref role="PrY4T" to="q0gb:6fgLCPsE7bT" resolve="IIdentifierNamedConcept" />
    </node>
    <node concept="PrWs8" id="2Xvn13H73hH" role="PzmwI">
      <ref role="PrY4T" to="pfd6:6fgLCPsByeK" resolve="ITyped" />
    </node>
    <node concept="PrWs8" id="2OjMSZ8fXtp" role="PzmwI">
      <ref role="PrY4T" to="c9eo:7GORU49p0om" resolve="GlobalVariableDeclarationProvider" />
    </node>
    <node concept="1TJgyj" id="Opj2YGvNd5" role="1TKVEi">
      <property role="20lmBu" value="aggregation" />
      <property role="20kJfa" value="boundary_condition" />
      <property role="20lbJX" value="1" />
      <ref role="20lvS9" to="pfd6:6fgLCPsD6lb" resolve="StringLiteral" />
    </node>
    <node concept="1TJgyj" id="Opj2YGvNeb" role="1TKVEi">
      <property role="20lmBu" value="aggregation" />
      <property role="20kJfa" value="decomposition" />
      <ref role="20lvS9" to="tpee:fzcmrck" resolve="IntegerConstant" />
    </node>
    <node concept="1TJgyj" id="Opj2YGvNee" role="1TKVEi">
      <property role="20lmBu" value="aggregation" />
      <property role="20kJfa" value="processor_assignment" />
      <ref role="20lvS9" to="tpee:fzcmrck" resolve="IntegerConstant" />
    </node>
    <node concept="1TJgyj" id="Opj2YGvNei" role="1TKVEi">
      <property role="20lmBu" value="aggregation" />
      <property role="20kJfa" value="ghost_size" />
      <ref role="20lvS9" to="pfd6:5l83jlMf$Lb" resolve="Expression" />
    </node>
  </node>
  <node concept="1TIwiD" id="Opj2YGAjWG">
    <property role="3GE5qa" value="stmts" />
    <property role="TrG5h" value="CreateParticlesStatement" />
    <property role="34LRSv" value="create particles" />
    <ref role="1TJDcQ" to="c9eo:5l83jlMhgCt" resolve="Statement" />
    <node concept="PrWs8" id="Opj2YGAjWH" role="PzmwI">
      <ref role="PrY4T" to="tpee:4H$HgYMZ7sw" resolve="IVariableDeclaration" />
    </node>
    <node concept="PrWs8" id="Opj2YGCwOc" role="PzmwI">
      <ref role="PrY4T" to="q0gb:6fgLCPsE7bT" resolve="IIdentifierNamedConcept" />
    </node>
    <node concept="PrWs8" id="6Wx7SFgec7N" role="PzmwI">
      <ref role="PrY4T" node="6Wx7SFgebB4" resolve="IParticleList" />
    </node>
    <node concept="PrWs8" id="6Wx7SFgk$QU" role="PzmwI">
      <ref role="PrY4T" to="pfd6:6fgLCPsByeK" resolve="ITyped" />
    </node>
    <node concept="PrWs8" id="2OjMSZ8hAUN" role="PzmwI">
      <ref role="PrY4T" to="tpck:3fifI_xCcJN" resolve="ScopeProvider" />
    </node>
    <node concept="1TJgyj" id="Opj2YGAjZ5" role="1TKVEi">
      <property role="20lmBu" value="aggregation" />
      <property role="20kJfa" value="topology" />
      <property role="20lbJX" value="1" />
      <ref role="20lvS9" to="pfd6:5l83jlMf$Lb" resolve="Expression" />
    </node>
    <node concept="1TJgyj" id="Opj2YGAjZ7" role="1TKVEi">
      <property role="20lmBu" value="aggregation" />
      <property role="20kJfa" value="npart" />
      <ref role="20lvS9" to="pfd6:5l83jlMf$Lb" resolve="Expression" />
    </node>
    <node concept="1TJgyj" id="Opj2YGAjZa" role="1TKVEi">
      <property role="20lmBu" value="aggregation" />
      <property role="20kJfa" value="precision" />
      <ref role="20lvS9" to="pfd6:5l83jlMf$Lb" resolve="Expression" />
    </node>
    <node concept="1TJgyj" id="Opj2YGAk0s" role="1TKVEi">
      <property role="20lmBu" value="aggregation" />
      <property role="20kJfa" value="ghost_size" />
      <ref role="20lvS9" to="pfd6:5l83jlMf$Lb" resolve="Expression" />
    </node>
    <node concept="1TJgyj" id="Opj2YGAk0I" role="1TKVEi">
      <property role="20lmBu" value="aggregation" />
      <property role="20kJfa" value="distribution" />
      <ref role="20lvS9" to="pfd6:5l83jlMf$Lb" resolve="Expression" />
    </node>
    <node concept="1TJgyj" id="BmRcKWhqX0" role="1TKVEi">
      <property role="20lmBu" value="aggregation" />
      <property role="20kJfa" value="displacementBody" />
      <ref role="20lvS9" to="c9eo:5l83jlMhgFI" resolve="StatementList" />
    </node>
    <node concept="1TJgyj" id="BmRcKWhqZL" role="1TKVEi">
      <property role="20lmBu" value="aggregation" />
      <property role="20kJfa" value="body" />
      <ref role="20lvS9" to="c9eo:5l83jlMhgFI" resolve="StatementList" />
    </node>
  </node>
  <node concept="1TIwiD" id="2Xvn13Ha$NO">
    <property role="3GE5qa" value="types.particles" />
    <property role="TrG5h" value="PropertyType" />
    <property role="34LRSv" value="property" />
    <ref role="1TJDcQ" to="pfd6:6fgLCPsAWoz" resolve="Type" />
    <node concept="1TJgyj" id="2Xvn13Ha$UU" role="1TKVEi">
      <property role="20lmBu" value="aggregation" />
      <property role="20kJfa" value="dtype" />
      <property role="20lbJX" value="0..1" />
      <ref role="20lvS9" to="pfd6:6fgLCPsAWoz" resolve="Type" />
    </node>
    <node concept="1TJgyj" id="2Xvn13Ha$Wq" role="1TKVEi">
      <property role="20lmBu" value="aggregation" />
      <property role="20kJfa" value="ndim" />
      <ref role="20lvS9" to="pfd6:5l83jlMf$Lb" resolve="Expression" />
    </node>
    <node concept="1TJgyj" id="2Xvn13Ha$Wt" role="1TKVEi">
      <property role="20lmBu" value="aggregation" />
      <property role="20kJfa" value="prec" />
      <ref role="20lvS9" to="pfd6:5l83jlMf$Lb" resolve="Expression" />
    </node>
    <node concept="1TJgyj" id="2Xvn13Ha$Wx" role="1TKVEi">
      <property role="20lmBu" value="aggregation" />
      <property role="20kJfa" value="zero" />
      <ref role="20lvS9" to="pfd6:5l83jlMf$Lb" resolve="Expression" />
    </node>
    <node concept="1TJgyj" id="2Xvn13HeEcx" role="1TKVEi">
      <property role="20lmBu" value="aggregation" />
      <property role="20kJfa" value="descr" />
      <property role="20lbJX" value="1" />
      <ref role="20lvS9" to="pfd6:5l83jlMf$Lb" resolve="Expression" />
    </node>
    <node concept="1TJgyj" id="2Xvn13Ha$Y2" role="1TKVEi">
      <property role="20lmBu" value="reference" />
      <property role="20kJfa" value="pset" />
      <ref role="20lvS9" to="c9eo:5l83jlMhBWg" resolve="VariableDeclaration" />
    </node>
  </node>
  <node concept="1TIwiD" id="m1E9k9eONZ">
    <property role="3GE5qa" value="expr" />
    <property role="TrG5h" value="ArrowExpression" />
    <property role="34LRSv" value="-&gt;" />
    <ref role="1TJDcQ" to="pfd6:5l83jlMf$Lb" resolve="Expression" />
    <node concept="1TJgyj" id="m1E9k9eOTT" role="1TKVEi">
      <property role="20lmBu" value="aggregation" />
      <property role="20kJfa" value="operand" />
      <property role="20lbJX" value="1" />
      <ref role="20lvS9" to="pfd6:5l83jlMf$Lb" resolve="Expression" />
    </node>
    <node concept="1TJgyj" id="m1E9k9eOTV" role="1TKVEi">
      <property role="20lmBu" value="aggregation" />
      <property role="20kJfa" value="operation" />
      <property role="20lbJX" value="1" />
      <ref role="20lvS9" node="m1E9k9ePok" resolve="IAccess" />
    </node>
  </node>
  <node concept="PlHQZ" id="m1E9k9ePok">
    <property role="3GE5qa" value="expr" />
    <property role="TrG5h" value="IAccess" />
  </node>
  <node concept="1TIwiD" id="m1E9k9gn6i">
    <property role="3GE5qa" value="expr" />
    <property role="TrG5h" value="PositionMemberAccess" />
    <property role="R4oN_" value="particle position access" />
    <property role="34LRSv" value="pos" />
    <ref role="1TJDcQ" to="tpck:gw2VY9q" resolve="BaseConcept" />
    <node concept="PrWs8" id="m1E9k9gn6j" role="PzmwI">
      <ref role="PrY4T" node="m1E9k9ePok" resolve="IAccess" />
    </node>
  </node>
  <node concept="1TIwiD" id="52AxEEP0ivF">
    <property role="3GE5qa" value="expr.plist" />
    <property role="TrG5h" value="ParticleListMemberAccess" />
    <ref role="1TJDcQ" to="tpck:gw2VY9q" resolve="BaseConcept" />
    <node concept="PrWs8" id="52AxEEP0ixh" role="PzmwI">
      <ref role="PrY4T" node="m1E9k9ePok" resolve="IAccess" />
    </node>
    <node concept="PrWs8" id="KVSbImBuAH" role="PzmwI">
      <ref role="PrY4T" to="pfd6:5l83jlMhoVs" resolve="IVariableReference" />
    </node>
    <node concept="1TJgyj" id="52AxEEP0iNz" role="1TKVEi">
      <property role="20lmBu" value="reference" />
      <property role="20kJfa" value="decl" />
      <property role="20lbJX" value="1" />
      <ref role="20lvS9" to="tpee:4H$HgYMZ7sw" resolve="IVariableDeclaration" />
    </node>
  </node>
  <node concept="1TIwiD" id="6Wx7SFgabxi">
    <property role="3GE5qa" value="types" />
    <property role="TrG5h" value="ParticleListType" />
    <property role="34LRSv" value="plist" />
    <ref role="1TJDcQ" to="pfd6:3SvAy0XHWnV" resolve="VectorType" />
    <node concept="1TJgyj" id="6Wx7SFgkzN1" role="1TKVEi">
      <property role="20lmBu" value="reference" />
      <property role="20kJfa" value="plist" />
      <property role="20lbJX" value="1" />
      <ref role="20lvS9" node="6Wx7SFgebB4" resolve="IParticleList" />
    </node>
  </node>
  <node concept="PlHQZ" id="6Wx7SFgaNmE">
    <property role="3GE5qa" value="expr.plist" />
    <property role="TrG5h" value="IParticleListMember" />
  </node>
  <node concept="PlHQZ" id="6Wx7SFgebB4">
    <property role="3GE5qa" value="expr.plist" />
    <property role="TrG5h" value="IParticleList" />
  </node>
  <node concept="1TIwiD" id="6Wx7SFgmIy1">
    <property role="3GE5qa" value="expr" />
    <property role="TrG5h" value="ParticleMemberAccess" />
    <property role="R4oN_" value="particle member access" />
    <ref role="1TJDcQ" to="tpck:gw2VY9q" resolve="BaseConcept" />
    <node concept="PrWs8" id="6Wx7SFgmIy2" role="PzmwI">
      <ref role="PrY4T" node="m1E9k9ePok" resolve="IAccess" />
    </node>
    <node concept="1TJgyj" id="6Wx7SFgmIy3" role="1TKVEi">
      <property role="20lmBu" value="reference" />
      <property role="20kJfa" value="decl" />
      <property role="20lbJX" value="1" />
      <ref role="20lvS9" to="tpee:4H$HgYMZ7sw" resolve="IVariableDeclaration" />
    </node>
  </node>
  <node concept="1TIwiD" id="6Vu8sWdc7pf">
    <property role="TrG5h" value="PlistForParticlesAttribute" />
    <ref role="1TJDcQ" to="tpck:2ULFgo8_XDk" resolve="NodeAttribute" />
    <node concept="M6xJ_" id="6Vu8sWdc7pg" role="lGtFl">
      <property role="Hh88m" value="plistForParticleType" />
      <node concept="trNpa" id="6Vu8sWdc7pi" role="EQaZv">
        <ref role="trN6q" node="5gQ2EqXQH6v" resolve="ParticleType" />
      </node>
    </node>
    <node concept="1TJgyj" id="6Vu8sWdcmiu" role="1TKVEi">
      <property role="20lmBu" value="aggregation" />
      <property role="20kJfa" value="plist" />
      <property role="20lbJX" value="1" />
      <ref role="20lvS9" node="6Wx7SFgebB4" resolve="IParticleList" />
    </node>
  </node>
  <node concept="1TIwiD" id="6Vu8sWdd84P">
    <property role="3GE5qa" value="stmts.loops" />
    <property role="TrG5h" value="ParticleLoopStatment" />
    <property role="34LRSv" value="foreach" />
    <property role="R4oN_" value="foreach &lt;particle&gt; in &lt;particle set&gt;" />
    <ref role="1TJDcQ" to="c9eo:6JTxo0b1E4m" resolve="AbstractLoopStatement" />
    <node concept="1TJgyj" id="6Vu8sWdd84Q" role="1TKVEi">
      <property role="20lmBu" value="aggregation" />
      <property role="20kJfa" value="iterable" />
      <property role="20lbJX" value="1" />
      <ref role="20lvS9" to="pfd6:5l83jlMf$Lb" resolve="Expression" />
    </node>
    <node concept="1TJgyj" id="6Vu8sWdgo6p" role="1TKVEi">
      <property role="20lmBu" value="aggregation" />
      <property role="20kJfa" value="variable" />
      <property role="20lbJX" value="1" />
      <ref role="20lvS9" to="c9eo:5l83jlMhBWg" resolve="VariableDeclaration" />
    </node>
    <node concept="PrWs8" id="5mt6372JjlM" role="PzmwI">
      <ref role="PrY4T" to="tpck:3fifI_xCcJN" resolve="ScopeProvider" />
    </node>
  </node>
  <node concept="1TIwiD" id="6Vu8sWdhf94">
    <property role="TrG5h" value="PlistForParticleListType" />
    <ref role="1TJDcQ" to="tpck:2ULFgo8_XDk" resolve="NodeAttribute" />
    <node concept="M6xJ_" id="6Vu8sWdhf95" role="lGtFl">
      <property role="Hh88m" value="plist" />
      <node concept="trNpa" id="6Vu8sWdhf97" role="EQaZv">
        <ref role="trN6q" node="6Wx7SFgabxi" resolve="ParticleListType" />
      </node>
    </node>
    <node concept="1TJgyj" id="6Vu8sWdhfb5" role="1TKVEi">
      <property role="20lmBu" value="reference" />
      <property role="20kJfa" value="plist" />
      <property role="20lbJX" value="1" />
      <ref role="20lvS9" node="6Wx7SFgebB4" resolve="IParticleList" />
    </node>
  </node>
  <node concept="1TIwiD" id="5mt6372LB8W">
    <property role="3GE5qa" value="types.particles" />
    <property role="TrG5h" value="ParticleMemberType" />
    <property role="R5$K7" value="true" />
    <property role="R5$K2" value="false" />
    <ref role="1TJDcQ" to="pfd6:6fgLCPsAWoz" resolve="Type" />
    <node concept="1TJgyj" id="5mt6372LC8R" role="1TKVEi">
      <property role="20lmBu" value="aggregation" />
      <property role="20kJfa" value="ndim" />
      <ref role="20lvS9" to="pfd6:5l83jlMf$Lb" resolve="Expression" />
    </node>
    <node concept="1TJgyj" id="5mt6372LC8T" role="1TKVEi">
      <property role="20lmBu" value="aggregation" />
      <property role="20kJfa" value="descr" />
      <ref role="20lvS9" to="pfd6:5l83jlMf$Lb" resolve="Expression" />
    </node>
    <node concept="1TJgyj" id="5mt6372LC8W" role="1TKVEi">
      <property role="20lmBu" value="aggregation" />
      <property role="20kJfa" value="dtype" />
      <ref role="20lvS9" to="pfd6:6fgLCPsAWoz" resolve="Type" />
    </node>
  </node>
  <node concept="1TIwiD" id="26Us85XGIPD">
    <property role="3GE5qa" value="expr" />
    <property role="TrG5h" value="NeighborsExpression" />
    <property role="34LRSv" value="neighbors" />
    <ref role="1TJDcQ" to="pfd6:5l83jlMf$Lb" resolve="Expression" />
    <node concept="1TJgyj" id="26Us85XGJjf" role="1TKVEi">
      <property role="20lmBu" value="aggregation" />
      <property role="20kJfa" value="parts" />
      <property role="20lbJX" value="1" />
      <ref role="20lvS9" to="pfd6:5l83jlMf$Lb" resolve="Expression" />
    </node>
    <node concept="1TJgyj" id="26Us85XGJjh" role="1TKVEi">
      <property role="20lmBu" value="aggregation" />
      <property role="20kJfa" value="p" />
      <property role="20lbJX" value="1" />
      <ref role="20lvS9" to="pfd6:5l83jlMf$Lb" resolve="Expression" />
    </node>
  </node>
  <node concept="1TIwiD" id="2OjMSZ8jx9r">
    <property role="3GE5qa" value="expr.plist" />
    <property role="TrG5h" value="HAvgMemberAccess" />
    <property role="R4oN_" value="(global) average distance between particles" />
    <property role="34LRSv" value="hAvg" />
    <ref role="1TJDcQ" node="2OjMSZ8y4Xy" resolve="ParticleListMember" />
    <node concept="PrWs8" id="2OjMSZ8jx9s" role="PzmwI">
      <ref role="PrY4T" node="m1E9k9ePok" resolve="IAccess" />
    </node>
  </node>
  <node concept="1TIwiD" id="2OjMSZ8li8V">
    <property role="3GE5qa" value="expr.plist" />
    <property role="TrG5h" value="HMinMemberAccess" />
    <property role="R4oN_" value="(global) minimum distance between particles" />
    <property role="34LRSv" value="hMin" />
    <ref role="1TJDcQ" node="2OjMSZ8y4Xy" resolve="ParticleListMember" />
    <node concept="PrWs8" id="2OjMSZ8li8W" role="PzmwI">
      <ref role="PrY4T" node="m1E9k9ePok" resolve="IAccess" />
    </node>
  </node>
  <node concept="1TIwiD" id="2OjMSZ8xlTp">
    <property role="3GE5qa" value="expr" />
    <property role="TrG5h" value="CallRandomNumber" />
    <ref role="1TJDcQ" to="c9eo:5l83jlMhgCt" resolve="Statement" />
    <node concept="1TJgyj" id="2OjMSZ8xmaD" role="1TKVEi">
      <property role="20lmBu" value="aggregation" />
      <property role="20kJfa" value="var" />
      <property role="20lbJX" value="1" />
      <ref role="20lvS9" to="c9eo:5l83jlMivi_" resolve="VariableReference" />
    </node>
  </node>
  <node concept="1TIwiD" id="2OjMSZ8y3eu">
    <property role="3GE5qa" value="expr.plist" />
    <property role="TrG5h" value="NPartMemberAccess" />
    <property role="R4oN_" value="number of real particles on this processor" />
    <property role="34LRSv" value="Npart" />
    <ref role="1TJDcQ" node="2OjMSZ8y4Xy" resolve="ParticleListMember" />
    <node concept="PrWs8" id="2OjMSZ8y3ev" role="PzmwI">
      <ref role="PrY4T" node="m1E9k9ePok" resolve="IAccess" />
    </node>
  </node>
  <node concept="1TIwiD" id="2OjMSZ8y4Xy">
    <property role="3GE5qa" value="expr.plist" />
    <property role="R5$K7" value="true" />
    <property role="TrG5h" value="ParticleListMember" />
    <ref role="1TJDcQ" to="tpck:gw2VY9q" resolve="BaseConcept" />
    <node concept="PrWs8" id="2OjMSZ8y55o" role="PzmwI">
      <ref role="PrY4T" node="m1E9k9ePok" resolve="IAccess" />
    </node>
  </node>
  <node concept="1TIwiD" id="5U5m3Aq5RMk">
    <property role="3GE5qa" value="stmts" />
    <property role="TrG5h" value="ComputeNeighlistStatment" />
    <property role="34LRSv" value="comp neighlist" />
    <property role="R4oN_" value="compute the neighborlist for a particle set" />
    <ref role="1TJDcQ" to="c9eo:5l83jlMhgCt" resolve="Statement" />
    <node concept="1TJgyj" id="5U5m3Aq5S81" role="1TKVEi">
      <property role="20lmBu" value="aggregation" />
      <property role="20kJfa" value="parts" />
      <property role="20lbJX" value="1" />
      <ref role="20lvS9" to="pfd6:5l83jlMf$Lb" resolve="Expression" />
    </node>
  </node>
  <node concept="1TIwiD" id="5U5m3AqaUUR">
    <property role="3GE5qa" value="expr.plist" />
    <property role="TrG5h" value="ApplyBCMemberAccess" />
    <property role="R4oN_" value="apply boundary condition" />
    <property role="34LRSv" value="applyBC()" />
    <ref role="1TJDcQ" node="2OjMSZ8y4Xy" resolve="ParticleListMember" />
    <node concept="PrWs8" id="5U5m3AqaUUS" role="PzmwI">
      <ref role="PrY4T" node="m1E9k9ePok" resolve="IAccess" />
    </node>
  </node>
  <node concept="1TIwiD" id="5U5m3Aqgu$C">
    <property role="3GE5qa" value="types" />
    <property role="TrG5h" value="NeighborlistType" />
    <property role="34LRSv" value="neighlist" />
    <ref role="1TJDcQ" to="pfd6:6fgLCPsAWoz" resolve="Type" />
    <node concept="1TJgyj" id="ti97EI1hj0" role="1TKVEi">
      <property role="20lmBu" value="reference" />
      <property role="20kJfa" value="parts" />
      <ref role="20lvS9" node="6Wx7SFgebB4" resolve="IParticleList" />
    </node>
  </node>
  <node concept="1TIwiD" id="52q84rKcUdJ">
    <property role="3GE5qa" value="types" />
    <property role="TrG5h" value="DifferentialOperatorType" />
    <ref role="1TJDcQ" to="pfd6:6fgLCPsAWoz" resolve="Type" />
    <node concept="1TJgyi" id="52q84rKcUg6" role="1TKVEl">
      <property role="TrG5h" value="discretized" />
      <ref role="AX2Wp" to="tpck:fKAQMTB" resolve="boolean" />
    </node>
  </node>
  <node concept="1TIwiD" id="hRSdiNeDOY">
    <property role="3GE5qa" value="expr" />
    <property role="TrG5h" value="ParameterPairExpression" />
    <property role="34LRSv" value="=&gt;" />
    <ref role="1TJDcQ" to="pfd6:5l83jlMf$Lk" resolve="BinaryExpression" />
  </node>
  <node concept="1TIwiD" id="hRSdiNjF37">
    <property role="3GE5qa" value="ppml" />
    <property role="TrG5h" value="UncheckedReference" />
    <ref role="1TJDcQ" to="pfd6:5l83jlMf$Lb" resolve="Expression" />
    <node concept="1TJgyi" id="hRSdiNjF38" role="1TKVEl">
      <property role="TrG5h" value="var" />
      <ref role="AX2Wp" to="tpck:fKAOsGN" resolve="string" />
    </node>
  </node>
  <node concept="1TIwiD" id="7bntxMfBCN1">
    <property role="3GE5qa" value="types" />
    <property role="TrG5h" value="MyKindAnnotation" />
    <ref role="1TJDcQ" to="tpck:2ULFgo8_XDk" resolve="NodeAttribute" />
    <node concept="M6xJ_" id="7bntxMfBCPv" role="lGtFl">
      <property role="Hh88m" value="mk" />
      <node concept="trNpa" id="7bntxMfBDc2" role="EQaZv">
        <ref role="trN6q" to="pfd6:m1E9k9aYCP" resolve="RealLiteral" />
      </node>
    </node>
  </node>
  <node concept="1TIwiD" id="3tLYWtJpOSV">
    <property role="3GE5qa" value="expr" />
    <property role="TrG5h" value="SqrtExpression" />
    <property role="R4oN_" value="sqrt(x)" />
    <property role="34LRSv" value="sqrt" />
    <ref role="1TJDcQ" to="pfd6:2dq8QBBpOnB" resolve="UnaryArithmeticExpression" />
  </node>
  <node concept="1TIwiD" id="7dQBydg2wd2">
    <property role="3GE5qa" value="types.particles" />
    <property role="TrG5h" value="AbstractFieldType" />
    <property role="R5$K7" value="true" />
    <property role="R5$K2" value="false" />
    <ref role="1TJDcQ" to="pfd6:6fgLCPsAWoz" resolve="Type" />
  </node>
  <node concept="1TIwiD" id="7dQBydg2wyh">
    <property role="3GE5qa" value="types.particles" />
    <property role="R5$K7" value="true" />
    <property role="TrG5h" value="AbstractPropertyType" />
    <ref role="1TJDcQ" to="pfd6:6fgLCPsAWoz" resolve="Type" />
  </node>
  <node concept="1TIwiD" id="4Q17K_JsOfW">
    <property role="3GE5qa" value="expr" />
    <property role="TrG5h" value="Differential" />
    <property role="R4oN_" value="expresses differential over some arrow expression" />
    <ref role="1TJDcQ" to="pfd6:5l83jlMf$Lb" resolve="Expression" />
    <node concept="1TJgyj" id="4Q17K_JsOyg" role="1TKVEi">
      <property role="20lmBu" value="aggregation" />
      <property role="20kJfa" value="operand" />
      <property role="20lbJX" value="1" />
      <ref role="20lvS9" node="m1E9k9eONZ" resolve="ArrowExpression" />
    </node>
  </node>
</model>

