<?xml version="1.0" encoding="UTF-8"?>
<model ref="r:99a44a06-1ec7-42ad-8bc8-c084a88c4a0a(de.ppme.ctrl.constraints)">
  <persistence version="9" />
  <languages>
    <use id="3f4bc5f5-c6c1-4a28-8b10-c83066ffa4a1" name="jetbrains.mps.lang.constraints" version="-1" />
    <devkit ref="fbc25dd2-5da4-483a-8b19-70928e1b62d7(jetbrains.mps.devkit.general-purpose)" />
  </languages>
  <imports>
    <import index="lm2c" ref="r:10261a70-d383-49ff-b567-775cda9fba27(de.ppme.ctrl.structure)" implicit="true" />
  </imports>
  <registry>
    <language id="3f4bc5f5-c6c1-4a28-8b10-c83066ffa4a1" name="jetbrains.mps.lang.constraints">
      <concept id="8401916545537438642" name="jetbrains.mps.lang.constraints.structure.InheritedNodeScopeFactory" flags="ng" index="1dDu$B">
        <reference id="8401916545537438643" name="kind" index="1dDu$A" />
      </concept>
      <concept id="1213093968558" name="jetbrains.mps.lang.constraints.structure.ConceptConstraints" flags="ng" index="1M2fIO">
        <reference id="1213093996982" name="concept" index="1M2myG" />
        <child id="1213100494875" name="referent" index="1Mr941" />
      </concept>
      <concept id="1148687176410" name="jetbrains.mps.lang.constraints.structure.NodeReferentConstraint" flags="ng" index="1N5Pfh">
        <reference id="1148687202698" name="applicableLink" index="1N5Vy1" />
        <child id="1148687345559" name="searchScopeFactory" index="1N6uqs" />
      </concept>
    </language>
  </registry>
  <node concept="1M2fIO" id="1lih$04OHR">
    <ref role="1M2myG" to="lm2c:5mlvYxQWMvz" resolve="CtrlPropertyReference" />
    <node concept="1N5Pfh" id="1lih$04OHS" role="1Mr941">
      <ref role="1N5Vy1" to="lm2c:5mlvYxQWMv$" />
      <node concept="1dDu$B" id="1lih$04OXJ" role="1N6uqs">
        <ref role="1dDu$A" to="lm2c:5z7tqBB6nSJ" resolve="CtrlProperty" />
      </node>
    </node>
  </node>
</model>

