<?xml version="1.0" encoding="UTF-8"?>
<model ref="r:c5a28ab1-f797-43af-a34d-5ba6b8f394a0(de.ppme.statements.textGen)">
  <persistence version="9" />
  <languages>
    <use id="b83431fe-5c8f-40bc-8a36-65e25f4dd253" name="jetbrains.mps.lang.textGen" version="-1" />
    <use id="c72da2b9-7cce-4447-8389-f407dc1158b7" name="jetbrains.mps.lang.structure" version="0" />
    <use id="7a5dda62-9140-4668-ab76-d5ed1746f2b2" name="jetbrains.mps.lang.typesystem" version="0" />
    <devkit ref="fbc25dd2-5da4-483a-8b19-70928e1b62d7(jetbrains.mps.devkit.general-purpose)" />
  </languages>
  <imports>
    <import index="c9eo" ref="r:493484be-3d66-4fd8-b261-ed47cd8c6981(de.ppme.statements.structure)" />
    <import index="z32s" ref="r:e67f0956-599a-410e-9d27-48e0cdd610ec(de.ppme.statements.behavior)" />
    <import index="pfd6" ref="r:9e939139-f0d1-4eb5-9ac6-55348163d9b2(de.ppme.expressions.structure)" />
    <import index="bkkh" ref="r:0249b848-8a19-49ef-a019-de89bf2328cf(de.ppme.expressions.behavior)" />
    <import index="2gyk" ref="r:be57a480-399b-470c-860e-bdfcf98e0b2c(de.ppme.core.structure)" />
    <import index="tpck" ref="r:00000000-0000-4000-0000-011c89590288(jetbrains.mps.lang.core.structure)" implicit="true" />
    <import index="tpee" ref="r:00000000-0000-4000-0000-011c895902ca(jetbrains.mps.baseLanguage.structure)" implicit="true" />
  </imports>
  <registry>
    <language id="f3061a53-9226-4cc5-a443-f952ceaf5816" name="jetbrains.mps.baseLanguage">
      <concept id="1080223426719" name="jetbrains.mps.baseLanguage.structure.OrExpression" flags="nn" index="22lmx$" />
      <concept id="1082485599095" name="jetbrains.mps.baseLanguage.structure.BlockStatement" flags="nn" index="9aQIb">
        <child id="1082485599096" name="statements" index="9aQI4" />
      </concept>
      <concept id="4836112446988635817" name="jetbrains.mps.baseLanguage.structure.UndefinedType" flags="in" index="2jxLKc" />
      <concept id="1202948039474" name="jetbrains.mps.baseLanguage.structure.InstanceMethodCallOperation" flags="nn" index="liA8E" />
      <concept id="1076505808687" name="jetbrains.mps.baseLanguage.structure.WhileStatement" flags="nn" index="2$JKZl">
        <child id="1076505808688" name="condition" index="2$JKZa" />
      </concept>
      <concept id="1154032098014" name="jetbrains.mps.baseLanguage.structure.AbstractLoopStatement" flags="nn" index="2LF5Ji">
        <child id="1154032183016" name="body" index="2LFqv$" />
      </concept>
      <concept id="1197027756228" name="jetbrains.mps.baseLanguage.structure.DotExpression" flags="nn" index="2OqwBi">
        <child id="1197027771414" name="operand" index="2Oq$k0" />
        <child id="1197027833540" name="operation" index="2OqNvi" />
      </concept>
      <concept id="1137021947720" name="jetbrains.mps.baseLanguage.structure.ConceptFunction" flags="in" index="2VMwT0">
        <child id="1137022507850" name="body" index="2VODD2" />
      </concept>
      <concept id="1070475926800" name="jetbrains.mps.baseLanguage.structure.StringLiteral" flags="nn" index="Xl_RD">
        <property id="1070475926801" name="value" index="Xl_RC" />
      </concept>
      <concept id="1081236700937" name="jetbrains.mps.baseLanguage.structure.StaticMethodCall" flags="nn" index="2YIFZM">
        <reference id="1144433194310" name="classConcept" index="1Pybhc" />
      </concept>
      <concept id="1068431474542" name="jetbrains.mps.baseLanguage.structure.VariableDeclaration" flags="ng" index="33uBYm">
        <child id="1068431790190" name="initializer" index="33vP2m" />
      </concept>
      <concept id="1068498886296" name="jetbrains.mps.baseLanguage.structure.VariableReference" flags="nn" index="37vLTw">
        <reference id="1068581517664" name="variableDeclaration" index="3cqZAo" />
      </concept>
      <concept id="4972933694980447171" name="jetbrains.mps.baseLanguage.structure.BaseVariableDeclaration" flags="ng" index="19Szcq">
        <child id="5680397130376446158" name="type" index="1tU5fm" />
      </concept>
      <concept id="1068580123155" name="jetbrains.mps.baseLanguage.structure.ExpressionStatement" flags="nn" index="3clFbF">
        <child id="1068580123156" name="expression" index="3clFbG" />
      </concept>
      <concept id="1068580123157" name="jetbrains.mps.baseLanguage.structure.Statement" flags="nn" index="3clFbH" />
      <concept id="1068580123159" name="jetbrains.mps.baseLanguage.structure.IfStatement" flags="nn" index="3clFbJ">
        <child id="1082485599094" name="ifFalseStatement" index="9aQIa" />
        <child id="1068580123160" name="condition" index="3clFbw" />
        <child id="1068580123161" name="ifTrue" index="3clFbx" />
      </concept>
      <concept id="1068580123136" name="jetbrains.mps.baseLanguage.structure.StatementList" flags="sn" stub="5293379017992965193" index="3clFbS">
        <child id="1068581517665" name="statement" index="3cqZAp" />
      </concept>
      <concept id="1068581242875" name="jetbrains.mps.baseLanguage.structure.PlusExpression" flags="nn" index="3cpWs3" />
      <concept id="1068581242878" name="jetbrains.mps.baseLanguage.structure.ReturnStatement" flags="nn" index="3cpWs6" />
      <concept id="1068581242864" name="jetbrains.mps.baseLanguage.structure.LocalVariableDeclarationStatement" flags="nn" index="3cpWs8">
        <child id="1068581242865" name="localVariableDeclaration" index="3cpWs9" />
      </concept>
      <concept id="1068581242863" name="jetbrains.mps.baseLanguage.structure.LocalVariableDeclaration" flags="nr" index="3cpWsn" />
      <concept id="1079359253375" name="jetbrains.mps.baseLanguage.structure.ParenthesizedExpression" flags="nn" index="1eOMI4">
        <child id="1079359253376" name="expression" index="1eOMHV" />
      </concept>
      <concept id="1081516740877" name="jetbrains.mps.baseLanguage.structure.NotExpression" flags="nn" index="3fqX7Q">
        <child id="1081516765348" name="expression" index="3fr31v" />
      </concept>
      <concept id="1204053956946" name="jetbrains.mps.baseLanguage.structure.IMethodCall" flags="ng" index="1ndlxa">
        <reference id="1068499141037" name="baseMethodDeclaration" index="37wK5l" />
        <child id="1068499141038" name="actualArgument" index="37wK5m" />
      </concept>
      <concept id="1081773326031" name="jetbrains.mps.baseLanguage.structure.BinaryOperation" flags="nn" index="3uHJSO">
        <child id="1081773367579" name="rightExpression" index="3uHU7w" />
        <child id="1081773367580" name="leftExpression" index="3uHU7B" />
      </concept>
      <concept id="1163668896201" name="jetbrains.mps.baseLanguage.structure.TernaryOperatorExpression" flags="nn" index="3K4zz7">
        <child id="1163668914799" name="condition" index="3K4Cdx" />
        <child id="1163668922816" name="ifTrue" index="3K4E3e" />
        <child id="1163668934364" name="ifFalse" index="3K4GZi" />
      </concept>
      <concept id="6329021646629104957" name="jetbrains.mps.baseLanguage.structure.TextCommentPart" flags="nn" index="3SKdUq">
        <property id="6329021646629104958" name="text" index="3SKdUp" />
      </concept>
      <concept id="6329021646629104954" name="jetbrains.mps.baseLanguage.structure.SingleLineComment" flags="nn" index="3SKdUt">
        <child id="6329021646629175155" name="commentPart" index="3SKWNk" />
      </concept>
      <concept id="1080120340718" name="jetbrains.mps.baseLanguage.structure.AndExpression" flags="nn" index="1Wc70l" />
    </language>
    <language id="fd392034-7849-419d-9071-12563d152375" name="jetbrains.mps.baseLanguage.closures">
      <concept id="1199569711397" name="jetbrains.mps.baseLanguage.closures.structure.ClosureLiteral" flags="nn" index="1bVj0M">
        <child id="1199569906740" name="parameter" index="1bW2Oz" />
        <child id="1199569916463" name="body" index="1bW5cS" />
      </concept>
    </language>
    <language id="b83431fe-5c8f-40bc-8a36-65e25f4dd253" name="jetbrains.mps.lang.textGen">
      <concept id="1237305208784" name="jetbrains.mps.lang.textGen.structure.NewLineAppendPart" flags="ng" index="l8MVK" />
      <concept id="1237305334312" name="jetbrains.mps.lang.textGen.structure.NodeAppendPart" flags="ng" index="l9hG8">
        <child id="1237305790512" name="value" index="lb14g" />
      </concept>
      <concept id="1237305491868" name="jetbrains.mps.lang.textGen.structure.CollectionAppendPart" flags="ng" index="l9S2W">
        <child id="1237305945551" name="list" index="lbANJ" />
      </concept>
      <concept id="1237305557638" name="jetbrains.mps.lang.textGen.structure.ConstantStringAppendPart" flags="ng" index="la8eA">
        <property id="1237305576108" name="value" index="lacIc" />
      </concept>
      <concept id="1237306079178" name="jetbrains.mps.lang.textGen.structure.AppendOperation" flags="nn" index="lc7rE">
        <child id="1237306115446" name="part" index="lcghm" />
      </concept>
      <concept id="1233670071145" name="jetbrains.mps.lang.textGen.structure.ConceptTextGenDeclaration" flags="ig" index="WtQ9Q">
        <reference id="1233670257997" name="conceptDeclaration" index="WuzLi" />
        <child id="1233749296504" name="textGenBlock" index="11c4hB" />
      </concept>
      <concept id="1233748055915" name="jetbrains.mps.lang.textGen.structure.NodeParameter" flags="nn" index="117lpO" />
      <concept id="1233749247888" name="jetbrains.mps.lang.textGen.structure.GenerateTextDeclaration" flags="in" index="11bSqf" />
      <concept id="1233920501193" name="jetbrains.mps.lang.textGen.structure.IndentBufferOperation" flags="nn" index="1bpajm" />
      <concept id="1236188139846" name="jetbrains.mps.lang.textGen.structure.WithIndentOperation" flags="nn" index="3izx1p">
        <child id="1236188238861" name="list" index="3izTki" />
      </concept>
    </language>
    <language id="7a5dda62-9140-4668-ab76-d5ed1746f2b2" name="jetbrains.mps.lang.typesystem">
      <concept id="1176544042499" name="jetbrains.mps.lang.typesystem.structure.Node_TypeOperation" flags="nn" index="3JvlWi" />
    </language>
    <language id="760a0a8c-eabb-4521-8bfd-65db761a9ba3" name="jetbrains.mps.baseLanguage.logging">
      <concept id="1167227138527" name="jetbrains.mps.baseLanguage.logging.structure.LogStatement" flags="nn" index="34ab3g">
        <property id="1167245565795" name="severity" index="35gtTG" />
        <child id="1167227463056" name="logExpression" index="34bqiv" />
      </concept>
    </language>
    <language id="7866978e-a0f0-4cc7-81bc-4d213d9375e1" name="jetbrains.mps.lang.smodel">
      <concept id="1177026924588" name="jetbrains.mps.lang.smodel.structure.RefConcept_Reference" flags="nn" index="chp4Y">
        <reference id="1177026940964" name="conceptDeclaration" index="cht4Q" />
      </concept>
      <concept id="1179409122411" name="jetbrains.mps.lang.smodel.structure.Node_ConceptMethodCall" flags="nn" index="2qgKlT" />
      <concept id="1173122760281" name="jetbrains.mps.lang.smodel.structure.Node_GetAncestorsOperation" flags="nn" index="z$bX8" />
      <concept id="1171310072040" name="jetbrains.mps.lang.smodel.structure.Node_GetContainingRootOperation" flags="nn" index="2Rxl7S" />
      <concept id="1154546950173" name="jetbrains.mps.lang.smodel.structure.ConceptReference" flags="ng" index="3gn64h">
        <reference id="1154546997487" name="concept" index="3gnhBz" />
      </concept>
      <concept id="1139621453865" name="jetbrains.mps.lang.smodel.structure.Node_IsInstanceOfOperation" flags="nn" index="1mIQ4w">
        <child id="1177027386292" name="conceptArgument" index="cj9EA" />
      </concept>
      <concept id="1171999116870" name="jetbrains.mps.lang.smodel.structure.Node_IsNullOperation" flags="nn" index="3w_OXm" />
      <concept id="1172008320231" name="jetbrains.mps.lang.smodel.structure.Node_IsNotNullOperation" flags="nn" index="3x8VRR" />
      <concept id="5944356402132808749" name="jetbrains.mps.lang.smodel.structure.ConceptSwitchStatement" flags="nn" index="1_3QMa">
        <child id="5944356402132808753" name="case" index="1_3QMm" />
        <child id="5944356402132808752" name="expression" index="1_3QMn" />
      </concept>
      <concept id="5944356402132808754" name="jetbrains.mps.lang.smodel.structure.ConceptSwitchStatementCase" flags="ng" index="1_3QMl">
        <child id="1163670677455" name="concept" index="3Kbmr1" />
        <child id="1163670683720" name="body" index="3Kbo56" />
      </concept>
      <concept id="1140137987495" name="jetbrains.mps.lang.smodel.structure.SNodeTypeCastExpression" flags="nn" index="1PxgMI">
        <property id="1238684351431" name="asCast" index="1BlNFB" />
        <reference id="1140138128738" name="concept" index="1PxNhF" />
        <child id="1140138123956" name="leftExpression" index="1PxMeX" />
      </concept>
      <concept id="1138055754698" name="jetbrains.mps.lang.smodel.structure.SNodeType" flags="in" index="3Tqbb2">
        <reference id="1138405853777" name="concept" index="ehGHo" />
      </concept>
      <concept id="1138056022639" name="jetbrains.mps.lang.smodel.structure.SPropertyAccess" flags="nn" index="3TrcHB">
        <reference id="1138056395725" name="property" index="3TsBF5" />
      </concept>
      <concept id="1138056143562" name="jetbrains.mps.lang.smodel.structure.SLinkAccess" flags="nn" index="3TrEf2">
        <reference id="1138056516764" name="link" index="3Tt5mk" />
      </concept>
      <concept id="1138056282393" name="jetbrains.mps.lang.smodel.structure.SLinkListAccess" flags="nn" index="3Tsc0h">
        <reference id="1138056546658" name="link" index="3TtcxE" />
      </concept>
    </language>
    <language id="ceab5195-25ea-4f22-9b92-103b95ca8c0c" name="jetbrains.mps.lang.core">
      <concept id="1133920641626" name="jetbrains.mps.lang.core.structure.BaseConcept" flags="ng" index="2VYdi">
        <property id="1193676396447" name="virtualPackage" index="3GE5qa" />
      </concept>
      <concept id="1169194658468" name="jetbrains.mps.lang.core.structure.INamedConcept" flags="ng" index="TrEIO">
        <property id="1169194664001" name="name" index="TrG5h" />
      </concept>
    </language>
    <language id="83888646-71ce-4f1c-9c53-c54016f6ad4f" name="jetbrains.mps.baseLanguage.collections">
      <concept id="1204796164442" name="jetbrains.mps.baseLanguage.collections.structure.InternalSequenceOperation" flags="nn" index="23sCx2">
        <child id="1204796294226" name="closure" index="23t8la" />
      </concept>
      <concept id="1204980550705" name="jetbrains.mps.baseLanguage.collections.structure.VisitAllOperation" flags="nn" index="2es0OD" />
      <concept id="1237467461002" name="jetbrains.mps.baseLanguage.collections.structure.GetIteratorOperation" flags="nn" index="uNJiE" />
      <concept id="1237467705688" name="jetbrains.mps.baseLanguage.collections.structure.IteratorType" flags="in" index="uOF1S">
        <child id="1237467730343" name="elementType" index="uOL27" />
      </concept>
      <concept id="1237470895604" name="jetbrains.mps.baseLanguage.collections.structure.HasNextOperation" flags="nn" index="v0PNk" />
      <concept id="1237471031357" name="jetbrains.mps.baseLanguage.collections.structure.GetNextOperation" flags="nn" index="v1n4t" />
      <concept id="1153943597977" name="jetbrains.mps.baseLanguage.collections.structure.ForEachStatement" flags="nn" index="2Gpval">
        <child id="1153944400369" name="variable" index="2Gsz3X" />
        <child id="1153944424730" name="inputSequence" index="2GsD0m" />
      </concept>
      <concept id="1153944193378" name="jetbrains.mps.baseLanguage.collections.structure.ForEachVariable" flags="nr" index="2GrKxI" />
      <concept id="1153944233411" name="jetbrains.mps.baseLanguage.collections.structure.ForEachVariableReference" flags="nn" index="2GrUjf">
        <reference id="1153944258490" name="variable" index="2Gs0qQ" />
      </concept>
      <concept id="1201306600024" name="jetbrains.mps.baseLanguage.collections.structure.ContainsKeyOperation" flags="nn" index="2Nt0df">
        <child id="1201654602639" name="key" index="38cxEo" />
      </concept>
      <concept id="1203518072036" name="jetbrains.mps.baseLanguage.collections.structure.SmartClosureParameterDeclaration" flags="ig" index="Rh6nW" />
      <concept id="1197683403723" name="jetbrains.mps.baseLanguage.collections.structure.MapType" flags="in" index="3rvAFt">
        <child id="1197683466920" name="keyType" index="3rvQeY" />
        <child id="1197683475734" name="valueType" index="3rvSg0" />
      </concept>
      <concept id="1225727723840" name="jetbrains.mps.baseLanguage.collections.structure.FindFirstOperation" flags="nn" index="1z4cxt" />
      <concept id="1197932370469" name="jetbrains.mps.baseLanguage.collections.structure.MapElement" flags="nn" index="3EllGN">
        <child id="1197932505799" name="map" index="3ElQJh" />
        <child id="1197932525128" name="key" index="3ElVtu" />
      </concept>
      <concept id="1176501494711" name="jetbrains.mps.baseLanguage.collections.structure.IsNotEmptyOperation" flags="nn" index="3GX2aA" />
    </language>
  </registry>
  <node concept="WtQ9Q" id="1plOGK0f21i">
    <ref role="WuzLi" to="c9eo:5l83jlMhgCt" resolve="Statement" />
    <node concept="11bSqf" id="1plOGK0f21j" role="11c4hB">
      <node concept="3clFbS" id="1plOGK0f21k" role="2VODD2">
        <node concept="lc7rE" id="1plOGK0f22q" role="3cqZAp">
          <node concept="l8MVK" id="1plOGK0f22C" role="lcghm" />
        </node>
      </node>
    </node>
  </node>
  <node concept="WtQ9Q" id="1plOGK0g7Wu">
    <property role="3GE5qa" value="variables" />
    <ref role="WuzLi" to="c9eo:5l83jlMhBWg" resolve="VariableDeclaration" />
    <node concept="11bSqf" id="1plOGK0g7Wv" role="11c4hB">
      <node concept="3clFbS" id="1plOGK0g7Ww" role="2VODD2">
        <node concept="3SKdUt" id="2OjMSZ8fJQk" role="3cqZAp">
          <node concept="3SKdUq" id="2OjMSZ8fJZU" role="3SKWNk">
            <property role="3SKdUp" value="TODO: refactor type translation to reusable fragment" />
          </node>
        </node>
        <node concept="1_3QMa" id="1plOGK0j$gN" role="3cqZAp">
          <node concept="2OqwBi" id="1plOGK0j$ks" role="1_3QMn">
            <node concept="3TrEf2" id="1plOGK0j$E$" role="2OqNvi">
              <ref role="3Tt5mk" to="pfd6:6fgLCPsByeL" />
            </node>
            <node concept="117lpO" id="2u9bZKEECo2" role="2Oq$k0" />
          </node>
          <node concept="1_3QMl" id="1plOGK0j$IZ" role="1_3QMm">
            <node concept="3gn64h" id="1plOGK0j$Jc" role="3Kbmr1">
              <ref role="3gnhBz" to="2gyk:5gQ2EqXQH6q" resolve="BoundaryType" />
            </node>
            <node concept="3clFbS" id="1plOGK0j$J1" role="3Kbo56">
              <node concept="1bpajm" id="dkQEiEWO1I" role="3cqZAp" />
              <node concept="lc7rE" id="7GORU49rF4x" role="3cqZAp">
                <node concept="la8eA" id="7GORU49rF4N" role="lcghm">
                  <property role="lacIc" value="integer, dimension(6)" />
                </node>
                <node concept="la8eA" id="7GORU49rF5Q" role="lcghm">
                  <property role="lacIc" value=" :: " />
                </node>
                <node concept="l9hG8" id="7GORU49rFvw" role="lcghm">
                  <node concept="2OqwBi" id="7GORU49rFzZ" role="lb14g">
                    <node concept="117lpO" id="2u9bZKEECph" role="2Oq$k0" />
                    <node concept="3TrcHB" id="7GORU49rFW$" role="2OqNvi">
                      <ref role="3TsBF5" to="tpck:h0TrG11" resolve="name" />
                    </node>
                  </node>
                </node>
                <node concept="la8eA" id="7GORU49tcBU" role="lcghm">
                  <property role="lacIc" value=" = " />
                </node>
                <node concept="l9hG8" id="7GORU49tcC_" role="lcghm">
                  <node concept="2OqwBi" id="7GORU49ub2f" role="lb14g">
                    <node concept="1PxgMI" id="7GORU49uaNC" role="2Oq$k0">
                      <ref role="1PxNhF" to="pfd6:6fgLCPsD6lb" resolve="StringLiteral" />
                      <node concept="2OqwBi" id="7GORU49tcH9" role="1PxMeX">
                        <node concept="117lpO" id="2u9bZKEED4X" role="2Oq$k0" />
                        <node concept="3TrEf2" id="7GORU49td64" role="2OqNvi">
                          <ref role="3Tt5mk" to="c9eo:5l83jlMhFC2" />
                        </node>
                      </node>
                    </node>
                    <node concept="3TrcHB" id="7GORU49ublB" role="2OqNvi">
                      <ref role="3TsBF5" to="pfd6:6fgLCPsD6ll" resolve="value" />
                    </node>
                  </node>
                </node>
                <node concept="l8MVK" id="1plOGK0jWEK" role="lcghm" />
              </node>
              <node concept="3cpWs6" id="2u9bZKEEE0c" role="3cqZAp" />
            </node>
          </node>
          <node concept="1_3QMl" id="1plOGK0j$Jm" role="1_3QMm">
            <node concept="3gn64h" id="1plOGK0j$JA" role="3Kbmr1">
              <ref role="3gnhBz" to="2gyk:5gQ2EqXQH6r" resolve="DisplacementType" />
            </node>
            <node concept="3clFbS" id="1plOGK0j$Jo" role="3Kbo56">
              <node concept="1bpajm" id="dkQEiEWQib" role="3cqZAp" />
              <node concept="lc7rE" id="1plOGK0j_09" role="3cqZAp">
                <node concept="la8eA" id="1plOGK0j_0n" role="lcghm">
                  <property role="lacIc" value="real(ppm_kind_double), dimension(:,:), pointer" />
                </node>
                <node concept="la8eA" id="1plOGK0j_2j" role="lcghm">
                  <property role="lacIc" value=" :: " />
                </node>
                <node concept="l9hG8" id="1plOGK0j_33" role="lcghm">
                  <node concept="2OqwBi" id="1plOGK0j_7x" role="lb14g">
                    <node concept="117lpO" id="2u9bZKEEDhC" role="2Oq$k0" />
                    <node concept="3TrcHB" id="1plOGK0j_tq" role="2OqNvi">
                      <ref role="3TsBF5" to="tpck:h0TrG11" resolve="name" />
                    </node>
                  </node>
                </node>
                <node concept="l8MVK" id="1plOGK0jWFt" role="lcghm" />
              </node>
              <node concept="3cpWs6" id="2u9bZKEEE4U" role="3cqZAp" />
            </node>
          </node>
          <node concept="1_3QMl" id="4byABwAEMfm" role="1_3QMm">
            <node concept="3gn64h" id="4byABwAEMh_" role="3Kbmr1">
              <ref role="3gnhBz" to="pfd6:6fgLCPsBxeW" resolve="IntegerType" />
            </node>
            <node concept="3clFbS" id="4byABwAEMfo" role="3Kbo56">
              <node concept="1bpajm" id="4byABwAGBPc" role="3cqZAp" />
              <node concept="lc7rE" id="4byABwAEMAt" role="3cqZAp">
                <node concept="la8eA" id="4byABwAEMAF" role="lcghm">
                  <property role="lacIc" value="integer" />
                </node>
                <node concept="la8eA" id="4byABwAEMCE" role="lcghm">
                  <property role="lacIc" value=" :: " />
                </node>
                <node concept="l9hG8" id="4byABwAEMDj" role="lcghm">
                  <node concept="2OqwBi" id="4byABwAEMHw" role="lb14g">
                    <node concept="117lpO" id="2u9bZKEEDn$" role="2Oq$k0" />
                    <node concept="3TrcHB" id="4byABwAEN3$" role="2OqNvi">
                      <ref role="3TsBF5" to="tpck:h0TrG11" resolve="name" />
                    </node>
                  </node>
                </node>
                <node concept="l8MVK" id="4byABwAGON9" role="lcghm" />
              </node>
              <node concept="3cpWs6" id="2u9bZKEEE6X" role="3cqZAp" />
            </node>
          </node>
          <node concept="1_3QMl" id="2u9bZKEEW8S" role="1_3QMm">
            <node concept="3gn64h" id="2u9bZKEEWds" role="3Kbmr1">
              <ref role="3gnhBz" to="pfd6:6fgLCPsBxqM" resolve="RealType" />
            </node>
            <node concept="3clFbS" id="2u9bZKEEW8U" role="3Kbo56">
              <node concept="1bpajm" id="2u9bZKEEWdA" role="3cqZAp" />
              <node concept="3SKdUt" id="2OjMSZ8fJMP" role="3cqZAp">
                <node concept="3SKdUq" id="2OjMSZ8fJOc" role="3SKWNk">
                  <property role="3SKdUp" value="TODO: allow for different precision" />
                </node>
              </node>
              <node concept="lc7rE" id="2u9bZKEEWdS" role="3cqZAp">
                <node concept="la8eA" id="2u9bZKEEWe9" role="lcghm">
                  <property role="lacIc" value="real(ppm_kind_double)" />
                </node>
                <node concept="la8eA" id="2u9bZKEEWeT" role="lcghm">
                  <property role="lacIc" value=" :: " />
                </node>
                <node concept="l9hG8" id="2u9bZKEEWfv" role="lcghm">
                  <node concept="2OqwBi" id="2u9bZKEEWjJ" role="lb14g">
                    <node concept="117lpO" id="2u9bZKEEWgh" role="2Oq$k0" />
                    <node concept="3TrcHB" id="2u9bZKEF6xj" role="2OqNvi">
                      <ref role="3TsBF5" to="tpck:h0TrG11" resolve="name" />
                    </node>
                  </node>
                </node>
              </node>
              <node concept="3clFbJ" id="2u9bZKEF6Iz" role="3cqZAp">
                <node concept="3clFbS" id="2u9bZKEF6I_" role="3clFbx">
                  <node concept="lc7rE" id="2u9bZKEF7xA" role="3cqZAp">
                    <node concept="la8eA" id="2u9bZKEF7xQ" role="lcghm">
                      <property role="lacIc" value=" = " />
                    </node>
                    <node concept="l9hG8" id="2u9bZKEF7yi" role="lcghm">
                      <node concept="2OqwBi" id="2u9bZKEF7Ax" role="lb14g">
                        <node concept="117lpO" id="2u9bZKEF7z3" role="2Oq$k0" />
                        <node concept="3TrEf2" id="2u9bZKEF7RF" role="2OqNvi">
                          <ref role="3Tt5mk" to="c9eo:5l83jlMhFC2" />
                        </node>
                      </node>
                    </node>
                  </node>
                </node>
                <node concept="2OqwBi" id="2u9bZKEF7nn" role="3clFbw">
                  <node concept="2OqwBi" id="2u9bZKEF6NU" role="2Oq$k0">
                    <node concept="117lpO" id="2u9bZKEF6Ke" role="2Oq$k0" />
                    <node concept="3TrEf2" id="2u9bZKEF74x" role="2OqNvi">
                      <ref role="3Tt5mk" to="c9eo:5l83jlMhFC2" />
                    </node>
                  </node>
                  <node concept="3x8VRR" id="2u9bZKEF7vX" role="2OqNvi" />
                </node>
              </node>
              <node concept="lc7rE" id="2u9bZKEF8E_" role="3cqZAp">
                <node concept="l8MVK" id="2u9bZKEF8HU" role="lcghm" />
              </node>
              <node concept="3cpWs6" id="2u9bZKEF9hI" role="3cqZAp" />
            </node>
          </node>
          <node concept="1_3QMl" id="2OjMSZ8efwS" role="1_3QMm">
            <node concept="3gn64h" id="2OjMSZ8ehg2" role="3Kbmr1">
              <ref role="3gnhBz" to="pfd6:3SvAy0XHWnV" resolve="VectorType" />
            </node>
            <node concept="3clFbS" id="2OjMSZ8efwU" role="3Kbo56">
              <node concept="1bpajm" id="2OjMSZ8empw" role="3cqZAp" />
              <node concept="3SKdUt" id="2OjMSZ8fK8N" role="3cqZAp">
                <node concept="3SKdUq" id="2OjMSZ8fKby" role="3SKWNk">
                  <property role="3SKdUp" value="TODO: refactor type translation/textGen" />
                </node>
              </node>
              <node concept="3cpWs8" id="5nlyqYpIgjD" role="3cqZAp">
                <node concept="3cpWsn" id="5nlyqYpIgjG" role="3cpWs9">
                  <property role="TrG5h" value="vt" />
                  <node concept="3Tqbb2" id="5nlyqYpIgjB" role="1tU5fm">
                    <ref role="ehGHo" to="pfd6:3SvAy0XHWnV" resolve="VectorType" />
                  </node>
                  <node concept="1PxgMI" id="5nlyqYpIhh5" role="33vP2m">
                    <ref role="1PxNhF" to="pfd6:3SvAy0XHWnV" resolve="VectorType" />
                    <node concept="2OqwBi" id="5nlyqYpIgs$" role="1PxMeX">
                      <node concept="117lpO" id="5nlyqYpIgoR" role="2Oq$k0" />
                      <node concept="3TrEf2" id="5nlyqYpIgXt" role="2OqNvi">
                        <ref role="3Tt5mk" to="pfd6:6fgLCPsByeL" />
                      </node>
                    </node>
                  </node>
                </node>
              </node>
              <node concept="1_3QMa" id="2OjMSZ8fKmg" role="3cqZAp">
                <node concept="1_3QMl" id="2OjMSZ8fLqY" role="1_3QMm">
                  <node concept="3gn64h" id="2OjMSZ8fLtw" role="3Kbmr1">
                    <ref role="3gnhBz" to="pfd6:6fgLCPsBxqM" resolve="RealType" />
                  </node>
                  <node concept="3clFbS" id="2OjMSZ8fLr0" role="3Kbo56">
                    <node concept="lc7rE" id="2OjMSZ8fLtE" role="3cqZAp">
                      <node concept="la8eA" id="2OjMSZ8fLtS" role="lcghm">
                        <property role="lacIc" value="real(ppm_kind_double)" />
                      </node>
                    </node>
                  </node>
                </node>
                <node concept="1_3QMl" id="2OjMSZ8fLup" role="1_3QMm">
                  <node concept="3gn64h" id="2OjMSZ8fLx0" role="3Kbmr1">
                    <ref role="3gnhBz" to="pfd6:6fgLCPsBxeW" resolve="IntegerType" />
                  </node>
                  <node concept="3clFbS" id="2OjMSZ8fLur" role="3Kbo56">
                    <node concept="lc7rE" id="2OjMSZ8fLxa" role="3cqZAp">
                      <node concept="la8eA" id="2OjMSZ8fLxo" role="lcghm">
                        <property role="lacIc" value="integer" />
                      </node>
                    </node>
                  </node>
                </node>
                <node concept="2OqwBi" id="2OjMSZ8fL5L" role="1_3QMn">
                  <node concept="37vLTw" id="5nlyqYpIhC1" role="2Oq$k0">
                    <ref role="3cqZAo" node="5nlyqYpIgjG" resolve="vt" />
                  </node>
                  <node concept="3TrEf2" id="2OjMSZ8fLo5" role="2OqNvi">
                    <ref role="3Tt5mk" to="pfd6:3SvAy0XHWz0" />
                  </node>
                </node>
              </node>
              <node concept="3clFbJ" id="5nlyqYpIhQM" role="3cqZAp">
                <node concept="3clFbS" id="5nlyqYpIhQO" role="3clFbx">
                  <node concept="lc7rE" id="5nlyqYpIjPh" role="3cqZAp">
                    <node concept="la8eA" id="5nlyqYpIjPx" role="lcghm">
                      <property role="lacIc" value=", " />
                    </node>
                    <node concept="la8eA" id="5nlyqYpIjQ1" role="lcghm">
                      <property role="lacIc" value="dimension(" />
                    </node>
                    <node concept="l9hG8" id="5nlyqYpIjQL" role="lcghm">
                      <node concept="3cpWs3" id="5nlyqYpIkEK" role="lb14g">
                        <node concept="Xl_RD" id="5nlyqYpIkEQ" role="3uHU7w">
                          <property role="Xl_RC" value="" />
                        </node>
                        <node concept="2OqwBi" id="5nlyqYpIkom" role="3uHU7B">
                          <node concept="2OqwBi" id="5nlyqYpIjUr" role="2Oq$k0">
                            <node concept="37vLTw" id="5nlyqYpIjRz" role="2Oq$k0">
                              <ref role="3cqZAo" node="5nlyqYpIgjG" resolve="vt" />
                            </node>
                            <node concept="3TrEf2" id="5nlyqYpIk96" role="2OqNvi">
                              <ref role="3Tt5mk" to="pfd6:5nlyqYp8A3k" />
                            </node>
                          </node>
                          <node concept="2qgKlT" id="5nlyqYpIkC4" role="2OqNvi">
                            <ref role="37wK5l" to="bkkh:7NL3iVCCIMl" resolve="getCompileTimeConstant" />
                          </node>
                        </node>
                      </node>
                    </node>
                    <node concept="la8eA" id="5nlyqYpIkIc" role="lcghm">
                      <property role="lacIc" value=")" />
                    </node>
                  </node>
                </node>
                <node concept="1Wc70l" id="5nlyqYpIj0H" role="3clFbw">
                  <node concept="2OqwBi" id="5nlyqYpIjzv" role="3uHU7w">
                    <node concept="2OqwBi" id="5nlyqYpIj5Q" role="2Oq$k0">
                      <node concept="37vLTw" id="5nlyqYpIj2w" role="2Oq$k0">
                        <ref role="3cqZAo" node="5nlyqYpIgjG" resolve="vt" />
                      </node>
                      <node concept="3TrEf2" id="5nlyqYpIjk5" role="2OqNvi">
                        <ref role="3Tt5mk" to="pfd6:5nlyqYp8A3k" />
                      </node>
                    </node>
                    <node concept="2qgKlT" id="5nlyqYpIjNc" role="2OqNvi">
                      <ref role="37wK5l" to="bkkh:6IDtJdlj7J2" resolve="isCompileTimeConstant" />
                    </node>
                  </node>
                  <node concept="2OqwBi" id="5nlyqYpIiF4" role="3uHU7B">
                    <node concept="2OqwBi" id="5nlyqYpIhYQ" role="2Oq$k0">
                      <node concept="37vLTw" id="5nlyqYpIhVF" role="2Oq$k0">
                        <ref role="3cqZAo" node="5nlyqYpIgjG" resolve="vt" />
                      </node>
                      <node concept="3TrEf2" id="5nlyqYpIirR" role="2OqNvi">
                        <ref role="3Tt5mk" to="pfd6:5nlyqYp8A3k" />
                      </node>
                    </node>
                    <node concept="3x8VRR" id="5nlyqYpIiM_" role="2OqNvi" />
                  </node>
                </node>
                <node concept="9aQIb" id="5nlyqYpIkKD" role="9aQIa">
                  <node concept="3clFbS" id="5nlyqYpIkKE" role="9aQI4">
                    <node concept="lc7rE" id="2OjMSZ8empM" role="3cqZAp">
                      <node concept="la8eA" id="2OjMSZ8ep$J" role="lcghm">
                        <property role="lacIc" value=", " />
                      </node>
                      <node concept="la8eA" id="2OjMSZ8ep_b" role="lcghm">
                        <property role="lacIc" value="dimension(:), allocatable" />
                      </node>
                    </node>
                  </node>
                </node>
              </node>
              <node concept="lc7rE" id="5nlyqYpIl5V" role="3cqZAp">
                <node concept="la8eA" id="5nlyqYpIlcL" role="lcghm">
                  <property role="lacIc" value=" :: " />
                </node>
                <node concept="l9hG8" id="2OjMSZ8epA2" role="lcghm">
                  <node concept="2OqwBi" id="2OjMSZ8epA3" role="lb14g">
                    <node concept="117lpO" id="2OjMSZ8epA4" role="2Oq$k0" />
                    <node concept="3TrcHB" id="2OjMSZ8epA5" role="2OqNvi">
                      <ref role="3TsBF5" to="tpck:h0TrG11" resolve="name" />
                    </node>
                  </node>
                </node>
              </node>
              <node concept="3SKdUt" id="2OjMSZ8epEH" role="3cqZAp">
                <node concept="3SKdUq" id="2OjMSZ8epG5" role="3SKWNk">
                  <property role="3SKdUp" value="TODO: #12 - insert correct vector dimension" />
                </node>
              </node>
              <node concept="3clFbJ" id="2OjMSZ8epfk" role="3cqZAp">
                <node concept="3clFbS" id="2OjMSZ8epfl" role="3clFbx">
                  <node concept="lc7rE" id="2OjMSZ8epfm" role="3cqZAp">
                    <node concept="la8eA" id="2OjMSZ8epfn" role="lcghm">
                      <property role="lacIc" value=" = " />
                    </node>
                    <node concept="l9hG8" id="2OjMSZ8epfo" role="lcghm">
                      <node concept="2OqwBi" id="2OjMSZ8epfp" role="lb14g">
                        <node concept="117lpO" id="2OjMSZ8epfq" role="2Oq$k0" />
                        <node concept="3TrEf2" id="2OjMSZ8epfr" role="2OqNvi">
                          <ref role="3Tt5mk" to="c9eo:5l83jlMhFC2" />
                        </node>
                      </node>
                    </node>
                  </node>
                </node>
                <node concept="2OqwBi" id="2OjMSZ8epfs" role="3clFbw">
                  <node concept="2OqwBi" id="2OjMSZ8epft" role="2Oq$k0">
                    <node concept="117lpO" id="2OjMSZ8epfu" role="2Oq$k0" />
                    <node concept="3TrEf2" id="2OjMSZ8epfv" role="2OqNvi">
                      <ref role="3Tt5mk" to="c9eo:5l83jlMhFC2" />
                    </node>
                  </node>
                  <node concept="3x8VRR" id="2OjMSZ8epfw" role="2OqNvi" />
                </node>
              </node>
              <node concept="lc7rE" id="2OjMSZ8epfx" role="3cqZAp">
                <node concept="l8MVK" id="2OjMSZ8epfy" role="lcghm" />
              </node>
              <node concept="3cpWs6" id="2OjMSZ8epfz" role="3cqZAp" />
            </node>
          </node>
          <node concept="1_3QMl" id="gLk$EQL5m8" role="1_3QMm">
            <node concept="3gn64h" id="gLk$EQL5yq" role="3Kbmr1">
              <ref role="3gnhBz" to="pfd6:3SvAy0XHRc7" resolve="MatrixType" />
            </node>
            <node concept="3clFbS" id="gLk$EQL5ma" role="3Kbo56">
              <node concept="9aQIb" id="gLk$EQL5yf" role="3cqZAp">
                <node concept="3clFbS" id="gLk$EQL5yg" role="9aQI4">
                  <node concept="1bpajm" id="gLk$EQL5y$" role="3cqZAp" />
                  <node concept="3cpWs8" id="gLk$EQL5yW" role="3cqZAp">
                    <node concept="3cpWsn" id="gLk$EQL5yZ" role="3cpWs9">
                      <property role="TrG5h" value="mt" />
                      <node concept="3Tqbb2" id="gLk$EQL5yU" role="1tU5fm">
                        <ref role="ehGHo" to="pfd6:3SvAy0XHRc7" resolve="MatrixType" />
                      </node>
                      <node concept="1PxgMI" id="gLk$EQLqH_" role="33vP2m">
                        <ref role="1PxNhF" to="pfd6:3SvAy0XHRc7" resolve="MatrixType" />
                        <node concept="2OqwBi" id="gLk$EQL6Md" role="1PxMeX">
                          <node concept="117lpO" id="gLk$EQL5zG" role="2Oq$k0" />
                          <node concept="3TrEf2" id="gLk$EQLqq4" role="2OqNvi">
                            <ref role="3Tt5mk" to="pfd6:6fgLCPsByeL" />
                          </node>
                        </node>
                      </node>
                    </node>
                  </node>
                  <node concept="1_3QMa" id="gLk$EQO45h" role="3cqZAp">
                    <node concept="1_3QMl" id="gLk$EQO45i" role="1_3QMm">
                      <node concept="3gn64h" id="gLk$EQO45j" role="3Kbmr1">
                        <ref role="3gnhBz" to="pfd6:6fgLCPsBxqM" resolve="RealType" />
                      </node>
                      <node concept="3clFbS" id="gLk$EQO45k" role="3Kbo56">
                        <node concept="lc7rE" id="gLk$EQO45l" role="3cqZAp">
                          <node concept="la8eA" id="gLk$EQO45m" role="lcghm">
                            <property role="lacIc" value="real(ppm_kind_double)" />
                          </node>
                        </node>
                      </node>
                    </node>
                    <node concept="1_3QMl" id="gLk$EQO45n" role="1_3QMm">
                      <node concept="3gn64h" id="gLk$EQO45o" role="3Kbmr1">
                        <ref role="3gnhBz" to="pfd6:6fgLCPsBxeW" resolve="IntegerType" />
                      </node>
                      <node concept="3clFbS" id="gLk$EQO45p" role="3Kbo56">
                        <node concept="lc7rE" id="gLk$EQO45q" role="3cqZAp">
                          <node concept="la8eA" id="gLk$EQO45r" role="lcghm">
                            <property role="lacIc" value="integer" />
                          </node>
                        </node>
                      </node>
                    </node>
                    <node concept="2OqwBi" id="gLk$EQO45s" role="1_3QMn">
                      <node concept="37vLTw" id="gLk$EQO4Pt" role="2Oq$k0">
                        <ref role="3cqZAo" node="gLk$EQL5yZ" resolve="mt" />
                      </node>
                      <node concept="3TrEf2" id="gLk$EQO45u" role="2OqNvi">
                        <ref role="3Tt5mk" to="pfd6:3SvAy0XHWz0" />
                      </node>
                    </node>
                  </node>
                  <node concept="lc7rE" id="gLk$EQO4TG" role="3cqZAp">
                    <node concept="la8eA" id="gLk$EQO4X4" role="lcghm">
                      <property role="lacIc" value=", " />
                    </node>
                    <node concept="la8eA" id="gLk$EQO4X_" role="lcghm">
                      <property role="lacIc" value="dimension(:,:), pointer" />
                    </node>
                  </node>
                  <node concept="lc7rE" id="gLk$EQO5fY" role="3cqZAp">
                    <node concept="la8eA" id="gLk$EQO5hv" role="lcghm">
                      <property role="lacIc" value=" :: " />
                    </node>
                    <node concept="l9hG8" id="gLk$EQO5hX" role="lcghm">
                      <node concept="2OqwBi" id="gLk$EQO5mq" role="lb14g">
                        <node concept="117lpO" id="gLk$EQO5iE" role="2Oq$k0" />
                        <node concept="3TrcHB" id="gLk$EQO5B$" role="2OqNvi">
                          <ref role="3TsBF5" to="tpck:h0TrG11" resolve="name" />
                        </node>
                      </node>
                    </node>
                  </node>
                  <node concept="3clFbJ" id="gLk$EQO5Fe" role="3cqZAp">
                    <node concept="3clFbS" id="gLk$EQO5Ff" role="3clFbx">
                      <node concept="lc7rE" id="gLk$EQO5Fg" role="3cqZAp">
                        <node concept="la8eA" id="gLk$EQO5Fh" role="lcghm">
                          <property role="lacIc" value=" = " />
                        </node>
                        <node concept="l9hG8" id="gLk$EQO5Fi" role="lcghm">
                          <node concept="2OqwBi" id="gLk$EQO5Fj" role="lb14g">
                            <node concept="117lpO" id="gLk$EQO5Fk" role="2Oq$k0" />
                            <node concept="3TrEf2" id="gLk$EQO5Fl" role="2OqNvi">
                              <ref role="3Tt5mk" to="c9eo:5l83jlMhFC2" />
                            </node>
                          </node>
                        </node>
                      </node>
                    </node>
                    <node concept="2OqwBi" id="gLk$EQO5Fm" role="3clFbw">
                      <node concept="2OqwBi" id="gLk$EQO5Fn" role="2Oq$k0">
                        <node concept="117lpO" id="gLk$EQO5Fo" role="2Oq$k0" />
                        <node concept="3TrEf2" id="gLk$EQO5Fp" role="2OqNvi">
                          <ref role="3Tt5mk" to="c9eo:5l83jlMhFC2" />
                        </node>
                      </node>
                      <node concept="3x8VRR" id="gLk$EQO5Fq" role="2OqNvi" />
                    </node>
                  </node>
                  <node concept="lc7rE" id="gLk$EQO5Fr" role="3cqZAp">
                    <node concept="l8MVK" id="gLk$EQO5Fs" role="lcghm" />
                  </node>
                  <node concept="3cpWs6" id="gLk$EQO5Ft" role="3cqZAp" />
                  <node concept="3clFbH" id="gLk$EQO43z" role="3cqZAp" />
                </node>
              </node>
            </node>
          </node>
        </node>
      </node>
    </node>
  </node>
  <node concept="WtQ9Q" id="1plOGK0gsIx">
    <property role="3GE5qa" value="variables" />
    <ref role="WuzLi" to="c9eo:5o9jvTMcVMM" resolve="VariableDeclarationStatement" />
    <node concept="11bSqf" id="1plOGK0gsIy" role="11c4hB">
      <node concept="3clFbS" id="1plOGK0gsIz" role="2VODD2" />
    </node>
  </node>
  <node concept="WtQ9Q" id="699Tyk2uDnY">
    <property role="3GE5qa" value="variables" />
    <ref role="WuzLi" to="c9eo:5l83jlMivi_" resolve="VariableReference" />
    <node concept="11bSqf" id="699Tyk2uDnZ" role="11c4hB">
      <node concept="3clFbS" id="699Tyk2uDo0" role="2VODD2">
        <node concept="lc7rE" id="699Tyk2uDou" role="3cqZAp">
          <node concept="l9hG8" id="699Tyk2uDoG" role="lcghm">
            <node concept="2OqwBi" id="699Tyk2uDTH" role="lb14g">
              <node concept="2OqwBi" id="699Tyk2uDs9" role="2Oq$k0">
                <node concept="117lpO" id="699Tyk2uDps" role="2Oq$k0" />
                <node concept="3TrEf2" id="699Tyk2uDDu" role="2OqNvi">
                  <ref role="3Tt5mk" to="c9eo:5l83jlMivj4" />
                </node>
              </node>
              <node concept="3TrcHB" id="699Tyk2uKwU" role="2OqNvi">
                <ref role="3TsBF5" to="tpck:h0TrG11" resolve="name" />
              </node>
            </node>
          </node>
        </node>
        <node concept="3clFbJ" id="1RtLc$XJFD5" role="3cqZAp">
          <node concept="3clFbS" id="1RtLc$XJFD7" role="3clFbx">
            <node concept="lc7rE" id="1RtLc$XJKnj" role="3cqZAp">
              <node concept="la8eA" id="1RtLc$XJKnz" role="lcghm">
                <property role="lacIc" value="(:)" />
              </node>
            </node>
          </node>
          <node concept="1Wc70l" id="1RtLc$XJGRC" role="3clFbw">
            <node concept="2OqwBi" id="1RtLc$XJK5R" role="3uHU7w">
              <node concept="2OqwBi" id="1RtLc$XJI7L" role="2Oq$k0">
                <node concept="2OqwBi" id="1RtLc$XJGY6" role="2Oq$k0">
                  <node concept="117lpO" id="1RtLc$XJGUo" role="2Oq$k0" />
                  <node concept="z$bX8" id="1RtLc$XJHqC" role="2OqNvi" />
                </node>
                <node concept="1z4cxt" id="1RtLc$XJJrm" role="2OqNvi">
                  <node concept="1bVj0M" id="1RtLc$XJJro" role="23t8la">
                    <node concept="3clFbS" id="1RtLc$XJJrp" role="1bW5cS">
                      <node concept="3clFbF" id="1RtLc$XJJvL" role="3cqZAp">
                        <node concept="2OqwBi" id="1RtLc$XJJzo" role="3clFbG">
                          <node concept="37vLTw" id="1RtLc$XJJvK" role="2Oq$k0">
                            <ref role="3cqZAo" node="1RtLc$XJJrq" resolve="it" />
                          </node>
                          <node concept="1mIQ4w" id="1RtLc$XJJWj" role="2OqNvi">
                            <node concept="chp4Y" id="1RtLc$XJK0s" role="cj9EA">
                              <ref role="cht4Q" to="pfd6:3SvAy0XKTvE" resolve="VectorElementAccess" />
                            </node>
                          </node>
                        </node>
                      </node>
                    </node>
                    <node concept="Rh6nW" id="1RtLc$XJJrq" role="1bW2Oz">
                      <property role="TrG5h" value="it" />
                      <node concept="2jxLKc" id="1RtLc$XJJrr" role="1tU5fm" />
                    </node>
                  </node>
                </node>
              </node>
              <node concept="3w_OXm" id="1RtLc$XJKi$" role="2OqNvi" />
            </node>
            <node concept="1Wc70l" id="1RtLc$XJW1F" role="3uHU7B">
              <node concept="3fqX7Q" id="1RtLc$XJXay" role="3uHU7w">
                <node concept="2OqwBi" id="1RtLc$XKBQx" role="3fr31v">
                  <node concept="2OqwBi" id="1RtLc$XKBkJ" role="2Oq$k0">
                    <node concept="117lpO" id="1RtLc$XKBeH" role="2Oq$k0" />
                    <node concept="3JvlWi" id="1RtLc$XKB_O" role="2OqNvi" />
                  </node>
                  <node concept="1mIQ4w" id="1RtLc$XKC0Z" role="2OqNvi">
                    <node concept="chp4Y" id="1RtLc$XKC5R" role="cj9EA">
                      <ref role="cht4Q" to="2gyk:6Wx7SFgabxi" resolve="ParticleListType" />
                    </node>
                  </node>
                </node>
              </node>
              <node concept="2OqwBi" id="1RtLc$XJGBH" role="3uHU7B">
                <node concept="2OqwBi" id="1RtLc$XJGli" role="2Oq$k0">
                  <node concept="117lpO" id="1RtLc$XJFF6" role="2Oq$k0" />
                  <node concept="3JvlWi" id="1RtLc$XJGuh" role="2OqNvi" />
                </node>
                <node concept="1mIQ4w" id="1RtLc$XJGI8" role="2OqNvi">
                  <node concept="chp4Y" id="1RtLc$XJGI_" role="cj9EA">
                    <ref role="cht4Q" to="pfd6:3SvAy0XHWnV" resolve="VectorType" />
                  </node>
                </node>
              </node>
            </node>
          </node>
        </node>
      </node>
    </node>
  </node>
  <node concept="WtQ9Q" id="7zirNRbeXEA">
    <property role="3GE5qa" value="loops" />
    <ref role="WuzLi" to="c9eo:6JTxo0b0Q4k" resolve="ForEachStatement" />
    <node concept="11bSqf" id="7zirNRbeXEB" role="11c4hB">
      <node concept="3clFbS" id="7zirNRbeXEC" role="2VODD2">
        <node concept="3SKdUt" id="4F3nn$opI4B" role="3cqZAp">
          <node concept="3SKdUq" id="4F3nn$opIfH" role="3SKWNk">
            <property role="3SKdUp" value="TODO: what about foreach statements unrelated to particle lists/normal for statements" />
          </node>
        </node>
        <node concept="1bpajm" id="7zirNRbf0Aj" role="3cqZAp" />
        <node concept="lc7rE" id="7zirNRbeXEU" role="3cqZAp">
          <node concept="la8eA" id="7zirNRbeXF8" role="lcghm">
            <property role="lacIc" value="foreach " />
          </node>
          <node concept="l9hG8" id="7zirNRbeXFE" role="lcghm">
            <node concept="2OqwBi" id="7zirNRbeYni" role="lb14g">
              <node concept="2OqwBi" id="7zirNRbeXJD" role="2Oq$k0">
                <node concept="117lpO" id="7zirNRbeXGr" role="2Oq$k0" />
                <node concept="3TrEf2" id="7zirNRbeY2H" role="2OqNvi">
                  <ref role="3Tt5mk" to="c9eo:6JTxo0b1E1j" />
                </node>
              </node>
              <node concept="3TrcHB" id="7zirNRbeYFe" role="2OqNvi">
                <ref role="3TsBF5" to="tpck:h0TrG11" resolve="name" />
              </node>
            </node>
          </node>
          <node concept="la8eA" id="7zirNRbeYJC" role="lcghm">
            <property role="lacIc" value=" in " />
          </node>
        </node>
        <node concept="3clFbJ" id="7zirNRbf2$W" role="3cqZAp">
          <node concept="3clFbS" id="7zirNRbf2$Y" role="3clFbx">
            <node concept="3cpWs8" id="7zirNRbfcWP" role="3cqZAp">
              <node concept="3cpWsn" id="7zirNRbfcWS" role="3cpWs9">
                <property role="TrG5h" value="iterable" />
                <node concept="3Tqbb2" id="7zirNRbfcWN" role="1tU5fm">
                  <ref role="ehGHo" to="tpee:4H$HgYMZ7sw" resolve="IVariableDeclaration" />
                </node>
                <node concept="2OqwBi" id="7zirNRbfefX" role="33vP2m">
                  <node concept="1PxgMI" id="7zirNRbfe9P" role="2Oq$k0">
                    <ref role="1PxNhF" to="c9eo:5l83jlMivi_" resolve="VariableReference" />
                    <node concept="2OqwBi" id="7zirNRbfd3O" role="1PxMeX">
                      <node concept="117lpO" id="7zirNRbfd0d" role="2Oq$k0" />
                      <node concept="3TrEf2" id="7zirNRbfdzN" role="2OqNvi">
                        <ref role="3Tt5mk" to="c9eo:6JTxo0b0RKI" />
                      </node>
                    </node>
                  </node>
                  <node concept="3TrEf2" id="7zirNRbfevO" role="2OqNvi">
                    <ref role="3Tt5mk" to="c9eo:5l83jlMivj4" />
                  </node>
                </node>
              </node>
            </node>
            <node concept="1_3QMa" id="7zirNRbf0MD" role="3cqZAp">
              <node concept="2OqwBi" id="7zirNRbf1ri" role="1_3QMn">
                <node concept="2OqwBi" id="7zirNRbf0RU" role="2Oq$k0">
                  <node concept="117lpO" id="7zirNRbf0P1" role="2Oq$k0" />
                  <node concept="3TrEf2" id="7zirNRbf186" role="2OqNvi">
                    <ref role="3Tt5mk" to="c9eo:6JTxo0b1E1j" />
                  </node>
                </node>
                <node concept="3TrEf2" id="7zirNRbf1HN" role="2OqNvi">
                  <ref role="3Tt5mk" to="pfd6:6fgLCPsByeL" />
                </node>
              </node>
              <node concept="1_3QMl" id="7zirNRbf2rA" role="1_3QMm">
                <node concept="3gn64h" id="7zirNRbf2tw" role="3Kbmr1">
                  <ref role="3gnhBz" to="2gyk:5gQ2EqXQH6v" resolve="ParticleType" />
                </node>
                <node concept="3clFbS" id="7zirNRbf2rC" role="3Kbo56">
                  <node concept="lc7rE" id="7zirNRbf2tE" role="3cqZAp">
                    <node concept="la8eA" id="7zirNRbf7jU" role="lcghm">
                      <property role="lacIc" value="particles" />
                    </node>
                    <node concept="la8eA" id="7zirNRbf7k_" role="lcghm">
                      <property role="lacIc" value="(" />
                    </node>
                    <node concept="l9hG8" id="7zirNRbf7l8" role="lcghm">
                      <node concept="2OqwBi" id="7zirNRbfeH4" role="lb14g">
                        <node concept="37vLTw" id="7zirNRbfeDH" role="2Oq$k0">
                          <ref role="3cqZAo" node="7zirNRbfcWS" resolve="iterable" />
                        </node>
                        <node concept="3TrcHB" id="7zirNRbfeXX" role="2OqNvi">
                          <ref role="3TsBF5" to="tpck:h0TrG11" resolve="name" />
                        </node>
                      </node>
                    </node>
                    <node concept="la8eA" id="7zirNRbf8kV" role="lcghm">
                      <property role="lacIc" value=")" />
                    </node>
                  </node>
                </node>
              </node>
            </node>
            <node concept="3clFbH" id="7zirNRbpR0e" role="3cqZAp" />
          </node>
          <node concept="1Wc70l" id="7zirNRbf3OR" role="3clFbw">
            <node concept="2OqwBi" id="7zirNRbf6dI" role="3uHU7w">
              <node concept="2OqwBi" id="7zirNRbf5$Y" role="2Oq$k0">
                <node concept="1PxgMI" id="2NTMEjl0LJH" role="2Oq$k0">
                  <property role="1BlNFB" value="true" />
                  <ref role="1PxNhF" to="c9eo:5l83jlMhBWg" resolve="VariableDeclaration" />
                  <node concept="2OqwBi" id="7zirNRbf50u" role="1PxMeX">
                    <node concept="1PxgMI" id="7zirNRbf4RJ" role="2Oq$k0">
                      <ref role="1PxNhF" to="c9eo:5l83jlMivi_" resolve="VariableReference" />
                      <node concept="2OqwBi" id="7zirNRbf3Wd" role="1PxMeX">
                        <node concept="117lpO" id="7zirNRbf3RB" role="2Oq$k0" />
                        <node concept="3TrEf2" id="7zirNRbf4dp" role="2OqNvi">
                          <ref role="3Tt5mk" to="c9eo:6JTxo0b0RKI" />
                        </node>
                      </node>
                    </node>
                    <node concept="3TrEf2" id="7zirNRbf5hF" role="2OqNvi">
                      <ref role="3Tt5mk" to="c9eo:5l83jlMivj4" />
                    </node>
                  </node>
                </node>
                <node concept="2qgKlT" id="6Wx7SFghtBG" role="2OqNvi">
                  <ref role="37wK5l" to="bkkh:2NTMEjkUeG0" resolve="getType" />
                </node>
              </node>
              <node concept="2qgKlT" id="7zirNRbf6YX" role="2OqNvi">
                <ref role="37wK5l" to="bkkh:1plOGK0gFH4" resolve="isParticleListType" />
              </node>
            </node>
            <node concept="2OqwBi" id="7zirNRbf3e0" role="3uHU7B">
              <node concept="2OqwBi" id="7zirNRbf2Fl" role="2Oq$k0">
                <node concept="117lpO" id="7zirNRbf2BJ" role="2Oq$k0" />
                <node concept="3TrEf2" id="7zirNRbf2V_" role="2OqNvi">
                  <ref role="3Tt5mk" to="c9eo:6JTxo0b0RKI" />
                </node>
              </node>
              <node concept="1mIQ4w" id="7zirNRbf3Bh" role="2OqNvi">
                <node concept="chp4Y" id="7zirNRbf3FH" role="cj9EA">
                  <ref role="cht4Q" to="c9eo:5l83jlMivi_" resolve="VariableReference" />
                </node>
              </node>
            </node>
          </node>
        </node>
        <node concept="lc7rE" id="7zirNRbf8vi" role="3cqZAp">
          <node concept="l8MVK" id="7zirNRbf8B7" role="lcghm" />
        </node>
        <node concept="3clFbH" id="7zirNRbf8Gk" role="3cqZAp" />
        <node concept="3izx1p" id="7zirNRbffib" role="3cqZAp">
          <node concept="3clFbS" id="7zirNRbffid" role="3izTki">
            <node concept="lc7rE" id="7zirNRbffY0" role="3cqZAp">
              <node concept="l9hG8" id="7zirNRbffYo" role="lcghm">
                <node concept="2OqwBi" id="7zirNRbfg2i" role="lb14g">
                  <node concept="117lpO" id="7zirNRbffZ4" role="2Oq$k0" />
                  <node concept="3TrEf2" id="7zirNRbfgj1" role="2OqNvi">
                    <ref role="3Tt5mk" to="c9eo:6JTxo0b1E4r" />
                  </node>
                </node>
              </node>
            </node>
          </node>
        </node>
        <node concept="3clFbH" id="7zirNRbff9U" role="3cqZAp" />
        <node concept="1bpajm" id="7zirNRbf8OW" role="3cqZAp" />
        <node concept="lc7rE" id="7zirNRbf94z" role="3cqZAp">
          <node concept="la8eA" id="7zirNRbf9cs" role="lcghm">
            <property role="lacIc" value="end foreach" />
          </node>
          <node concept="l8MVK" id="7zirNRbf9jx" role="lcghm" />
        </node>
      </node>
    </node>
  </node>
  <node concept="WtQ9Q" id="7zirNRbfkaH">
    <ref role="WuzLi" to="c9eo:5l83jlMhgFI" resolve="StatementList" />
    <node concept="11bSqf" id="7zirNRbfkaI" role="11c4hB">
      <node concept="3clFbS" id="7zirNRbfkaJ" role="2VODD2">
        <node concept="lc7rE" id="7zirNRbiLny" role="3cqZAp">
          <node concept="l9S2W" id="7zirNRbiLpf" role="lcghm">
            <node concept="2OqwBi" id="7zirNRbiLrp" role="lbANJ">
              <node concept="117lpO" id="7zirNRbiLpv" role="2Oq$k0" />
              <node concept="3Tsc0h" id="7zirNRbiLKW" role="2OqNvi">
                <ref role="3TtcxE" to="c9eo:5l83jlMhgFJ" />
              </node>
            </node>
          </node>
        </node>
      </node>
    </node>
  </node>
  <node concept="WtQ9Q" id="7zirNRbgHKj">
    <ref role="WuzLi" to="c9eo:3yJ4dri0HDh" resolve="IfStatement" />
    <node concept="11bSqf" id="7zirNRbgHKk" role="11c4hB">
      <node concept="3clFbS" id="7zirNRbgHKl" role="2VODD2">
        <node concept="3clFbJ" id="uPhVC8C_fP" role="3cqZAp">
          <node concept="3clFbS" id="uPhVC8C_fQ" role="3clFbx">
            <node concept="2Gpval" id="uPhVC8C_fR" role="3cqZAp">
              <node concept="2GrKxI" id="uPhVC8C_fS" role="2Gsz3X">
                <property role="TrG5h" value="rne" />
              </node>
              <node concept="3clFbS" id="uPhVC8C_fT" role="2LFqv$">
                <node concept="1bpajm" id="uPhVC8C_fU" role="3cqZAp" />
                <node concept="lc7rE" id="uPhVC8C_fV" role="3cqZAp">
                  <node concept="la8eA" id="uPhVC8C_fW" role="lcghm">
                    <property role="lacIc" value="call " />
                  </node>
                  <node concept="la8eA" id="uPhVC8C_fX" role="lcghm">
                    <property role="lacIc" value="random_number" />
                  </node>
                  <node concept="la8eA" id="uPhVC8C_fY" role="lcghm">
                    <property role="lacIc" value="(" />
                  </node>
                </node>
                <node concept="3cpWs8" id="uPhVC8C_fZ" role="3cqZAp">
                  <node concept="3cpWsn" id="uPhVC8C_g0" role="3cpWs9">
                    <property role="TrG5h" value="map" />
                    <node concept="2OqwBi" id="uPhVC8C_g1" role="33vP2m">
                      <node concept="2YIFZM" id="uPhVC8C_g2" role="2Oq$k0">
                        <ref role="1Pybhc" to="z32s:7zirNRbmlOR" resolve="RNEUtil" />
                        <ref role="37wK5l" to="z32s:7zirNRbmw2y" resolve="getInstance" />
                        <node concept="2OqwBi" id="uPhVC8C_g3" role="37wK5m">
                          <node concept="117lpO" id="uPhVC8C_g4" role="2Oq$k0" />
                          <node concept="2Rxl7S" id="uPhVC8C_g5" role="2OqNvi" />
                        </node>
                      </node>
                      <node concept="liA8E" id="uPhVC8C_g6" role="2OqNvi">
                        <ref role="37wK5l" to="z32s:7zirNRbmxmf" resolve="getMap" />
                      </node>
                    </node>
                    <node concept="3rvAFt" id="uPhVC8C_g7" role="1tU5fm">
                      <node concept="3Tqbb2" id="uPhVC8C_g8" role="3rvSg0">
                        <ref role="ehGHo" to="c9eo:5l83jlMivi_" resolve="VariableReference" />
                      </node>
                      <node concept="3Tqbb2" id="uPhVC8C_g9" role="3rvQeY">
                        <ref role="ehGHo" to="2gyk:5gQ2EqXOKaO" resolve="RandomNumberExpression" />
                      </node>
                    </node>
                  </node>
                </node>
                <node concept="3clFbJ" id="uPhVC8C_ga" role="3cqZAp">
                  <node concept="3clFbS" id="uPhVC8C_gb" role="3clFbx">
                    <node concept="lc7rE" id="uPhVC8C_gc" role="3cqZAp">
                      <node concept="l9hG8" id="uPhVC8C_gd" role="lcghm">
                        <node concept="2OqwBi" id="uPhVC8C_ge" role="lb14g">
                          <node concept="2OqwBi" id="uPhVC8C_gf" role="2Oq$k0">
                            <node concept="3EllGN" id="uPhVC8C_gg" role="2Oq$k0">
                              <node concept="2GrUjf" id="uPhVC8C_gh" role="3ElVtu">
                                <ref role="2Gs0qQ" node="uPhVC8C_fS" resolve="rne" />
                              </node>
                              <node concept="37vLTw" id="uPhVC8C_gi" role="3ElQJh">
                                <ref role="3cqZAo" node="uPhVC8C_g0" resolve="map" />
                              </node>
                            </node>
                            <node concept="3TrEf2" id="uPhVC8C_gj" role="2OqNvi">
                              <ref role="3Tt5mk" to="c9eo:5l83jlMivj4" />
                            </node>
                          </node>
                          <node concept="3TrcHB" id="uPhVC8C_gk" role="2OqNvi">
                            <ref role="3TsBF5" to="tpck:h0TrG11" resolve="name" />
                          </node>
                        </node>
                      </node>
                    </node>
                  </node>
                  <node concept="2OqwBi" id="uPhVC8C_gl" role="3clFbw">
                    <node concept="37vLTw" id="uPhVC8C_gm" role="2Oq$k0">
                      <ref role="3cqZAo" node="uPhVC8C_g0" resolve="map" />
                    </node>
                    <node concept="2Nt0df" id="uPhVC8C_gn" role="2OqNvi">
                      <node concept="2GrUjf" id="uPhVC8C_go" role="38cxEo">
                        <ref role="2Gs0qQ" node="uPhVC8C_fS" resolve="rne" />
                      </node>
                    </node>
                  </node>
                  <node concept="9aQIb" id="uPhVC8C_gp" role="9aQIa">
                    <node concept="3clFbS" id="uPhVC8C_gq" role="9aQI4">
                      <node concept="34ab3g" id="uPhVC8C_gr" role="3cqZAp">
                        <property role="35gtTG" value="error" />
                        <node concept="Xl_RD" id="uPhVC8C_gs" role="34bqiv">
                          <property role="Xl_RC" value="Ooops, something went wrong preprocessing RNEs in IfStatement" />
                        </node>
                      </node>
                    </node>
                  </node>
                </node>
                <node concept="lc7rE" id="uPhVC8C_gu" role="3cqZAp">
                  <node concept="la8eA" id="uPhVC8C_gv" role="lcghm">
                    <property role="lacIc" value=")" />
                  </node>
                  <node concept="l8MVK" id="uPhVC8C_gw" role="lcghm" />
                </node>
              </node>
              <node concept="2OqwBi" id="uPhVC8C_gx" role="2GsD0m">
                <node concept="117lpO" id="uPhVC8C_gy" role="2Oq$k0" />
                <node concept="2qgKlT" id="uPhVC8C_gz" role="2OqNvi">
                  <ref role="37wK5l" to="z32s:7zirNRblHvW" resolve="getDistinctRNEs" />
                </node>
              </node>
            </node>
          </node>
          <node concept="2OqwBi" id="uPhVC8C_g$" role="3clFbw">
            <node concept="2OqwBi" id="uPhVC8C_th" role="2Oq$k0">
              <node concept="117lpO" id="uPhVC8C_rg" role="2Oq$k0" />
              <node concept="2qgKlT" id="uPhVC8C_MX" role="2OqNvi">
                <ref role="37wK5l" to="z32s:7zirNRblHvW" resolve="getDistinctRNEs" />
              </node>
            </node>
            <node concept="3GX2aA" id="uPhVC8C_gC" role="2OqNvi" />
          </node>
        </node>
        <node concept="3clFbH" id="uPhVC8C_bk" role="3cqZAp" />
        <node concept="1bpajm" id="7zirNRbgHKB" role="3cqZAp" />
        <node concept="lc7rE" id="7zirNRbgHKT" role="3cqZAp">
          <node concept="la8eA" id="7zirNRbgHL6" role="lcghm">
            <property role="lacIc" value="if " />
          </node>
        </node>
        <node concept="3clFbH" id="7zirNRbgHLv" role="3cqZAp" />
        <node concept="3SKdUt" id="7zirNRbgHLO" role="3cqZAp">
          <node concept="3SKdUq" id="7zirNRbgHLY" role="3SKWNk">
            <property role="3SKdUp" value="condition" />
          </node>
        </node>
        <node concept="lc7rE" id="7zirNRbgHWC" role="3cqZAp">
          <node concept="la8eA" id="4hLBjJR16XD" role="lcghm">
            <property role="lacIc" value="(" />
          </node>
          <node concept="l9hG8" id="7zirNRbgHX5" role="lcghm">
            <node concept="2OqwBi" id="7zirNRbgI01" role="lb14g">
              <node concept="117lpO" id="7zirNRbgHXP" role="2Oq$k0" />
              <node concept="3TrEf2" id="7zirNRbgIbB" role="2OqNvi">
                <ref role="3Tt5mk" to="c9eo:3yJ4dri0HIg" />
              </node>
            </node>
          </node>
          <node concept="la8eA" id="4hLBjJR179j" role="lcghm">
            <property role="lacIc" value=")" />
          </node>
        </node>
        <node concept="lc7rE" id="7zirNRbgIel" role="3cqZAp">
          <node concept="la8eA" id="7zirNRbgIfM" role="lcghm">
            <property role="lacIc" value=" then" />
          </node>
          <node concept="l8MVK" id="7zirNRbgIhA" role="lcghm" />
        </node>
        <node concept="3clFbH" id="7zirNRbgIg1" role="3cqZAp" />
        <node concept="3SKdUt" id="7zirNRbgHMQ" role="3cqZAp">
          <node concept="3SKdUq" id="7zirNRbgHN7" role="3SKWNk">
            <property role="3SKdUp" value="true branch" />
          </node>
        </node>
        <node concept="3izx1p" id="7zirNRbgImL" role="3cqZAp">
          <node concept="3clFbS" id="7zirNRbgImN" role="3izTki">
            <node concept="lc7rE" id="7zirNRbgIoe" role="3cqZAp">
              <node concept="l9hG8" id="7zirNRbgIos" role="lcghm">
                <node concept="2OqwBi" id="7zirNRbgIro" role="lb14g">
                  <node concept="117lpO" id="7zirNRbgIpc" role="2Oq$k0" />
                  <node concept="3TrEf2" id="7zirNRbgIAY" role="2OqNvi">
                    <ref role="3Tt5mk" to="c9eo:3yJ4dri0Ss3" />
                  </node>
                </node>
              </node>
            </node>
          </node>
        </node>
        <node concept="3clFbH" id="7zirNRbgIJp" role="3cqZAp" />
        <node concept="3SKdUt" id="7zirNRbgIMP" role="3cqZAp">
          <node concept="3SKdUq" id="7zirNRbgIOS" role="3SKWNk">
            <property role="3SKdUp" value="elif branches" />
          </node>
        </node>
        <node concept="3clFbF" id="4hYFNODPYHV" role="3cqZAp">
          <node concept="2OqwBi" id="4hYFNODPZKn" role="3clFbG">
            <node concept="2OqwBi" id="4hYFNODPYOV" role="2Oq$k0">
              <node concept="117lpO" id="4hYFNODPYHT" role="2Oq$k0" />
              <node concept="3Tsc0h" id="4hYFNODPZ8B" role="2OqNvi">
                <ref role="3TtcxE" to="c9eo:3yJ4dri1fJ0" />
              </node>
            </node>
            <node concept="2es0OD" id="4hYFNODQ289" role="2OqNvi">
              <node concept="1bVj0M" id="4hYFNODQ28b" role="23t8la">
                <node concept="3clFbS" id="4hYFNODQ28c" role="1bW5cS">
                  <node concept="1bpajm" id="4hYFNODQ2eB" role="3cqZAp" />
                  <node concept="lc7rE" id="4hYFNODQ2hM" role="3cqZAp">
                    <node concept="la8eA" id="4hYFNODQ2jM" role="lcghm">
                      <property role="lacIc" value="else if" />
                    </node>
                    <node concept="l9hG8" id="4hYFNODQ2Yw" role="lcghm">
                      <node concept="2OqwBi" id="4hYFNODQ34C" role="lb14g">
                        <node concept="37vLTw" id="4hYFNODQ31u" role="2Oq$k0">
                          <ref role="3cqZAo" node="4hYFNODQ28d" resolve="it" />
                        </node>
                        <node concept="3TrEf2" id="4hYFNODQ3oE" role="2OqNvi">
                          <ref role="3Tt5mk" to="c9eo:3yJ4dri1cHH" />
                        </node>
                      </node>
                    </node>
                    <node concept="l8MVK" id="4hYFNODQ2pY" role="lcghm" />
                  </node>
                  <node concept="3izx1p" id="4hYFNODQ2tW" role="3cqZAp">
                    <node concept="3clFbS" id="4hYFNODQ2tY" role="3izTki">
                      <node concept="lc7rE" id="4hYFNODQ2w2" role="3cqZAp">
                        <node concept="l9hG8" id="4hYFNODQ2y4" role="lcghm">
                          <node concept="2OqwBi" id="4hYFNODQ2BS" role="lb14g">
                            <node concept="37vLTw" id="4hYFNODQ2$y" role="2Oq$k0">
                              <ref role="3cqZAo" node="4hYFNODQ28d" resolve="it" />
                            </node>
                            <node concept="3TrEf2" id="4hYFNODQ3_1" role="2OqNvi">
                              <ref role="3Tt5mk" to="c9eo:3yJ4dri1cHJ" />
                            </node>
                          </node>
                        </node>
                      </node>
                    </node>
                  </node>
                </node>
                <node concept="Rh6nW" id="4hYFNODQ28d" role="1bW2Oz">
                  <property role="TrG5h" value="it" />
                  <node concept="2jxLKc" id="4hYFNODQ28e" role="1tU5fm" />
                </node>
              </node>
            </node>
          </node>
        </node>
        <node concept="3clFbH" id="7zirNRbgIDD" role="3cqZAp" />
        <node concept="3SKdUt" id="7zirNRbgIGZ" role="3cqZAp">
          <node concept="3SKdUq" id="7zirNRbgIIo" role="3SKWNk">
            <property role="3SKdUp" value="false branch (else)" />
          </node>
        </node>
        <node concept="3clFbJ" id="3tLYWtJriZX" role="3cqZAp">
          <node concept="3clFbS" id="3tLYWtJriZZ" role="3clFbx">
            <node concept="1bpajm" id="3tLYWtJrwvE" role="3cqZAp" />
            <node concept="lc7rE" id="3tLYWtJrkWa" role="3cqZAp">
              <node concept="la8eA" id="3tLYWtJrkWO" role="lcghm">
                <property role="lacIc" value="else" />
              </node>
              <node concept="l8MVK" id="3tLYWtJrkXf" role="lcghm" />
            </node>
            <node concept="3izx1p" id="3tLYWtJrkXF" role="3cqZAp">
              <node concept="3clFbS" id="3tLYWtJrkXH" role="3izTki">
                <node concept="lc7rE" id="3tLYWtJrkXW" role="3cqZAp">
                  <node concept="l9hG8" id="3tLYWtJrkYa" role="lcghm">
                    <node concept="2OqwBi" id="3tLYWtJrl1c" role="lb14g">
                      <node concept="117lpO" id="3tLYWtJrkYQ" role="2Oq$k0" />
                      <node concept="3TrEf2" id="3tLYWtJrlcI" role="2OqNvi">
                        <ref role="3Tt5mk" to="c9eo:3yJ4dri0Ss0" />
                      </node>
                    </node>
                  </node>
                </node>
              </node>
            </node>
          </node>
          <node concept="2OqwBi" id="3tLYWtJrk9k" role="3clFbw">
            <node concept="2OqwBi" id="3tLYWtJrjeX" role="2Oq$k0">
              <node concept="117lpO" id="3tLYWtJrj96" role="2Oq$k0" />
              <node concept="3TrEf2" id="3tLYWtJrjvY" role="2OqNvi">
                <ref role="3Tt5mk" to="c9eo:3yJ4dri0Ss0" />
              </node>
            </node>
            <node concept="3x8VRR" id="3tLYWtJrkDj" role="2OqNvi" />
          </node>
        </node>
        <node concept="3clFbH" id="7zirNRbgHNl" role="3cqZAp" />
        <node concept="1bpajm" id="7zirNRbgHNQ" role="3cqZAp" />
        <node concept="lc7rE" id="7zirNRbgHOp" role="3cqZAp">
          <node concept="la8eA" id="7zirNRbgHOK" role="lcghm">
            <property role="lacIc" value="end if" />
          </node>
          <node concept="l8MVK" id="7zirNRbimX0" role="lcghm" />
        </node>
      </node>
    </node>
  </node>
  <node concept="WtQ9Q" id="7zirNRbitxZ">
    <ref role="WuzLi" to="c9eo:5l83jlMhh0E" resolve="ExpressionStatement" />
    <node concept="11bSqf" id="7zirNRbity0" role="11c4hB">
      <node concept="3clFbS" id="7zirNRbity1" role="2VODD2">
        <node concept="3SKdUt" id="dkQEiEQLnh" role="3cqZAp">
          <node concept="3SKdUq" id="dkQEiEQLpD" role="3SKWNk">
            <property role="3SKdUp" value="TODO properly handle rnd" />
          </node>
        </node>
        <node concept="3clFbJ" id="6en_lsosSCD" role="3cqZAp">
          <node concept="3clFbS" id="6en_lsosSCF" role="3clFbx">
            <node concept="2Gpval" id="6en_lsosXUo" role="3cqZAp">
              <node concept="2GrKxI" id="6en_lsosXUq" role="2Gsz3X">
                <property role="TrG5h" value="rne" />
              </node>
              <node concept="3clFbS" id="6en_lsosXUs" role="2LFqv$">
                <node concept="1bpajm" id="6en_lsosYv$" role="3cqZAp" />
                <node concept="lc7rE" id="6en_lsosYvU" role="3cqZAp">
                  <node concept="la8eA" id="6en_lsosYwb" role="lcghm">
                    <property role="lacIc" value="call " />
                  </node>
                  <node concept="la8eA" id="6en_lsosYwA" role="lcghm">
                    <property role="lacIc" value="random_number" />
                  </node>
                  <node concept="la8eA" id="6en_lsosYx9" role="lcghm">
                    <property role="lacIc" value="(" />
                  </node>
                </node>
                <node concept="3cpWs8" id="6en_lsosY$s" role="3cqZAp">
                  <node concept="3cpWsn" id="6en_lsosY$v" role="3cpWs9">
                    <property role="TrG5h" value="map" />
                    <node concept="2OqwBi" id="6en_lsosZ6B" role="33vP2m">
                      <node concept="2YIFZM" id="6en_lsosYFO" role="2Oq$k0">
                        <ref role="37wK5l" to="z32s:7zirNRbmw2y" resolve="getInstance" />
                        <ref role="1Pybhc" to="z32s:7zirNRbmlOR" resolve="RNEUtil" />
                        <node concept="2OqwBi" id="6en_lsosYJ0" role="37wK5m">
                          <node concept="117lpO" id="6en_lsosYG$" role="2Oq$k0" />
                          <node concept="2Rxl7S" id="6en_lsosZ5b" role="2OqNvi" />
                        </node>
                      </node>
                      <node concept="liA8E" id="6en_lsosZeV" role="2OqNvi">
                        <ref role="37wK5l" to="z32s:7zirNRbmxmf" resolve="getMap" />
                      </node>
                    </node>
                    <node concept="3rvAFt" id="6en_lsosZLI" role="1tU5fm">
                      <node concept="3Tqbb2" id="6en_lsosZLO" role="3rvSg0">
                        <ref role="ehGHo" to="c9eo:5l83jlMivi_" resolve="VariableReference" />
                      </node>
                      <node concept="3Tqbb2" id="6en_lsosZLN" role="3rvQeY">
                        <ref role="ehGHo" to="2gyk:5gQ2EqXOKaO" resolve="RandomNumberExpression" />
                      </node>
                    </node>
                  </node>
                </node>
                <node concept="3clFbJ" id="6en_lsosYzz" role="3cqZAp">
                  <node concept="3clFbS" id="6en_lsosYz_" role="3clFbx">
                    <node concept="lc7rE" id="6en_lsot1oS" role="3cqZAp">
                      <node concept="l9hG8" id="6en_lsot1p8" role="lcghm">
                        <node concept="2OqwBi" id="6en_lsot2sC" role="lb14g">
                          <node concept="2OqwBi" id="6en_lsot1NQ" role="2Oq$k0">
                            <node concept="3EllGN" id="6en_lsot1Jq" role="2Oq$k0">
                              <node concept="2GrUjf" id="6en_lsot1KC" role="3ElVtu">
                                <ref role="2Gs0qQ" node="6en_lsosXUq" resolve="rne" />
                              </node>
                              <node concept="37vLTw" id="6en_lsot1pO" role="3ElQJh">
                                <ref role="3cqZAo" node="6en_lsosY$v" resolve="map" />
                              </node>
                            </node>
                            <node concept="3TrEf2" id="6en_lsot27e" role="2OqNvi">
                              <ref role="3Tt5mk" to="c9eo:5l83jlMivj4" />
                            </node>
                          </node>
                          <node concept="3TrcHB" id="6en_lsot2Le" role="2OqNvi">
                            <ref role="3TsBF5" to="tpck:h0TrG11" resolve="name" />
                          </node>
                        </node>
                      </node>
                    </node>
                  </node>
                  <node concept="2OqwBi" id="6en_lsot052" role="3clFbw">
                    <node concept="37vLTw" id="6en_lsosZNH" role="2Oq$k0">
                      <ref role="3cqZAo" node="6en_lsosY$v" resolve="map" />
                    </node>
                    <node concept="2Nt0df" id="6en_lsot1nx" role="2OqNvi">
                      <node concept="2GrUjf" id="6en_lsot1o9" role="38cxEo">
                        <ref role="2Gs0qQ" node="6en_lsosXUq" resolve="rne" />
                      </node>
                    </node>
                  </node>
                  <node concept="9aQIb" id="6en_lsot320" role="9aQIa">
                    <node concept="3clFbS" id="6en_lsot321" role="9aQI4">
                      <node concept="34ab3g" id="6en_lsot3gj" role="3cqZAp">
                        <property role="35gtTG" value="error" />
                        <node concept="Xl_RD" id="6en_lsot3gl" role="34bqiv">
                          <property role="Xl_RC" value="Ooops, something went wrong preprocessing RNEs" />
                        </node>
                      </node>
                    </node>
                  </node>
                </node>
                <node concept="3clFbH" id="6en_lsosYyu" role="3cqZAp" />
                <node concept="lc7rE" id="6en_lsosYyN" role="3cqZAp">
                  <node concept="la8eA" id="6en_lsosYz5" role="lcghm">
                    <property role="lacIc" value=")" />
                  </node>
                  <node concept="l8MVK" id="6en_lsot9kK" role="lcghm" />
                </node>
              </node>
              <node concept="2OqwBi" id="6en_lsosXXX" role="2GsD0m">
                <node concept="117lpO" id="6en_lsosXUV" role="2Oq$k0" />
                <node concept="2qgKlT" id="6en_lsosYba" role="2OqNvi">
                  <ref role="37wK5l" to="z32s:7zirNRblHvW" resolve="getDistinctRNEs" />
                </node>
              </node>
            </node>
          </node>
          <node concept="2OqwBi" id="6en_lsosTH_" role="3clFbw">
            <node concept="2OqwBi" id="6en_lsosSGN" role="2Oq$k0">
              <node concept="117lpO" id="6en_lsosSDX" role="2Oq$k0" />
              <node concept="2qgKlT" id="6en_lsosSU0" role="2OqNvi">
                <ref role="37wK5l" to="z32s:7zirNRblHvW" resolve="getDistinctRNEs" />
              </node>
            </node>
            <node concept="3GX2aA" id="6en_lsosXRW" role="2OqNvi" />
          </node>
        </node>
        <node concept="3clFbH" id="6en_lsosYpP" role="3cqZAp" />
        <node concept="1bpajm" id="7zirNRbitNR" role="3cqZAp" />
        <node concept="lc7rE" id="7zirNRbityj" role="3cqZAp">
          <node concept="l9hG8" id="7zirNRbityx" role="lcghm">
            <node concept="2OqwBi" id="7zirNRbit_S" role="lb14g">
              <node concept="117lpO" id="7zirNRbitzh" role="2Oq$k0" />
              <node concept="3TrEf2" id="7zirNRbitLu" role="2OqNvi">
                <ref role="3Tt5mk" to="c9eo:5l83jlMhh0F" />
              </node>
            </node>
          </node>
          <node concept="l8MVK" id="7zirNRbixKZ" role="lcghm" />
        </node>
      </node>
    </node>
  </node>
  <node concept="WtQ9Q" id="uPhVC8DrcK">
    <ref role="WuzLi" to="c9eo:3yJ4dri0bx9" resolve="PrintStatement" />
    <node concept="11bSqf" id="uPhVC8DrcL" role="11c4hB">
      <node concept="3clFbS" id="uPhVC8DrcM" role="2VODD2">
        <node concept="1bpajm" id="uPhVC8Drd4" role="3cqZAp" />
        <node concept="lc7rE" id="uPhVC8Drry" role="3cqZAp">
          <node concept="la8eA" id="uPhVC8DrrN" role="lcghm">
            <property role="lacIc" value="print(" />
          </node>
        </node>
        <node concept="3clFbH" id="uPhVC8EUUS" role="3cqZAp" />
        <node concept="3SKdUt" id="uPhVC8EUrC" role="3cqZAp">
          <node concept="3SKdUq" id="uPhVC8EU_9" role="3SKWNk">
            <property role="3SKdUp" value="1. create list of elements to print" />
          </node>
        </node>
        <node concept="3cpWs8" id="uPhVC8Dru9" role="3cqZAp">
          <node concept="3cpWsn" id="uPhVC8Druc" role="3cpWs9">
            <property role="TrG5h" value="iter" />
            <node concept="uOF1S" id="uPhVC8Dru5" role="1tU5fm">
              <node concept="3Tqbb2" id="uPhVC8DtFO" role="uOL27">
                <ref role="ehGHo" to="pfd6:5l83jlMf$Lb" resolve="Expression" />
              </node>
            </node>
            <node concept="2OqwBi" id="uPhVC8DstB" role="33vP2m">
              <node concept="2OqwBi" id="uPhVC8DrxJ" role="2Oq$k0">
                <node concept="117lpO" id="uPhVC8Drvj" role="2Oq$k0" />
                <node concept="3Tsc0h" id="uPhVC8DrH5" role="2OqNvi">
                  <ref role="3TtcxE" to="c9eo:3yJ4dri0bKx" />
                </node>
              </node>
              <node concept="uNJiE" id="uPhVC8DtBK" role="2OqNvi" />
            </node>
          </node>
        </node>
        <node concept="lc7rE" id="uPhVC8EVbd" role="3cqZAp">
          <node concept="la8eA" id="uPhVC8EVkT" role="lcghm">
            <property role="lacIc" value="[" />
          </node>
        </node>
        <node concept="2$JKZl" id="uPhVC8DtKm" role="3cqZAp">
          <node concept="3clFbS" id="uPhVC8DtKo" role="2LFqv$">
            <node concept="3cpWs8" id="uPhVC8EOtR" role="3cqZAp">
              <node concept="3cpWsn" id="uPhVC8EOtU" role="3cpWs9">
                <property role="TrG5h" value="e" />
                <node concept="3Tqbb2" id="uPhVC8EOtL" role="1tU5fm">
                  <ref role="ehGHo" to="pfd6:5l83jlMf$Lb" resolve="Expression" />
                </node>
                <node concept="2OqwBi" id="uPhVC8EOwe" role="33vP2m">
                  <node concept="37vLTw" id="uPhVC8EOuN" role="2Oq$k0">
                    <ref role="3cqZAo" node="uPhVC8Druc" resolve="iter" />
                  </node>
                  <node concept="v1n4t" id="uPhVC8EOB5" role="2OqNvi" />
                </node>
              </node>
            </node>
            <node concept="3clFbH" id="2OjMSZ8sd90" role="3cqZAp" />
            <node concept="lc7rE" id="2OjMSZ8se5k" role="3cqZAp">
              <node concept="l9hG8" id="2OjMSZ8se5$" role="lcghm">
                <node concept="37vLTw" id="2OjMSZ8se6k" role="lb14g">
                  <ref role="3cqZAo" node="uPhVC8EOtU" resolve="e" />
                </node>
              </node>
            </node>
            <node concept="3clFbH" id="1RtLc$XMgRq" role="3cqZAp" />
            <node concept="3clFbJ" id="1RtLc$XMgUd" role="3cqZAp">
              <node concept="3clFbS" id="1RtLc$XMgUf" role="3clFbx">
                <node concept="lc7rE" id="1RtLc$XMh5r" role="3cqZAp">
                  <node concept="la8eA" id="1RtLc$XMuOq" role="lcghm">
                    <property role="lacIc" value="=&gt;" />
                  </node>
                  <node concept="l9hG8" id="1RtLc$XMh65" role="lcghm">
                    <node concept="2OqwBi" id="1RtLc$XMhbP" role="lb14g">
                      <node concept="1PxgMI" id="1RtLc$XMh8v" role="2Oq$k0">
                        <ref role="1PxNhF" to="2gyk:m1E9k9eONZ" resolve="ArrowExpression" />
                        <node concept="37vLTw" id="1RtLc$XMh6P" role="1PxMeX">
                          <ref role="3cqZAo" node="uPhVC8EOtU" resolve="e" />
                        </node>
                      </node>
                      <node concept="3TrEf2" id="1RtLc$XMhxK" role="2OqNvi">
                        <ref role="3Tt5mk" to="2gyk:m1E9k9eOTT" />
                      </node>
                    </node>
                  </node>
                </node>
              </node>
              <node concept="1Wc70l" id="1RtLc$XMtUP" role="3clFbw">
                <node concept="2OqwBi" id="1RtLc$XMgX8" role="3uHU7B">
                  <node concept="37vLTw" id="1RtLc$XMgVp" role="2Oq$k0">
                    <ref role="3cqZAo" node="uPhVC8EOtU" resolve="e" />
                  </node>
                  <node concept="1mIQ4w" id="1RtLc$XMh4g" role="2OqNvi">
                    <node concept="chp4Y" id="1RtLc$XMh4A" role="cj9EA">
                      <ref role="cht4Q" to="2gyk:m1E9k9eONZ" resolve="ArrowExpression" />
                    </node>
                  </node>
                </node>
                <node concept="1eOMI4" id="1RtLc$XMu0R" role="3uHU7w">
                  <node concept="22lmx$" id="1RtLc$XMuhh" role="1eOMHV">
                    <node concept="2OqwBi" id="1RtLc$XMt$7" role="3uHU7B">
                      <node concept="2OqwBi" id="1RtLc$XMtiV" role="2Oq$k0">
                        <node concept="37vLTw" id="1RtLc$XMtgA" role="2Oq$k0">
                          <ref role="3cqZAo" node="uPhVC8EOtU" resolve="e" />
                        </node>
                        <node concept="3JvlWi" id="1RtLc$XMtro" role="2OqNvi" />
                      </node>
                      <node concept="1mIQ4w" id="1RtLc$XMtF3" role="2OqNvi">
                        <node concept="chp4Y" id="1RtLc$XMtH1" role="cj9EA">
                          <ref role="cht4Q" to="2gyk:5gQ2EqXQH6s" resolve="FieldType" />
                        </node>
                      </node>
                    </node>
                    <node concept="2OqwBi" id="1RtLc$XMuyG" role="3uHU7w">
                      <node concept="2OqwBi" id="1RtLc$XMuyH" role="2Oq$k0">
                        <node concept="37vLTw" id="1RtLc$XMuyI" role="2Oq$k0">
                          <ref role="3cqZAo" node="uPhVC8EOtU" resolve="e" />
                        </node>
                        <node concept="3JvlWi" id="1RtLc$XMuyJ" role="2OqNvi" />
                      </node>
                      <node concept="1mIQ4w" id="1RtLc$XMuyK" role="2OqNvi">
                        <node concept="chp4Y" id="1RtLc$XMuBW" role="cj9EA">
                          <ref role="cht4Q" to="2gyk:2Xvn13Ha$NO" resolve="PropertyType" />
                        </node>
                      </node>
                    </node>
                  </node>
                </node>
              </node>
            </node>
            <node concept="3clFbH" id="1RtLc$XMgTd" role="3cqZAp" />
            <node concept="lc7rE" id="uPhVC8EOr1" role="3cqZAp">
              <node concept="l9hG8" id="uPhVC8Dud5" role="lcghm">
                <node concept="3K4zz7" id="uPhVC8DuKW" role="lb14g">
                  <node concept="Xl_RD" id="uPhVC8DuMb" role="3K4E3e">
                    <property role="Xl_RC" value=", " />
                  </node>
                  <node concept="Xl_RD" id="uPhVC8DuNx" role="3K4GZi">
                    <property role="Xl_RC" value="" />
                  </node>
                  <node concept="2OqwBi" id="uPhVC8Dugr" role="3K4Cdx">
                    <node concept="37vLTw" id="uPhVC8Due$" role="2Oq$k0">
                      <ref role="3cqZAo" node="uPhVC8Druc" resolve="iter" />
                    </node>
                    <node concept="v0PNk" id="uPhVC8Duue" role="2OqNvi" />
                  </node>
                </node>
              </node>
            </node>
          </node>
          <node concept="2OqwBi" id="uPhVC8DtNw" role="2$JKZa">
            <node concept="37vLTw" id="uPhVC8DtM9" role="2Oq$k0">
              <ref role="3cqZAo" node="uPhVC8Druc" resolve="iter" />
            </node>
            <node concept="v0PNk" id="uPhVC8Du0K" role="2OqNvi" />
          </node>
        </node>
        <node concept="lc7rE" id="uPhVC8EVuO" role="3cqZAp">
          <node concept="la8eA" id="uPhVC8EV_I" role="lcghm">
            <property role="lacIc" value="]" />
          </node>
        </node>
        <node concept="3clFbH" id="uPhVC8EfU6" role="3cqZAp" />
        <node concept="3SKdUt" id="uPhVC8EUKm" role="3cqZAp">
          <node concept="3SKdUq" id="uPhVC8EUTT" role="3SKWNk">
            <property role="3SKdUp" value="2. specify interval" />
          </node>
        </node>
        <node concept="3clFbJ" id="1RtLc$XKTF4" role="3cqZAp">
          <node concept="3clFbS" id="1RtLc$XKTF6" role="3clFbx">
            <node concept="lc7rE" id="uPhVC8Drsz" role="3cqZAp">
              <node concept="la8eA" id="uPhVC8DrtC" role="lcghm">
                <property role="lacIc" value=", " />
              </node>
              <node concept="l9hG8" id="1RtLc$XKT4s" role="lcghm">
                <node concept="2OqwBi" id="1RtLc$XKT7A" role="lb14g">
                  <node concept="117lpO" id="1RtLc$XKT5f" role="2Oq$k0" />
                  <node concept="3TrEf2" id="1RtLc$XKTtL" role="2OqNvi">
                    <ref role="3Tt5mk" to="c9eo:1RtLc$XKLYm" />
                  </node>
                </node>
              </node>
              <node concept="la8eA" id="uPhVC8DrsR" role="lcghm">
                <property role="lacIc" value=")" />
              </node>
              <node concept="l8MVK" id="uPhVC8Drtg" role="lcghm" />
            </node>
          </node>
          <node concept="2OqwBi" id="1RtLc$XKUso" role="3clFbw">
            <node concept="2OqwBi" id="1RtLc$XKTU0" role="2Oq$k0">
              <node concept="117lpO" id="1RtLc$XKTRF" role="2Oq$k0" />
              <node concept="3TrEf2" id="1RtLc$XKUf$" role="2OqNvi">
                <ref role="3Tt5mk" to="c9eo:1RtLc$XKLYm" />
              </node>
            </node>
            <node concept="3x8VRR" id="1RtLc$XKU$$" role="2OqNvi" />
          </node>
          <node concept="9aQIb" id="1RtLc$XKVaN" role="9aQIa">
            <node concept="3clFbS" id="1RtLc$XKVaO" role="9aQI4">
              <node concept="lc7rE" id="1RtLc$XKURm" role="3cqZAp">
                <node concept="la8eA" id="1RtLc$XKURn" role="lcghm">
                  <property role="lacIc" value=", " />
                </node>
                <node concept="la8eA" id="1RtLc$XKVqI" role="lcghm">
                  <property role="lacIc" value="1" />
                </node>
                <node concept="la8eA" id="1RtLc$XKURs" role="lcghm">
                  <property role="lacIc" value=")" />
                </node>
                <node concept="l8MVK" id="1RtLc$XKURt" role="lcghm" />
              </node>
            </node>
          </node>
        </node>
      </node>
    </node>
  </node>
  <node concept="WtQ9Q" id="hRSdiNcKpm">
    <property role="3GE5qa" value="variables" />
    <ref role="WuzLi" to="c9eo:hRSdiNcI$6" resolve="LocalVariableDeclarationStatement" />
    <node concept="11bSqf" id="hRSdiNcKpn" role="11c4hB">
      <node concept="3clFbS" id="hRSdiNcKpo" role="2VODD2">
        <node concept="lc7rE" id="hRSdiNcKxV" role="3cqZAp">
          <node concept="l8MVK" id="hRSdiNcKy9" role="lcghm" />
        </node>
        <node concept="1bpajm" id="hRSdiNcKyM" role="3cqZAp" />
        <node concept="lc7rE" id="hRSdiNcKz9" role="3cqZAp">
          <node concept="l9hG8" id="hRSdiNcKzs" role="lcghm">
            <node concept="2OqwBi" id="hRSdiNcKAo" role="lb14g">
              <node concept="117lpO" id="hRSdiNcK$c" role="2Oq$k0" />
              <node concept="3TrEf2" id="hRSdiNcKLU" role="2OqNvi">
                <ref role="3Tt5mk" to="c9eo:hRSdiNcINU" />
              </node>
            </node>
          </node>
        </node>
      </node>
    </node>
  </node>
</model>

