<?xml version="1.0" encoding="UTF-8"?>
<model ref="r:42e94dc7-92fa-4359-81c0-49f5c79cee1a(grayscott)">
  <persistence version="9" />
  <languages>
    <use id="a206eff4-e667-4146-8006-8cce4ef80954" name="de.ppme.modules" version="-1" />
    <use id="58df54a5-af81-48d5-bb5c-9db2412768a4" name="de.ppme.expressions" version="-1" />
    <use id="7d7a484c-83ab-4a7c-b9f3-8672c02bd0f6" name="de.ppme.statements" version="-1" />
    <use id="63e1a497-af15-4608-bf36-c0aa0aaf901b" name="de.ppme.core" version="-1" />
    <use id="f7af8208-82a7-4aab-9829-b32680223c52" name="de.ppme.ctrl" version="-1" />
    <use id="13ff48ad-ecdb-4625-9d4a-3a16f2228549" name="de.ppme.analysis" version="-1" />
  </languages>
  <imports />
  <registry>
    <language id="7d7a484c-83ab-4a7c-b9f3-8672c02bd0f6" name="de.ppme.statements">
      <concept id="6199572117285223602" name="de.ppme.statements.structure.VariableDeclarationStatement" flags="ng" index="$eJ5c">
        <child id="6199572117285223607" name="variableDeclaration" index="$eJ59" />
      </concept>
      <concept id="6145176214748918949" name="de.ppme.statements.structure.VariableReference" flags="ng" index="B0vAg">
        <reference id="6145176214748918980" name="variableDeclaration" index="B0vBL" />
      </concept>
      <concept id="6145176214748596765" name="de.ppme.statements.structure.Statement" flags="ng" index="B3gsC" />
      <concept id="6145176214748596974" name="de.ppme.statements.structure.StatementList" flags="ng" index="B3gvr">
        <child id="6145176214748596975" name="statement" index="B3gvq" />
      </concept>
      <concept id="6145176214748598314" name="de.ppme.statements.structure.ExpressionStatement" flags="ng" index="B3hOv">
        <child id="6145176214748598315" name="expression" index="B3hOu" />
      </concept>
      <concept id="6145176214748692240" name="de.ppme.statements.structure.VariableDeclaration" flags="ng" index="B3B8_" />
      <concept id="7780396616246534422" name="de.ppme.statements.structure.AbstractLoopStatement" flags="ng" index="1wZMim">
        <child id="7780396616246534427" name="body" index="1wZMir" />
      </concept>
      <concept id="4084501901880777297" name="de.ppme.statements.structure.IfStatement" flags="ng" index="3EFsE7">
        <child id="4084501901880821507" name="ifTrue" index="3EF9vl" />
        <child id="4084501901880777616" name="condition" index="3EFsH6" />
      </concept>
      <concept id="4084501901880637513" name="de.ppme.statements.structure.PrintStatement" flags="ng" index="3EFUyv">
        <child id="4084501901880638497" name="expression" index="3EFUNR" />
      </concept>
      <concept id="4091741846482130188" name="de.ppme.statements.structure.LocalVariableDeclaration" flags="ng" index="3KSXMb" />
    </language>
    <language id="a206eff4-e667-4146-8006-8cce4ef80954" name="de.ppme.modules">
      <concept id="6145176214748008889" name="de.ppme.modules.structure.Phase" flags="ng" index="Bt1Mc">
        <child id="6145176214748202931" name="body" index="BtKE6" />
      </concept>
      <concept id="8340651020914474434" name="de.ppme.modules.structure.Module" flags="ng" index="32DcKF">
        <reference id="7404899961792452988" name="cfg" index="HcygO" />
        <child id="6145176214748042437" name="listOfPhases" index="Bt9BK" />
        <child id="3240844216163288403" name="ctrlPropertySpecifications" index="3ScKZR" />
      </concept>
    </language>
    <language id="58df54a5-af81-48d5-bb5c-9db2412768a4" name="de.ppme.expressions">
      <concept id="4476466017894647997" name="de.ppme.expressions.structure.AbstractContainerType" flags="ng" index="3E5at">
        <child id="4476466017894648000" name="componentType" index="3E5bw" />
      </concept>
      <concept id="4476466017895421930" name="de.ppme.expressions.structure.VectorElementAccess" flags="ng" index="3R0Ra">
        <child id="4476466017895421931" name="vector" index="3R0Rb" />
        <child id="4476466017895421933" name="index" index="3R0Rd" />
      </concept>
      <concept id="8802928458142836436" name="de.ppme.expressions.structure.LessExpression" flags="ng" index="28VqSu" />
      <concept id="396783600242163430" name="de.ppme.expressions.structure.IntegerLiteral" flags="ng" index="cCXpN">
        <property id="396783600242257878" name="value" index="cC$t3" />
      </concept>
      <concept id="9083317248185289090" name="de.ppme.expressions.structure.VectorLiteral" flags="ng" index="mjilF">
        <child id="9083317248185300113" name="values" index="mjhxS" />
      </concept>
      <concept id="6145176214748482670" name="de.ppme.expressions.structure.PlusExpression" flags="ng" index="B2O5r" />
      <concept id="6145176214748483203" name="de.ppme.expressions.structure.MinusExpression" flags="ng" index="B2OeQ" />
      <concept id="6145176214748513808" name="de.ppme.expressions.structure.ParenthesizedExpression" flags="ng" index="B2WG_" />
      <concept id="6145176214748154964" name="de.ppme.expressions.structure.BinaryExpression" flags="ng" index="Bt$5x">
        <child id="6145176214748155369" name="left" index="Bt$3s" />
        <child id="6145176214748155371" name="right" index="Bt$3u" />
      </concept>
      <concept id="6145176214748154974" name="de.ppme.expressions.structure.AssignmentExpression" flags="ng" index="Bt$5F" />
      <concept id="6145176214748176626" name="de.ppme.expressions.structure.UnaryExpression" flags="ng" index="BtER7">
        <child id="6145176214748176627" name="expression" index="BtER6" />
      </concept>
      <concept id="6145176214748259879" name="de.ppme.expressions.structure.DecimalLiteral" flags="ng" index="BtYGi">
        <property id="6145176214748259880" name="value" index="BtYGt" />
      </concept>
      <concept id="3234668756578971106" name="de.ppme.expressions.structure.MulExpression" flags="ng" index="2P4BvU" />
      <concept id="7192466915357234866" name="de.ppme.expressions.structure.RealType" flags="ng" index="ZjH0Z" />
      <concept id="7192466915357238192" name="de.ppme.expressions.structure.ITyped" flags="ng" index="ZjIkX">
        <child id="7192466915357238193" name="type" index="ZjIkW" />
      </concept>
      <concept id="7192466915357648203" name="de.ppme.expressions.structure.StringLiteral" flags="ng" index="Ztaf6">
        <property id="7192466915357648213" name="value" index="Ztafo" />
      </concept>
      <concept id="2547387476991160656" name="de.ppme.expressions.structure.ScientificNumberLiteral" flags="ng" index="34318T">
        <property id="2547387476991173723" name="prefix" index="3434sM" />
        <property id="2547387476991173726" name="postfix" index="3434sR" />
      </concept>
      <concept id="2547387476992279068" name="de.ppme.expressions.structure.UnaryMinuxExpression" flags="ng" index="34fm5P" />
    </language>
    <language id="13ff48ad-ecdb-4625-9d4a-3a16f2228549" name="de.ppme.analysis">
      <concept id="194873539189788305" name="de.ppme.analysis.structure.HerbieAnnotation" flags="ng" index="2dcTFy">
        <child id="4473786558281847842" name="inputError" index="3hm849" />
        <child id="4473786558281847845" name="outputError" index="3hm84e" />
        <child id="2109194780717535517" name="replacement" index="1ZwSLB" />
      </concept>
    </language>
    <language id="ceab5195-25ea-4f22-9b92-103b95ca8c0c" name="jetbrains.mps.lang.core">
      <concept id="1133920641626" name="jetbrains.mps.lang.core.structure.BaseConcept" flags="ng" index="2VYdi">
        <child id="5169995583184591170" name="smodelAttribute" index="lGtFl" />
      </concept>
      <concept id="1169194658468" name="jetbrains.mps.lang.core.structure.INamedConcept" flags="ng" index="TrEIO">
        <property id="1169194664001" name="name" index="TrG5h" />
      </concept>
    </language>
    <language id="f7af8208-82a7-4aab-9829-b32680223c52" name="de.ppme.ctrl">
      <concept id="6166975901158549475" name="de.ppme.ctrl.structure.CtrlPropertyReference" flags="ng" index="zp_wb">
        <reference id="6166975901158549476" name="ctrlProperty" index="zp_wc" />
      </concept>
      <concept id="6397211168290209327" name="de.ppme.ctrl.structure.CtrlProperty" flags="ng" index="2ZRwI6">
        <child id="6397211168290234457" name="value" index="2ZRDnK" />
      </concept>
      <concept id="6397211168290209299" name="de.ppme.ctrl.structure.Ctrl" flags="ng" index="2ZRwIU">
        <child id="6397211168290249098" name="properties" index="2ZRmKz" />
      </concept>
      <concept id="3240844216163201259" name="de.ppme.ctrl.structure.CtrlPropertySpecification" flags="ng" index="3ScbDf">
        <reference id="3240844216163202378" name="property" index="3ScbZI" />
        <child id="3240844216163202446" name="help_txt" index="3ScbWE" />
        <child id="3240844216167160223" name="default" index="3TZ1cV" />
        <child id="3240844216167160257" name="min" index="3TZ1d_" />
      </concept>
    </language>
    <language id="63e1a497-af15-4608-bf36-c0aa0aaf901b" name="de.ppme.core">
      <concept id="396783600243789055" name="de.ppme.core.structure.ArrowExpression" flags="ng" index="cIIhE">
        <child id="396783600243789433" name="operand" index="cIIrG" />
        <child id="396783600243789435" name="operation" index="cIIrI" />
      </concept>
      <concept id="396783600244191634" name="de.ppme.core.structure.PositionMemberAccess" flags="ng" index="cKd$7" />
      <concept id="943869364551957516" name="de.ppme.core.structure.CreateTopologyStatement" flags="ng" index="2xpR0z">
        <child id="943869364552020805" name="boundary_condition" index="2xpBXE" />
      </concept>
      <concept id="943869364553727788" name="de.ppme.core.structure.CreateParticlesStatement" flags="ng" index="2xw7c3">
        <child id="943869364553727941" name="topology" index="2xw7fE" />
        <child id="708996761100070897" name="body" index="P$RcX" />
        <child id="708996761100070720" name="displacementBody" index="P$Rec" />
      </concept>
      <concept id="929032500828069707" name="de.ppme.core.structure.PowerExpression" flags="ng" index="CgG_C" />
      <concept id="3234668756578880767" name="de.ppme.core.structure.LaplacianOperator" flags="ng" index="2P4TrB" />
      <concept id="8007716293499730002" name="de.ppme.core.structure.ParticleListType" flags="ng" index="2Z2qvo">
        <reference id="8007716293502450881" name="plist" index="2ZsMdb" />
      </concept>
      <concept id="8007716293503019137" name="de.ppme.core.structure.ParticleMemberAccess" flags="ng" index="2ZuZsb">
        <reference id="8007716293503019139" name="decl" index="2ZuZs9" />
      </concept>
      <concept id="2945754496565952264" name="de.ppme.core.structure.TimeloopStatement" flags="ng" index="1jGXcj">
        <child id="2945754496565952266" name="body" index="1jGXch" />
      </concept>
      <concept id="2945754496566322702" name="de.ppme.core.structure.ODEStatement" flags="ng" index="1jIgCl">
        <child id="2945754496566322704" name="body" index="1jIgCb" />
        <child id="2945754496566322703" name="scheme" index="1jIgCk" />
        <child id="2510626663173982552" name="plist" index="3kMS3X" />
      </concept>
      <concept id="7988859962165330229" name="de.ppme.core.structure.ParticleLoopStatment" flags="ng" index="1zUE3U">
        <child id="7988859962166182297" name="variable" index="1zBU1m" />
        <child id="7988859962165330230" name="iterable" index="1zUE3T" />
      </concept>
      <concept id="21075530760348103" name="de.ppme.core.structure.RightHandSideStatement" flags="ng" index="1$9C7i">
        <child id="21075530760348112" name="rhs" index="1$9C75" />
        <child id="21075530760348132" name="argument" index="1$9C7L" />
      </concept>
      <concept id="3248163574665581147" name="de.ppme.core.structure.HAvgMemberAccess" flags="ng" index="3_ntBk" />
      <concept id="5811480436907517931" name="de.ppme.core.structure.ParticleListMemberAccess" flags="ng" index="3_DU51">
        <reference id="5811480436907519203" name="decl" index="3_DUD9" />
      </concept>
      <concept id="6068049259195233141" name="de.ppme.core.structure.CreateNeighborListStatement" flags="ng" index="3DOnBj">
        <child id="943869364554310433" name="cutoff" index="2xIQWe" />
        <child id="6068049259195233143" name="particles" index="3DOnBh" />
      </concept>
      <concept id="6068049259195233137" name="de.ppme.core.structure.DistributeStatement" flags="ng" index="3DOnBn">
        <child id="6068049259195233138" name="target" index="3DOnBk" />
        <child id="6068049259195233139" name="displacement" index="3DOnBl" />
      </concept>
      <concept id="6068049259193893556" name="de.ppme.core.structure.RandomNumberExpression" flags="ng" index="3DTgwi">
        <child id="6068049259193893557" name="type" index="3DTgwj" />
      </concept>
      <concept id="6068049259194405279" name="de.ppme.core.structure.ParticleType" flags="ng" index="3DVdGT" />
      <concept id="6068049259194405276" name="de.ppme.core.structure.FieldType" flags="ng" index="3DVdGU">
        <property id="6169113666568473107" name="ndim" index="2njP8y" />
        <child id="6169113666568473109" name="dtype" index="2njP8$" />
      </concept>
      <concept id="6068049259194405275" name="de.ppme.core.structure.DisplacementType" flags="ng" index="3DVdGX" />
      <concept id="7176368732543399555" name="de.ppme.core.structure.IOperator" flags="ng" index="1VVUfk">
        <child id="3234668756578924590" name="operand" index="2P4M8Q" />
      </concept>
      <concept id="8275212705357270209" name="de.ppme.core.structure.MyKindAnnotation" flags="ng" index="3XivFt" />
    </language>
  </registry>
  <node concept="2ZRwIU" id="5z7tqBB8b1I">
    <property role="TrG5h" value="Ctrl-default" />
    <node concept="2ZRwI6" id="5z7tqBB8b8S" role="2ZRmKz">
      <property role="TrG5h" value="kRate" />
      <node concept="BtYGi" id="5z7tqBB8b8Y" role="2ZRDnK">
        <property role="BtYGt" value="0.051" />
      </node>
    </node>
    <node concept="2ZRwI6" id="5z7tqBB8b9s" role="2ZRmKz">
      <property role="TrG5h" value="F" />
      <node concept="BtYGi" id="5z7tqBB8b9A" role="2ZRDnK">
        <property role="BtYGt" value="0.015" />
      </node>
    </node>
    <node concept="2ZRwI6" id="2dq8QBBmMEK" role="2ZRmKz">
      <property role="TrG5h" value="constDu" />
      <node concept="34318T" id="2dq8QBBmMFa" role="2ZRDnK">
        <property role="3434sM" value="2" />
        <property role="3434sR" value="-5" />
      </node>
    </node>
    <node concept="2ZRwI6" id="2dq8QBBoLaz" role="2ZRmKz">
      <property role="TrG5h" value="constDv" />
      <node concept="34318T" id="2dq8QBBqc_j" role="2ZRDnK">
        <property role="3434sM" value="1" />
        <property role="3434sR" value="-5" />
      </node>
    </node>
    <node concept="2ZRwI6" id="ON9Gjnksgh" role="2ZRmKz">
      <property role="TrG5h" value="min_phys" />
      <node concept="mjilF" id="ON9GjnksyY" role="2ZRDnK">
        <node concept="BtYGi" id="ON9GjnksEY" role="mjhxS">
          <property role="BtYGt" value="0.0" />
        </node>
        <node concept="BtYGi" id="ON9GjnksFu" role="mjhxS">
          <property role="BtYGt" value="0.0" />
        </node>
        <node concept="BtYGi" id="ON9GjnksG3" role="mjhxS">
          <property role="BtYGt" value="0.0" />
        </node>
      </node>
    </node>
    <node concept="2ZRwI6" id="ON9GjnksGD" role="2ZRmKz">
      <property role="TrG5h" value="max_phys" />
      <node concept="mjilF" id="ON9GjnksGE" role="2ZRDnK">
        <node concept="BtYGi" id="ON9GjnksGF" role="mjhxS">
          <property role="BtYGt" value="1.0" />
        </node>
        <node concept="BtYGi" id="ON9Gjnkt5s" role="mjhxS">
          <property role="BtYGt" value="1.0" />
        </node>
        <node concept="BtYGi" id="ON9Gjnkt63" role="mjhxS">
          <property role="BtYGt" value="1.0" />
        </node>
      </node>
    </node>
    <node concept="2ZRwI6" id="2dq8QBBqeV9" role="2ZRmKz">
      <property role="TrG5h" value="domain_decomposition" />
      <node concept="cCXpN" id="m1E9k9e$p$" role="2ZRDnK">
        <property role="cC$t3" value="7" />
      </node>
    </node>
    <node concept="2ZRwI6" id="2dq8QBBqeVL" role="2ZRmKz">
      <property role="TrG5h" value="processor_assignment" />
      <node concept="cCXpN" id="m1E9k9e$pL" role="2ZRDnK">
        <property role="cC$t3" value="1" />
      </node>
    </node>
    <node concept="2ZRwI6" id="2dq8QBBqeWt" role="2ZRmKz">
      <property role="TrG5h" value="ghost_size" />
      <node concept="BtYGi" id="2dq8QBBqeX7" role="2ZRDnK">
        <property role="BtYGt" value="0.05" />
      </node>
    </node>
    <node concept="2ZRwI6" id="2dq8QBBqeX_" role="2ZRmKz">
      <property role="TrG5h" value="Npart" />
      <node concept="cCXpN" id="m1E9k9e$pY" role="2ZRDnK">
        <property role="cC$t3" value="10000" />
      </node>
    </node>
    <node concept="2ZRwI6" id="2dq8QBBqf5A" role="2ZRmKz">
      <property role="TrG5h" value="ODEscheme" />
      <node concept="cCXpN" id="m1E9k9e$qg" role="2ZRDnK">
        <property role="cC$t3" value="4" />
      </node>
    </node>
    <node concept="2ZRwI6" id="2dq8QBBqf6u" role="2ZRmKz">
      <property role="TrG5h" value="start_time" />
      <node concept="BtYGi" id="2dq8QBBqf7k" role="2ZRDnK">
        <property role="BtYGt" value="0.0" />
      </node>
    </node>
    <node concept="2ZRwI6" id="2dq8QBBqf7M" role="2ZRmKz">
      <property role="TrG5h" value="time_step" />
      <node concept="BtYGi" id="2dq8QBBqf8G" role="2ZRDnK">
        <property role="BtYGt" value="0.5" />
      </node>
    </node>
    <node concept="2ZRwI6" id="2dq8QBBqf8S" role="2ZRmKz">
      <property role="TrG5h" value="stop_time" />
      <node concept="BtYGi" id="2dq8QBBqf9T" role="2ZRDnK">
        <property role="BtYGt" value="2000.0" />
      </node>
    </node>
  </node>
  <node concept="2ZRwIU" id="6IDtJdlhgfC">
    <property role="TrG5h" value="Ctrl-test" />
    <node concept="2ZRwI6" id="m1E9k9e$Yg" role="2ZRmKz">
      <property role="TrG5h" value="foo" />
      <node concept="cCXpN" id="m1E9k9e_gb" role="2ZRDnK">
        <property role="cC$t3" value="2" />
      </node>
    </node>
    <node concept="2ZRwI6" id="6IDtJdlhj7d" role="2ZRmKz">
      <property role="TrG5h" value="bar" />
      <node concept="Ztaf6" id="6IDtJdlhjcB" role="2ZRDnK">
        <property role="Ztafo" value="test" />
      </node>
    </node>
  </node>
  <node concept="32DcKF" id="2OjMSZ8hvMP">
    <property role="TrG5h" value="GrayScott (single phase)" />
    <ref role="HcygO" node="5z7tqBB8b1I" resolve="Ctrl-default" />
    <node concept="Bt1Mc" id="2OjMSZ8hvMQ" role="Bt9BK">
      <property role="TrG5h" value="all-in-one" />
      <node concept="B3gvr" id="2OjMSZ8hvMW" role="BtKE6">
        <node concept="2xpR0z" id="2OjMSZ8hvMX" role="B3gvq">
          <property role="TrG5h" value="topo" />
          <node concept="Ztaf6" id="2OjMSZ8hvMY" role="2xpBXE">
            <property role="Ztafo" value="ppm_param_bcdef_periodic" />
          </node>
        </node>
        <node concept="B3gsC" id="2OjMSZ8hvN4" role="B3gvq" />
        <node concept="2xw7c3" id="2OjMSZ8hxch" role="B3gvq">
          <property role="TrG5h" value="c" />
          <node concept="2Z2qvo" id="2OjMSZ8hxci" role="ZjIkW">
            <ref role="2ZsMdb" node="2OjMSZ8hxch" resolve="c" />
            <node concept="3DVdGT" id="2OjMSZ8hxcj" role="3E5bw" />
          </node>
          <node concept="B0vAg" id="2OjMSZ8hxgg" role="2xw7fE">
            <ref role="B0vBL" node="2OjMSZ8hvMX" resolve="topo" />
          </node>
          <node concept="B3gvr" id="2OjMSZ8hxhE" role="P$RcX">
            <node concept="$eJ5c" id="55TOEi0n6JZ" role="B3gvq">
              <node concept="3KSXMb" id="55TOEi0n6K1" role="$eJ59">
                <property role="TrG5h" value="U" />
                <node concept="3DVdGU" id="55TOEi0n6Kh" role="ZjIkW">
                  <property role="2njP8y" value="1" />
                  <node concept="ZjH0Z" id="55TOEi0n6KH" role="2njP8$" />
                </node>
              </node>
            </node>
            <node concept="$eJ5c" id="55TOEi0kd8x" role="B3gvq">
              <node concept="3KSXMb" id="55TOEi0kd8z" role="$eJ59">
                <property role="TrG5h" value="V" />
                <node concept="3DVdGU" id="55TOEi0kd8J" role="ZjIkW">
                  <property role="2njP8y" value="1" />
                  <node concept="ZjH0Z" id="55TOEi0kgy6" role="2njP8$" />
                </node>
              </node>
            </node>
          </node>
          <node concept="B3gvr" id="2OjMSZ8hxk5" role="P$Rec">
            <node concept="3DOnBn" id="2OjMSZ8hxk_" role="B3gvq">
              <node concept="B0vAg" id="2OjMSZ8irpx" role="3DOnBk">
                <ref role="B0vBL" node="2OjMSZ8hxch" resolve="c" />
              </node>
              <node concept="2P4BvU" id="2OjMSZ8hxlc" role="3DOnBl">
                <node concept="2P4BvU" id="2OjMSZ8hxld" role="Bt$3s">
                  <node concept="B2WG_" id="2OjMSZ8hxle" role="Bt$3s">
                    <node concept="B2OeQ" id="2OjMSZ8hxlf" role="BtER6">
                      <node concept="BtYGi" id="2OjMSZ8hxlg" role="Bt$3u">
                        <property role="BtYGt" value="0.5" />
                      </node>
                      <node concept="3DTgwi" id="2OjMSZ8zuss" role="Bt$3s">
                        <node concept="3DVdGX" id="2OjMSZ8zu__" role="3DTgwj" />
                      </node>
                    </node>
                  </node>
                  <node concept="cIIhE" id="2OjMSZ8kXQs" role="Bt$3u">
                    <node concept="B0vAg" id="2OjMSZ8kXPj" role="cIIrG">
                      <ref role="B0vBL" node="2OjMSZ8hxch" resolve="c" />
                    </node>
                    <node concept="3_ntBk" id="2OjMSZ8zR0n" role="cIIrI" />
                  </node>
                </node>
                <node concept="BtYGi" id="2OjMSZ8hxlj" role="Bt$3u">
                  <property role="BtYGt" value="0.15" />
                </node>
              </node>
            </node>
          </node>
        </node>
        <node concept="B3gsC" id="2OjMSZ8irNB" role="B3gvq" />
        <node concept="1zUE3U" id="2OjMSZ8irQ$" role="B3gvq">
          <node concept="B0vAg" id="2OjMSZ8irSu" role="1zUE3T">
            <ref role="B0vBL" node="2OjMSZ8hxch" resolve="c" />
          </node>
          <node concept="B3gvr" id="2OjMSZ8irQC" role="1wZMir">
            <node concept="B3hOv" id="2OjMSZ8isVQ" role="B3gvq">
              <node concept="Bt$5F" id="2OjMSZ8isVR" role="B3hOu">
                <node concept="BtYGi" id="2OjMSZ8isVS" role="Bt$3u">
                  <property role="BtYGt" value="1.0" />
                </node>
                <node concept="cIIhE" id="2OjMSZ8isVT" role="Bt$3s">
                  <node concept="B0vAg" id="2OjMSZ8isVU" role="cIIrG">
                    <ref role="B0vBL" node="2OjMSZ8irQE" resolve="p" />
                  </node>
                  <node concept="2ZuZsb" id="55TOEi0n71c" role="cIIrI">
                    <ref role="2ZuZs9" node="55TOEi0n6K1" resolve="U" />
                  </node>
                </node>
              </node>
            </node>
            <node concept="B3hOv" id="2OjMSZ8isVK" role="B3gvq">
              <node concept="Bt$5F" id="2OjMSZ8isVL" role="B3hOu">
                <node concept="BtYGi" id="2OjMSZ8isVM" role="Bt$3u">
                  <property role="BtYGt" value="0.0" />
                </node>
                <node concept="cIIhE" id="2OjMSZ8isVN" role="Bt$3s">
                  <node concept="B0vAg" id="2OjMSZ8isVO" role="cIIrG">
                    <ref role="B0vBL" node="2OjMSZ8irQE" resolve="p" />
                  </node>
                  <node concept="2ZuZsb" id="55TOEi0kda7" role="cIIrI">
                    <ref role="2ZuZs9" node="55TOEi0kd8z" resolve="V" />
                  </node>
                </node>
              </node>
            </node>
            <node concept="3EFsE7" id="2OjMSZ8is5I" role="B3gvq">
              <node concept="28VqSu" id="2OjMSZ8isIR" role="3EFsH6">
                <node concept="2P4BvU" id="ovHWz2Vym_" role="Bt$3u">
                  <node concept="3DTgwi" id="ovHWz2Vyp6" role="Bt$3u" />
                  <node concept="BtYGi" id="2OjMSZ8isRJ" role="Bt$3s">
                    <property role="BtYGt" value="0.05" />
                    <node concept="3XivFt" id="7bntxMfIYy$" role="lGtFl" />
                  </node>
                </node>
                <node concept="CgG_C" id="8cMlZwjZLk" role="Bt$3s">
                  <node concept="cCXpN" id="8cMlZwk0aB" role="Bt$3u">
                    <property role="cC$t3" value="2" />
                  </node>
                  <node concept="B2O5r" id="8cMlZwjWzH" role="Bt$3s">
                    <node concept="B2O5r" id="2OjMSZ8is6R" role="Bt$3s">
                      <node concept="CgG_C" id="2OjMSZ8is6n" role="Bt$3s">
                        <node concept="cCXpN" id="5J3$v5mm83T" role="Bt$3u">
                          <property role="cC$t3" value="2" />
                        </node>
                        <node concept="B2WG_" id="5J3$v5mm6IV" role="Bt$3s">
                          <node concept="B2OeQ" id="5J3$v5mm7xg" role="BtER6">
                            <node concept="BtYGi" id="5J3$v5mm7Sl" role="Bt$3u">
                              <property role="BtYGt" value="0.5" />
                            </node>
                            <node concept="3R0Ra" id="5J3$v5mm7as" role="Bt$3s">
                              <node concept="cCXpN" id="5J3$v5mm7lN" role="3R0Rd">
                                <property role="cC$t3" value="1" />
                              </node>
                              <node concept="cIIhE" id="5J3$v5mm6N0" role="3R0Rb">
                                <node concept="B0vAg" id="5J3$v5mm6MH" role="cIIrG">
                                  <ref role="B0vBL" node="2OjMSZ8irQE" resolve="p" />
                                </node>
                                <node concept="cKd$7" id="5J3$v5mm6Yq" role="cIIrI" />
                              </node>
                            </node>
                          </node>
                        </node>
                      </node>
                      <node concept="CgG_C" id="2OjMSZ8isAS" role="Bt$3u">
                        <node concept="cCXpN" id="5J3$v5mm9e_" role="Bt$3u">
                          <property role="cC$t3" value="2" />
                        </node>
                        <node concept="B2WG_" id="5J3$v5mm8fF" role="Bt$3s">
                          <node concept="B2OeQ" id="3rj977HAzGb" role="BtER6">
                            <node concept="BtYGi" id="3rj977HA$9$" role="Bt$3u">
                              <property role="BtYGt" value="0.5" />
                            </node>
                            <node concept="3R0Ra" id="5J3$v5mm8PB" role="Bt$3s">
                              <node concept="cCXpN" id="5J3$v5mm928" role="3R0Rd">
                                <property role="cC$t3" value="2" />
                              </node>
                              <node concept="cIIhE" id="5J3$v5mm8rR" role="3R0Rb">
                                <node concept="B0vAg" id="5J3$v5mm8r$" role="cIIrG">
                                  <ref role="B0vBL" node="2OjMSZ8irQE" resolve="p" />
                                </node>
                                <node concept="cKd$7" id="5J3$v5mm8Cr" role="cIIrI" />
                              </node>
                            </node>
                          </node>
                        </node>
                      </node>
                    </node>
                    <node concept="B2WG_" id="8cMlZwjX1e" role="Bt$3u">
                      <node concept="B2OeQ" id="8cMlZwjYBx" role="BtER6">
                        <node concept="BtYGi" id="8cMlZwjZo8" role="Bt$3u">
                          <property role="BtYGt" value="0.5" />
                        </node>
                        <node concept="3R0Ra" id="8cMlZwjXRi" role="Bt$3s">
                          <node concept="cCXpN" id="8cMlZwjYfn" role="3R0Rd">
                            <property role="cC$t3" value="3" />
                          </node>
                          <node concept="cIIhE" id="8cMlZwjX6$" role="3R0Rb">
                            <node concept="B0vAg" id="8cMlZwjX3P" role="cIIrG">
                              <ref role="B0vBL" node="2OjMSZ8irQE" resolve="p" />
                            </node>
                            <node concept="cKd$7" id="8cMlZwjXuJ" role="cIIrI" />
                          </node>
                        </node>
                      </node>
                    </node>
                  </node>
                </node>
              </node>
              <node concept="B3gvr" id="2OjMSZ8is5M" role="3EF9vl">
                <node concept="B3hOv" id="2OjMSZ8irSJ" role="B3gvq">
                  <node concept="Bt$5F" id="2OjMSZ8irWe" role="B3hOu">
                    <node concept="B2O5r" id="2OjMSZ8itwL" role="Bt$3u">
                      <node concept="2P4BvU" id="2OjMSZ8itK5" role="Bt$3u">
                        <node concept="3DTgwi" id="2OjMSZ8uBBx" role="Bt$3u" />
                        <node concept="BtYGi" id="2OjMSZ8itEV" role="Bt$3s">
                          <property role="BtYGt" value="0.01" />
                        </node>
                      </node>
                      <node concept="BtYGi" id="2OjMSZ8irY1" role="Bt$3s">
                        <property role="BtYGt" value="0.5" />
                      </node>
                    </node>
                    <node concept="cIIhE" id="2OjMSZ8irT1" role="Bt$3s">
                      <node concept="B0vAg" id="2OjMSZ8irSR" role="cIIrG">
                        <ref role="B0vBL" node="2OjMSZ8irQE" resolve="p" />
                      </node>
                      <node concept="2ZuZsb" id="55TOEi0n7Bs" role="cIIrI">
                        <ref role="2ZuZs9" node="55TOEi0n6K1" resolve="U" />
                      </node>
                    </node>
                  </node>
                </node>
                <node concept="B3hOv" id="2OjMSZ8irYZ" role="B3gvq">
                  <node concept="Bt$5F" id="2OjMSZ8irZ0" role="B3hOu">
                    <node concept="B2O5r" id="2OjMSZ8iu5m" role="Bt$3u">
                      <node concept="2P4BvU" id="2OjMSZ8iugL" role="Bt$3u">
                        <node concept="3DTgwi" id="2OjMSZ8uXWU" role="Bt$3u" />
                        <node concept="BtYGi" id="2OjMSZ8iubc" role="Bt$3s">
                          <property role="BtYGt" value="0.01" />
                        </node>
                      </node>
                      <node concept="BtYGi" id="2OjMSZ8irZ1" role="Bt$3s">
                        <property role="BtYGt" value="0.25" />
                      </node>
                    </node>
                    <node concept="cIIhE" id="2OjMSZ8irZ2" role="Bt$3s">
                      <node concept="B0vAg" id="2OjMSZ8irZ3" role="cIIrG">
                        <ref role="B0vBL" node="2OjMSZ8irQE" resolve="p" />
                      </node>
                      <node concept="2ZuZsb" id="55TOEi0kdlO" role="cIIrI">
                        <ref role="2ZuZs9" node="55TOEi0kd8z" resolve="V" />
                      </node>
                    </node>
                  </node>
                </node>
              </node>
            </node>
          </node>
          <node concept="B3B8_" id="2OjMSZ8irQE" role="1zBU1m">
            <property role="TrG5h" value="p" />
            <node concept="3DVdGT" id="2OjMSZ8irSj" role="ZjIkW" />
          </node>
        </node>
        <node concept="B3gsC" id="4F3nn$nZRvI" role="B3gvq" />
        <node concept="3DOnBj" id="4F3nn$o04ec" role="B3gvq">
          <property role="TrG5h" value="n" />
          <node concept="B0vAg" id="4F3nn$o04wf" role="3DOnBh">
            <ref role="B0vBL" node="2OjMSZ8hxch" resolve="c" />
          </node>
          <node concept="2P4BvU" id="4F3nn$o04LM" role="2xIQWe">
            <node concept="cIIhE" id="4F3nn$o04SP" role="Bt$3u">
              <node concept="B0vAg" id="4F3nn$o04RJ" role="cIIrG">
                <ref role="B0vBL" node="2OjMSZ8hxch" resolve="c" />
              </node>
              <node concept="3_ntBk" id="4F3nn$o04Zp" role="cIIrI" />
            </node>
            <node concept="BtYGi" id="4F3nn$o04FR" role="Bt$3s">
              <property role="BtYGt" value="4.0" />
            </node>
          </node>
        </node>
        <node concept="B3gsC" id="2OjMSZ8hxeH" role="B3gvq" />
        <node concept="1jGXcj" id="2OjMSZ8iuOs" role="B3gvq">
          <property role="TrG5h" value="t" />
          <node concept="B3gvr" id="2OjMSZ8iuOt" role="1jGXch">
            <node concept="1jIgCl" id="2OjMSZ8iuOu" role="B3gvq">
              <node concept="Ztaf6" id="2OjMSZ8iuOv" role="1jIgCk">
                <property role="Ztafo" value="rk4" />
              </node>
              <node concept="B3gvr" id="2OjMSZ8iuOw" role="1jIgCb">
                <node concept="1$9C7i" id="7aQhY_AO5hX" role="B3gvq">
                  <node concept="cIIhE" id="7aQhY_AO5hZ" role="1$9C7L">
                    <node concept="B0vAg" id="7aQhY_AO5yg" role="cIIrG">
                      <ref role="B0vBL" node="2OjMSZ8hxch" resolve="c" />
                    </node>
                    <node concept="3_DU51" id="55TOEi0n7Sv" role="cIIrI">
                      <ref role="3_DUD9" node="55TOEi0n6K1" resolve="U" />
                    </node>
                  </node>
                  <node concept="B2O5r" id="7aQhY_ASdgh" role="1$9C75">
                    <node concept="B2OeQ" id="7aQhY_ASdfR" role="Bt$3s">
                      <node concept="2P4BvU" id="7aQhY_ASdgu" role="Bt$3s">
                        <node concept="2P4TrB" id="7aQhY_ASdgN" role="Bt$3u">
                          <node concept="cIIhE" id="7aQhY_ASdpg" role="2P4M8Q">
                            <node concept="B0vAg" id="7aQhY_ASdxH" role="cIIrG">
                              <ref role="B0vBL" node="2OjMSZ8hxch" resolve="c" />
                            </node>
                            <node concept="3_DU51" id="55TOEi0n85C" role="cIIrI">
                              <ref role="3_DUD9" node="55TOEi0n6K1" resolve="U" />
                            </node>
                          </node>
                        </node>
                        <node concept="zp_wb" id="7aQhY_ASdgF" role="Bt$3s">
                          <ref role="zp_wc" node="2dq8QBBmMEK" resolve="constDu" />
                        </node>
                      </node>
                      <node concept="2P4BvU" id="7aQhY_ASdIT" role="Bt$3u">
                        <node concept="CgG_C" id="7aQhY_ASeeI" role="Bt$3u">
                          <node concept="cCXpN" id="5J3$v5mm9Ut" role="Bt$3u">
                            <property role="cC$t3" value="2" />
                          </node>
                          <node concept="cIIhE" id="5J3$v5mm9Gt" role="Bt$3s">
                            <node concept="B0vAg" id="5J3$v5mm9yT" role="cIIrG">
                              <ref role="B0vBL" node="2OjMSZ8hxch" resolve="c" />
                            </node>
                            <node concept="3_DU51" id="5J3$v5mm9Tf" role="cIIrI">
                              <ref role="3_DUD9" node="55TOEi0kd8z" resolve="V" />
                            </node>
                          </node>
                        </node>
                        <node concept="cIIhE" id="7aQhY_ASdzs" role="Bt$3s">
                          <node concept="B0vAg" id="7aQhY_ASdzf" role="cIIrG">
                            <ref role="B0vBL" node="2OjMSZ8hxch" resolve="c" />
                          </node>
                          <node concept="3_DU51" id="55TOEi0n8iL" role="cIIrI">
                            <ref role="3_DUD9" node="55TOEi0n6K1" resolve="U" />
                          </node>
                        </node>
                      </node>
                    </node>
                    <node concept="2P4BvU" id="7aQhY_ASeJ5" role="Bt$3u">
                      <node concept="zp_wb" id="7aQhY_ASezV" role="Bt$3s">
                        <ref role="zp_wc" node="5z7tqBB8b9s" resolve="F" />
                      </node>
                      <node concept="B2WG_" id="7aQhY_ASeJ8" role="Bt$3u">
                        <node concept="B2OeQ" id="7aQhY_ASfgC" role="BtER6">
                          <node concept="cIIhE" id="7aQhY_ASfAq" role="Bt$3u">
                            <node concept="B0vAg" id="7aQhY_ASfrg" role="cIIrG">
                              <ref role="B0vBL" node="2OjMSZ8hxch" resolve="c" />
                            </node>
                            <node concept="3_DU51" id="55TOEi0n8vU" role="cIIrI">
                              <ref role="3_DUD9" node="55TOEi0n6K1" resolve="U" />
                            </node>
                          </node>
                          <node concept="BtYGi" id="7aQhY_ASf5a" role="Bt$3s">
                            <property role="BtYGt" value="1.0" />
                          </node>
                        </node>
                      </node>
                    </node>
                    <node concept="2dcTFy" id="52OgmBKOfyq" role="lGtFl">
                      <node concept="1$9C7i" id="52OgmBKOfUX" role="1ZwSLB">
                        <node concept="cIIhE" id="52OgmBKOfUY" role="1$9C7L">
                          <node concept="B0vAg" id="52OgmBKOfUZ" role="cIIrG">
                            <ref role="B0vBL" node="2OjMSZ8hxch" resolve="c" />
                          </node>
                          <node concept="3_DU51" id="52OgmBKOfV0" role="cIIrI">
                            <ref role="3_DUD9" node="55TOEi0n6K1" resolve="U" />
                          </node>
                        </node>
                        <node concept="B2WG_" id="52OgmBKOfUW" role="1$9C75">
                          <node concept="B2O5r" id="52OgmBKOfUV" role="BtER6">
                            <node concept="B2WG_" id="52OgmBKOfUL" role="Bt$3s">
                              <node concept="B2OeQ" id="52OgmBKOfUK" role="BtER6">
                                <node concept="B2WG_" id="52OgmBKOfUy" role="Bt$3s">
                                  <node concept="2P4BvU" id="52OgmBKOfUx" role="BtER6">
                                    <node concept="zp_wb" id="52OgmBKOfUs" role="Bt$3s">
                                      <ref role="zp_wc" node="2dq8QBBmMEK" resolve="constDu" />
                                    </node>
                                    <node concept="2P4TrB" id="52OgmBKOfUt" role="Bt$3u">
                                      <node concept="cIIhE" id="52OgmBKOfUu" role="2P4M8Q">
                                        <node concept="B0vAg" id="52OgmBKOfUv" role="cIIrG">
                                          <ref role="B0vBL" node="2OjMSZ8hxch" resolve="c" />
                                        </node>
                                        <node concept="3_DU51" id="52OgmBKOfUw" role="cIIrI">
                                          <ref role="3_DUD9" node="55TOEi0n6K1" resolve="U" />
                                        </node>
                                      </node>
                                    </node>
                                  </node>
                                </node>
                                <node concept="B2WG_" id="52OgmBKOfUJ" role="Bt$3u">
                                  <node concept="2P4BvU" id="52OgmBKOfUI" role="BtER6">
                                    <node concept="B2WG_" id="52OgmBKOfUE" role="Bt$3s">
                                      <node concept="2P4BvU" id="52OgmBKOfUD" role="BtER6">
                                        <node concept="cIIhE" id="52OgmBKOfUz" role="Bt$3s">
                                          <node concept="B0vAg" id="52OgmBKOfU$" role="cIIrG">
                                            <ref role="B0vBL" node="2OjMSZ8hxch" resolve="c" />
                                          </node>
                                          <node concept="3_DU51" id="52OgmBKOfU_" role="cIIrI">
                                            <ref role="3_DUD9" node="55TOEi0n6K1" resolve="U" />
                                          </node>
                                        </node>
                                        <node concept="cIIhE" id="52OgmBKOfUA" role="Bt$3u">
                                          <node concept="B0vAg" id="52OgmBKOfUB" role="cIIrG">
                                            <ref role="B0vBL" node="2OjMSZ8hxch" resolve="c" />
                                          </node>
                                          <node concept="3_DU51" id="52OgmBKOfUC" role="cIIrI">
                                            <ref role="3_DUD9" node="55TOEi0kd8z" resolve="V" />
                                          </node>
                                        </node>
                                      </node>
                                    </node>
                                    <node concept="cIIhE" id="52OgmBKOfUF" role="Bt$3u">
                                      <node concept="B0vAg" id="52OgmBKOfUG" role="cIIrG">
                                        <ref role="B0vBL" node="2OjMSZ8hxch" resolve="c" />
                                      </node>
                                      <node concept="3_DU51" id="52OgmBKOfUH" role="cIIrI">
                                        <ref role="3_DUD9" node="55TOEi0kd8z" resolve="V" />
                                      </node>
                                    </node>
                                  </node>
                                </node>
                              </node>
                            </node>
                            <node concept="B2WG_" id="52OgmBKOfUU" role="Bt$3u">
                              <node concept="2P4BvU" id="52OgmBKOfUT" role="BtER6">
                                <node concept="B2WG_" id="52OgmBKOfUR" role="Bt$3s">
                                  <node concept="B2OeQ" id="52OgmBKOfUQ" role="BtER6">
                                    <node concept="BtYGi" id="52OgmBKOfUM" role="Bt$3s">
                                      <property role="BtYGt" value="1.0" />
                                    </node>
                                    <node concept="cIIhE" id="52OgmBKOfUN" role="Bt$3u">
                                      <node concept="B0vAg" id="52OgmBKOfUO" role="cIIrG">
                                        <ref role="B0vBL" node="2OjMSZ8hxch" resolve="c" />
                                      </node>
                                      <node concept="3_DU51" id="52OgmBKOfUP" role="cIIrI">
                                        <ref role="3_DUD9" node="55TOEi0n6K1" resolve="U" />
                                      </node>
                                    </node>
                                  </node>
                                </node>
                                <node concept="zp_wb" id="52OgmBKOfUS" role="Bt$3u">
                                  <ref role="zp_wc" node="5z7tqBB8b9s" resolve="F" />
                                </node>
                              </node>
                            </node>
                          </node>
                        </node>
                      </node>
                      <node concept="BtYGi" id="52OgmBKOfVr" role="3hm849">
                        <property role="BtYGt" value="7.1231523" />
                      </node>
                      <node concept="BtYGi" id="52OgmBKOfVs" role="3hm84e">
                        <property role="BtYGt" value="0.08203125" />
                      </node>
                    </node>
                  </node>
                </node>
                <node concept="1$9C7i" id="52OgmBKNJlw" role="B3gvq">
                  <node concept="cIIhE" id="52OgmBKNJly" role="1$9C7L">
                    <node concept="B0vAg" id="52OgmBKNJGM" role="cIIrG">
                      <ref role="B0vBL" node="2OjMSZ8hxch" resolve="c" />
                    </node>
                    <node concept="3_DU51" id="52OgmBKNJHt" role="cIIrI">
                      <ref role="3_DUD9" node="55TOEi0kd8z" resolve="V" />
                    </node>
                  </node>
                  <node concept="B2O5r" id="52OgmBKNJIb" role="1$9C75">
                    <node concept="B2OeQ" id="52OgmBKNJIm" role="Bt$3u">
                      <node concept="2P4BvU" id="52OgmBKNSjI" role="Bt$3u">
                        <node concept="cIIhE" id="52OgmBKNTk9" role="Bt$3u">
                          <node concept="B0vAg" id="52OgmBKNSNo" role="cIIrG">
                            <ref role="B0vBL" node="2OjMSZ8hxch" resolve="c" />
                          </node>
                          <node concept="3_DU51" id="52OgmBKNTOn" role="cIIrI">
                            <ref role="3_DUD9" node="55TOEi0kd8z" resolve="V" />
                          </node>
                        </node>
                        <node concept="B2WG_" id="52OgmBKNQkQ" role="Bt$3s">
                          <node concept="B2O5r" id="52OgmBKNRka" role="BtER6">
                            <node concept="zp_wb" id="52OgmBKNRNA" role="Bt$3u">
                              <ref role="zp_wc" node="5z7tqBB8b8S" resolve="kRate" />
                            </node>
                            <node concept="zp_wb" id="52OgmBKNQOb" role="Bt$3s">
                              <ref role="zp_wc" node="5z7tqBB8b9s" resolve="F" />
                            </node>
                          </node>
                        </node>
                      </node>
                      <node concept="2P4BvU" id="52OgmBKNMn3" role="Bt$3s">
                        <node concept="cIIhE" id="52OgmBKNLoy" role="Bt$3s">
                          <node concept="B0vAg" id="52OgmBKNKYW" role="cIIrG">
                            <ref role="B0vBL" node="2OjMSZ8hxch" resolve="c" />
                          </node>
                          <node concept="3_DU51" id="52OgmBKNLR3" role="cIIrI">
                            <ref role="3_DUD9" node="55TOEi0n6K1" resolve="U" />
                          </node>
                        </node>
                        <node concept="CgG_C" id="52OgmBKNPlS" role="Bt$3u">
                          <node concept="cIIhE" id="52OgmBKNNkH" role="Bt$3s">
                            <node concept="B0vAg" id="52OgmBKNMPK" role="cIIrG">
                              <ref role="B0vBL" node="2OjMSZ8hxch" resolve="c" />
                            </node>
                            <node concept="3_DU51" id="52OgmBKNNNz" role="cIIrI">
                              <ref role="3_DUD9" node="55TOEi0kd8z" resolve="V" />
                            </node>
                          </node>
                          <node concept="cCXpN" id="52OgmBKNPP_" role="Bt$3u">
                            <property role="cC$t3" value="2" />
                          </node>
                        </node>
                      </node>
                    </node>
                    <node concept="2P4BvU" id="52OgmBKNJMU" role="Bt$3s">
                      <node concept="2P4TrB" id="52OgmBKNKbG" role="Bt$3u">
                        <node concept="cIIhE" id="52OgmBKNK$v" role="2P4M8Q">
                          <node concept="B0vAg" id="52OgmBKNKXk" role="cIIrG">
                            <ref role="B0vBL" node="2OjMSZ8hxch" resolve="c" />
                          </node>
                          <node concept="3_DU51" id="52OgmBKNKXZ" role="cIIrI">
                            <ref role="3_DUD9" node="55TOEi0kd8z" resolve="V" />
                          </node>
                        </node>
                      </node>
                      <node concept="zp_wb" id="52OgmBKNJIz" role="Bt$3s">
                        <ref role="zp_wc" node="2dq8QBBoLaz" resolve="constDv" />
                      </node>
                    </node>
                    <node concept="2dcTFy" id="52OgmBKNUAk" role="lGtFl">
                      <node concept="1$9C7i" id="52OgmBKOfW0" role="1ZwSLB">
                        <node concept="cIIhE" id="52OgmBKOfW1" role="1$9C7L">
                          <node concept="B0vAg" id="52OgmBKOfW2" role="cIIrG">
                            <ref role="B0vBL" node="2OjMSZ8hxch" resolve="c" />
                          </node>
                          <node concept="3_DU51" id="52OgmBKOfW3" role="cIIrI">
                            <ref role="3_DUD9" node="55TOEi0kd8z" resolve="V" />
                          </node>
                        </node>
                        <node concept="B2WG_" id="52OgmBKOfVZ" role="1$9C75">
                          <node concept="B2O5r" id="52OgmBKOfVY" role="BtER6">
                            <node concept="B2WG_" id="52OgmBKOfVQ" role="Bt$3s">
                              <node concept="B2O5r" id="52OgmBKOfVP" role="BtER6">
                                <node concept="B2WG_" id="52OgmBKOfVD" role="Bt$3s">
                                  <node concept="2P4BvU" id="52OgmBKOfVC" role="BtER6">
                                    <node concept="cIIhE" id="52OgmBKOfVt" role="Bt$3s">
                                      <node concept="B0vAg" id="52OgmBKOfVu" role="cIIrG">
                                        <ref role="B0vBL" node="2OjMSZ8hxch" resolve="c" />
                                      </node>
                                      <node concept="3_DU51" id="52OgmBKOfVv" role="cIIrI">
                                        <ref role="3_DUD9" node="55TOEi0kd8z" resolve="V" />
                                      </node>
                                    </node>
                                    <node concept="B2WG_" id="52OgmBKOfVB" role="Bt$3u">
                                      <node concept="2P4BvU" id="52OgmBKOfVA" role="BtER6">
                                        <node concept="cIIhE" id="52OgmBKOfVw" role="Bt$3s">
                                          <node concept="B0vAg" id="52OgmBKOfVx" role="cIIrG">
                                            <ref role="B0vBL" node="2OjMSZ8hxch" resolve="c" />
                                          </node>
                                          <node concept="3_DU51" id="52OgmBKOfVy" role="cIIrI">
                                            <ref role="3_DUD9" node="55TOEi0n6K1" resolve="U" />
                                          </node>
                                        </node>
                                        <node concept="cIIhE" id="52OgmBKOfVz" role="Bt$3u">
                                          <node concept="B0vAg" id="52OgmBKOfV$" role="cIIrG">
                                            <ref role="B0vBL" node="2OjMSZ8hxch" resolve="c" />
                                          </node>
                                          <node concept="3_DU51" id="52OgmBKOfV_" role="cIIrI">
                                            <ref role="3_DUD9" node="55TOEi0kd8z" resolve="V" />
                                          </node>
                                        </node>
                                      </node>
                                    </node>
                                  </node>
                                </node>
                                <node concept="B2WG_" id="52OgmBKOfVO" role="Bt$3u">
                                  <node concept="2P4BvU" id="52OgmBKOfVN" role="BtER6">
                                    <node concept="cIIhE" id="52OgmBKOfVE" role="Bt$3s">
                                      <node concept="B0vAg" id="52OgmBKOfVF" role="cIIrG">
                                        <ref role="B0vBL" node="2OjMSZ8hxch" resolve="c" />
                                      </node>
                                      <node concept="3_DU51" id="52OgmBKOfVG" role="cIIrI">
                                        <ref role="3_DUD9" node="55TOEi0kd8z" resolve="V" />
                                      </node>
                                    </node>
                                    <node concept="B2WG_" id="52OgmBKOfVM" role="Bt$3u">
                                      <node concept="34fm5P" id="52OgmBKOfVL" role="BtER6">
                                        <node concept="B2WG_" id="52OgmBKOfVK" role="BtER6">
                                          <node concept="B2O5r" id="52OgmBKOfVJ" role="BtER6">
                                            <node concept="zp_wb" id="52OgmBKOfVH" role="Bt$3s">
                                              <ref role="zp_wc" node="5z7tqBB8b8S" resolve="kRate" />
                                            </node>
                                            <node concept="zp_wb" id="52OgmBKOfVI" role="Bt$3u">
                                              <ref role="zp_wc" node="5z7tqBB8b9s" resolve="F" />
                                            </node>
                                          </node>
                                        </node>
                                      </node>
                                    </node>
                                  </node>
                                </node>
                              </node>
                            </node>
                            <node concept="B2WG_" id="52OgmBKOfVX" role="Bt$3u">
                              <node concept="2P4BvU" id="52OgmBKOfVW" role="BtER6">
                                <node concept="zp_wb" id="52OgmBKOfVR" role="Bt$3s">
                                  <ref role="zp_wc" node="2dq8QBBoLaz" resolve="constDv" />
                                </node>
                                <node concept="2P4TrB" id="52OgmBKOfVS" role="Bt$3u">
                                  <node concept="cIIhE" id="52OgmBKOfVT" role="2P4M8Q">
                                    <node concept="B0vAg" id="52OgmBKOfVU" role="cIIrG">
                                      <ref role="B0vBL" node="2OjMSZ8hxch" resolve="c" />
                                    </node>
                                    <node concept="3_DU51" id="52OgmBKOfVV" role="cIIrI">
                                      <ref role="3_DUD9" node="55TOEi0kd8z" resolve="V" />
                                    </node>
                                  </node>
                                </node>
                              </node>
                            </node>
                          </node>
                        </node>
                      </node>
                      <node concept="BtYGi" id="52OgmBKOfX7" role="3hm849">
                        <property role="BtYGt" value="2.174412" />
                      </node>
                      <node concept="BtYGi" id="52OgmBKOfX8" role="3hm84e">
                        <property role="BtYGt" value="0.05078125" />
                      </node>
                    </node>
                  </node>
                </node>
              </node>
              <node concept="B0vAg" id="2bnyqnQ7x0A" role="3kMS3X">
                <ref role="B0vBL" node="2OjMSZ8hxch" resolve="c" />
              </node>
            </node>
            <node concept="3EFUyv" id="2OjMSZ8iwum" role="B3gvq">
              <node concept="cIIhE" id="2OjMSZ8iyOe" role="3EFUNR">
                <node concept="B0vAg" id="2OjMSZ8iyNZ" role="cIIrG">
                  <ref role="B0vBL" node="2OjMSZ8hxch" resolve="c" />
                </node>
                <node concept="3_DU51" id="55TOEi0pdrB" role="cIIrI">
                  <ref role="3_DUD9" node="55TOEi0n6K1" resolve="U" />
                </node>
              </node>
              <node concept="cIIhE" id="2OjMSZ8iyTs" role="3EFUNR">
                <node concept="B0vAg" id="2OjMSZ8iyTb" role="cIIrG">
                  <ref role="B0vBL" node="2OjMSZ8hxch" resolve="c" />
                </node>
                <node concept="3_DU51" id="55TOEi0keFl" role="cIIrI">
                  <ref role="3_DUD9" node="55TOEi0kd8z" resolve="V" />
                </node>
              </node>
            </node>
          </node>
        </node>
        <node concept="B3gsC" id="2OjMSZ8hvOt" role="B3gvq" />
      </node>
    </node>
    <node concept="3ScbDf" id="5U5m3AqckJR" role="3ScKZR">
      <ref role="3ScbZI" node="2dq8QBBmMEK" resolve="constDu" />
      <node concept="BtYGi" id="5U5m3AqckO7" role="3TZ1cV">
        <property role="BtYGt" value="1.0" />
      </node>
      <node concept="BtYGi" id="5U5m3AqckQY" role="3TZ1d_">
        <property role="BtYGt" value="0.0" />
      </node>
      <node concept="Ztaf6" id="5U5m3AqckSq" role="3ScbWE">
        <property role="Ztafo" value="diffusion constant of U" />
      </node>
    </node>
    <node concept="3ScbDf" id="5U5m3AqckV0" role="3ScKZR">
      <ref role="3ScbZI" node="2dq8QBBoLaz" resolve="constDv" />
      <node concept="BtYGi" id="5U5m3AqckWG" role="3TZ1cV">
        <property role="BtYGt" value="1.0" />
      </node>
      <node concept="BtYGi" id="5U5m3AqckZL" role="3TZ1d_">
        <property role="BtYGt" value="0.0" />
      </node>
      <node concept="Ztaf6" id="5U5m3Aqcl1k" role="3ScbWE">
        <property role="Ztafo" value="diffusion constant of V" />
      </node>
    </node>
    <node concept="3ScbDf" id="5U5m3Aqcl41" role="3ScKZR">
      <ref role="3ScbZI" node="5z7tqBB8b9s" resolve="F" />
      <node concept="BtYGi" id="5U5m3Aqcl5S" role="3TZ1cV">
        <property role="BtYGt" value="1.0" />
      </node>
      <node concept="BtYGi" id="5U5m3Aqcl9b" role="3TZ1d_">
        <property role="BtYGt" value="0.0" />
      </node>
      <node concept="Ztaf6" id="5U5m3AqclaP" role="3ScbWE">
        <property role="Ztafo" value="reaction parameter F" />
      </node>
    </node>
    <node concept="3ScbDf" id="5U5m3Aqcler" role="3ScKZR">
      <ref role="3ScbZI" node="5z7tqBB8b8S" resolve="kRate" />
      <node concept="BtYGi" id="5U5m3Aqclgt" role="3TZ1cV">
        <property role="BtYGt" value="1.0" />
      </node>
      <node concept="BtYGi" id="5U5m3AqcljY" role="3TZ1d_">
        <property role="BtYGt" value="0.0" />
      </node>
      <node concept="Ztaf6" id="5U5m3AqcllJ" role="3ScbWE">
        <property role="Ztafo" value="reaction rate" />
      </node>
    </node>
  </node>
</model>

